RunTimeNumber,Number Of Faults,States Coverage,Transition Coverage,Branches Coverage,Instructions Coverage,Lines Coverage,Number of tests to achieve All States coverage,Execution time in nanoseconds to achieve All States coverage,Number of tests to find the first fault,Execution time in nanoseconds to find the first fault
1,1,100,18.75,80,89.28571429,87.5,3,5828368,3,5771822
2,1,100,18.75,80,89.28571429,87.5,3,87389,3,74538
3,1,100,18.75,80,89.28571429,87.5,3,86361,2,60658
4,1,100,18.75,80,89.28571429,87.5,3,79165,2,51406
5,1,100,18.75,80,89.28571429,87.5,3,122860,3,102811
6,1,100,18.75,80,89.28571429,87.5,3,74539,2,56547
7,1,100,18.75,80,89.28571429,87.5,3,103325,2,67855
8,1,100,18.75,80,89.28571429,87.5,3,110522,2,82249
9,1,100,18.75,80,89.28571429,87.5,3,82249,3,69398
10,1,100,18.75,80,89.28571429,87.5,3,76080,3,64257
11,1,100,18.75,80,89.28571429,87.5,3,77108,2,57574
12,1,100,18.75,80,89.28571429,87.5,3,72996,3,61686
13,1,100,18.75,80,89.28571429,87.5,3,76594,3,64257
14,1,100,18.75,80,89.28571429,87.5,3,116177,2,81221
15,1,100,18.75,80,89.28571429,87.5,3,89446,2,69912
16,1,100,18.75,80,89.28571429,87.5,3,65285,3,53976
17,1,100,18.75,80,89.28571429,87.5,3,116177,3,99727
18,1,100,18.75,80,89.28571429,87.5,3,68369,3,57060
19,1,100,18.75,80,89.28571429,87.5,3,90473,2,70939
20,1,100,18.75,80,89.28571429,87.5,3,70940,3,59631
21,1,100,18.75,80,89.28571429,87.5,3,95100,3,83277
22,1,100,18.75,80,89.28571429,87.5,3,130570,3,103839
23,1,100,18.75,80,89.28571429,87.5,3,244691,3,76595
24,1,100,18.75,80,89.28571429,87.5,3,74538,2,56032
25,1,100,18.75,80,89.28571429,87.5,3,76595,3,60659
26,1,100,18.75,80,89.28571429,87.5,3,61687,3,53976
27,1,100,18.75,80,89.28571429,87.5,3,60145,2,45237
28,1,100,18.75,80,89.28571429,87.5,3,60144,3,54490
29,1,100,18.75,80,89.28571429,87.5,3,52948,3,48321
30,1,100,18.75,80,89.28571429,87.5,3,46780,3,41639
31,1,100,18.75,80,89.28571429,87.5,3,61687,2,47293
32,1,100,18.75,80,89.28571429,87.5,3,60659,2,48836
33,1,100,18.75,80,89.28571429,87.5,3,55004,3,49864
34,1,100,18.75,80,89.28571429,87.5,3,61686,3,56546
35,1,100,18.75,80,89.28571429,87.5,3,59631,2,46779
36,1,100,18.75,80,89.28571429,87.5,3,57575,2,45751
37,1,100,18.75,80,89.28571429,87.5,3,3854907,2,55004
38,1,100,18.75,80,89.28571429,87.5,3,65285,3,59117
39,1,100,18.75,80,89.28571429,87.5,3,59117,3,53976
40,1,100,18.75,80,89.28571429,87.5,3,52433,2,42152
41,1,100,18.75,80,89.28571429,87.5,3,52434,3,48321
42,1,100,18.75,80,89.28571429,87.5,3,78651,2,46779
43,1,100,18.75,80,89.28571429,87.5,3,83791,3,78650
44,1,100,18.75,80,89.28571429,87.5,3,58602,2,49863
45,1,100,18.75,80,89.28571429,87.5,3,42152,3,38040
46,1,100,18.75,80,89.28571429,87.5,3,40610,3,37012
47,1,100,18.75,80,89.28571429,87.5,3,47807,2,39068
48,1,100,18.75,80,89.28571429,87.5,3,41638,3,38040
49,1,100,18.75,80,89.28571429,87.5,3,46779,2,38554
50,1,100,18.75,80,89.28571429,87.5,3,45237,2,37012
51,1,100,18.75,80,89.28571429,87.5,3,70426,2,55004
52,1,100,18.75,80,89.28571429,87.5,3,53976,2,45237
53,1,100,18.75,80,89.28571429,87.5,3,53461,2,43180
54,1,100,18.75,80,89.28571429,87.5,3,45751,2,37012
55,1,100,18.75,80,89.28571429,87.5,3,48835,2,39068
56,1,100,18.75,80,89.28571429,87.5,3,41639,2,33928
57,1,100,18.75,80,89.28571429,87.5,3,36498,3,32899
58,1,100,18.75,80,89.28571429,87.5,3,55004,2,47293
59,1,100,18.75,80,89.28571429,87.5,3,50377,3,46265
60,1,100,18.75,80,89.28571429,87.5,3,47807,3,43695
61,1,100,18.75,80,89.28571429,87.5,3,58603,3,54490
62,1,100,18.75,80,89.28571429,87.5,3,48835,2,41125
63,1,100,18.75,80,89.28571429,87.5,3,36498,3,32385
64,1,100,18.75,80,89.28571429,87.5,3,41124,3,36498
65,1,100,18.75,80,89.28571429,87.5,3,37526,3,32385
66,1,100,18.75,80,89.28571429,87.5,3,42153,3,38554
67,1,100,18.75,80,89.28571429,87.5,3,40096,2,32385
68,1,100,18.75,80,89.28571429,87.5,3,43180,3,39582
69,1,100,18.75,80,89.28571429,87.5,3,50378,2,42667
70,1,100,18.75,80,89.28571429,87.5,3,43695,3,40096
71,1,100,18.75,80,89.28571429,87.5,3,47807,3,41639
72,1,100,18.75,80,89.28571429,87.5,3,60145,3,56032
73,1,100,18.75,80,89.28571429,87.5,3,55518,3,50891
74,1,100,18.75,80,89.28571429,87.5,3,41638,3,38040
75,1,100,18.75,80,89.28571429,87.5,3,45237,2,34442
76,1,100,18.75,80,89.28571429,87.5,3,53462,3,48835
77,1,100,18.75,80,89.28571429,87.5,3,52948,3,47293
78,1,100,18.75,80,89.28571429,87.5,3,55518,3,51405
79,1,100,18.75,80,89.28571429,87.5,3,81221,2,71454
80,1,100,18.75,80,89.28571429,87.5,3,120803,2,98699
81,1,100,18.75,80,89.28571429,87.5,3,51405,3,47293
82,1,100,18.75,80,89.28571429,87.5,3,46265,2,37012
83,1,100,18.75,80,89.28571429,87.5,3,46265,3,42152
84,1,100,18.75,80,89.28571429,87.5,3,74024,3,67341
85,1,100,18.75,80,89.28571429,87.5,3,45237,2,38040
86,1,100,18.75,80,89.28571429,87.5,3,96642,3,90474
87,1,100,18.75,80,89.28571429,87.5,3,115149,3,105382
88,1,100,18.75,80,89.28571429,87.5,3,90474,3,86875
89,1,100,18.75,80,89.28571429,87.5,3,43181,3,38041
90,1,100,18.75,80,89.28571429,87.5,3,33413,3,30329
91,1,100,18.75,80,89.28571429,87.5,3,32386,3,28787
92,1,100,18.75,80,89.28571429,87.5,3,32899,3,30329
93,1,100,18.75,80,89.28571429,87.5,3,52948,2,44209
94,1,100,18.75,80,89.28571429,87.5,3,42152,3,38554
95,1,100,18.75,80,89.28571429,87.5,3,31871,2,26731
96,1,100,18.75,80,89.28571429,87.5,3,28787,3,25703
97,1,100,18.75,80,89.28571429,87.5,3,38554,2,32385
98,1,100,18.75,80,89.28571429,87.5,3,33928,2,27760
99,1,100,18.75,80,89.28571429,87.5,3,30844,3,27759
100,1,100,18.75,80,89.28571429,87.5,3,32899,3,29815
101,1,100,18.75,80,89.28571429,87.5,3,37526,3,34442
102,1,100,18.75,80,89.28571429,87.5,3,45751,2,39582
103,1,100,18.75,80,89.28571429,87.5,3,40097,2,32900
104,1,100,18.75,80,89.28571429,87.5,3,40096,3,36498
105,1,100,18.75,80,89.28571429,87.5,3,33413,3,29815
106,1,100,18.75,80,89.28571429,87.5,3,32386,3,29301
107,1,100,18.75,80,89.28571429,87.5,3,58602,2,51920
108,1,100,18.75,80,89.28571429,87.5,3,51406,2,44723
109,1,100,18.75,80,89.28571429,87.5,3,45237,2,38554
110,1,100,18.75,80,89.28571429,87.5,3,49349,2,43181
111,1,100,18.75,80,89.28571429,87.5,3,42153,2,35984
112,1,100,18.75,80,89.28571429,87.5,3,47294,3,43695
113,1,100,18.75,80,89.28571429,87.5,3,41125,3,38040
114,1,100,18.75,80,89.28571429,87.5,3,64257,2,58088
115,1,100,18.75,80,89.28571429,87.5,3,46779,2,41124
116,1,100,18.75,80,89.28571429,87.5,3,44209,3,41124
117,1,100,18.75,80,89.28571429,87.5,3,43695,2,37012
118,1,100,18.75,80,89.28571429,87.5,3,38040,3,34441
119,1,100,18.75,80,89.28571429,87.5,3,35984,3,32900
120,1,100,18.75,80,89.28571429,87.5,3,58603,3,53462
121,1,100,18.75,80,89.28571429,87.5,3,90474,3,84819
122,1,100,18.75,80,89.28571429,87.5,3,41125,3,38040
123,1,100,18.75,80,89.28571429,87.5,3,49350,2,42153
124,1,100,18.75,80,89.28571429,87.5,3,58089,3,53462
125,1,100,18.75,80,89.28571429,87.5,3,39068,3,35984
126,1,100,18.75,80,89.28571429,87.5,3,38555,2,32386
127,1,100,18.75,80,89.28571429,87.5,3,40610,3,35470
128,1,100,18.75,80,89.28571429,87.5,3,62201,2,40611
129,1,100,18.75,80,89.28571429,87.5,3,66827,2,60659
130,1,100,18.75,80,89.28571429,87.5,3,72995,2,67855
131,1,100,18.75,80,89.28571429,87.5,3,32899,3,30329
132,1,100,18.75,80,89.28571429,87.5,3,46779,2,38554
133,1,100,18.75,80,89.28571429,87.5,3,45751,2,41125
134,1,100,18.75,80,89.28571429,87.5,3,38555,2,33928
135,1,100,18.75,80,89.28571429,87.5,3,39582,2,34441
136,1,100,18.75,80,89.28571429,87.5,3,38040,2,33413
137,1,100,18.75,80,89.28571429,87.5,3,43180,3,37526
138,1,100,18.75,80,89.28571429,87.5,3,33413,3,30843
139,1,100,18.75,80,89.28571429,87.5,3,42153,3,38040
140,1,100,18.75,80,89.28571429,87.5,3,39068,2,33928
141,1,100,18.75,80,89.28571429,87.5,3,33414,3,30843
142,1,100,18.75,80,89.28571429,87.5,3,33413,3,25702
143,1,100,18.75,80,89.28571429,87.5,3,41125,3,38040
144,1,100,18.75,80,89.28571429,87.5,3,43695,3,40096
145,1,100,18.75,80,89.28571429,87.5,3,35984,2,31871
146,1,100,18.75,80,89.28571429,87.5,3,30844,2,26731
147,1,100,18.75,80,89.28571429,87.5,3,39583,2,32386
148,1,100,18.75,80,89.28571429,87.5,3,49864,2,45751
149,1,100,18.75,80,89.28571429,87.5,3,58602,2,50891
150,1,100,18.75,80,89.28571429,87.5,3,31357,2,27245
151,1,100,18.75,80,89.28571429,87.5,3,26731,3,22619
152,1,100,18.75,80,89.28571429,87.5,3,26216,2,22104
153,1,100,18.75,80,89.28571429,87.5,3,23132,3,20562
154,1,100,18.75,80,89.28571429,87.5,3,25702,3,23132
155,1,100,18.75,80,89.28571429,87.5,3,30329,3,27759
156,1,100,18.75,80,89.28571429,87.5,3,28787,3,25703
157,1,100,18.75,80,89.28571429,87.5,3,28787,2,24675
158,1,100,18.75,80,89.28571429,87.5,3,29815,3,27245
159,1,100,18.75,80,89.28571429,87.5,3,31358,3,28787
160,1,100,18.75,80,89.28571429,87.5,3,37012,3,33927
161,1,100,18.75,80,89.28571429,87.5,3,32900,2,28787
162,1,100,18.75,80,89.28571429,87.5,3,32386,2,28273
163,1,100,18.75,80,89.28571429,87.5,3,34441,2,30329
164,1,100,18.75,80,89.28571429,87.5,3,29816,3,25189
165,1,100,18.75,80,89.28571429,87.5,3,30844,3,28273
166,1,100,18.75,80,89.28571429,87.5,3,48836,3,43695
167,1,100,18.75,80,89.28571429,87.5,3,52433,3,49349
168,1,100,18.75,80,89.28571429,87.5,3,30843,3,28273
169,1,100,18.75,80,89.28571429,87.5,3,45237,3,41124
170,1,100,18.75,80,89.28571429,87.5,3,26217,3,23646
171,1,100,18.75,80,89.28571429,87.5,3,27759,3,25188
172,1,100,18.75,80,89.28571429,87.5,3,35984,2,30330
173,1,100,18.75,80,89.28571429,87.5,3,28787,3,23647
174,1,100,18.75,80,89.28571429,87.5,3,34956,3,32386
175,1,100,18.75,80,89.28571429,87.5,3,32386,2,28273
176,1,100,18.75,80,89.28571429,87.5,3,34442,2,29301
177,1,100,18.75,80,89.28571429,87.5,3,25189,3,22619
178,1,100,18.75,80,89.28571429,87.5,3,40096,2,35470
179,1,100,18.75,80,89.28571429,87.5,3,37526,3,33927
180,1,100,18.75,80,89.28571429,87.5,3,43694,3,41124
181,1,100,18.75,80,89.28571429,87.5,3,40611,3,37012
182,1,100,18.75,80,89.28571429,87.5,3,31357,2,27759
183,1,100,18.75,80,89.28571429,87.5,3,26217,3,23646
184,1,100,18.75,80,89.28571429,87.5,3,30844,2,23133
185,1,100,18.75,80,89.28571429,87.5,3,26731,2,22618
186,1,100,18.75,80,89.28571429,87.5,3,25703,2,22104
187,1,100,18.75,80,89.28571429,87.5,3,27759,2,24160
188,1,100,18.75,80,89.28571429,87.5,3,29815,3,27245
189,1,100,18.75,80,89.28571429,87.5,3,25702,3,23132
190,1,100,18.75,80,89.28571429,87.5,3,24675,2,20048
191,1,100,18.75,80,89.28571429,87.5,3,26731,2,23133
192,1,100,18.75,80,89.28571429,87.5,3,24161,3,21590
193,1,100,18.75,80,89.28571429,87.5,3,50891,3,46779
194,1,100,18.75,80,89.28571429,87.5,3,51406,3,47808
195,1,100,18.75,80,89.28571429,87.5,3,30843,3,28273
196,1,100,18.75,80,89.28571429,87.5,3,28787,3,25703
197,1,100,18.75,80,89.28571429,87.5,3,29301,2,25188
198,1,100,18.75,80,89.28571429,87.5,3,45237,2,40096
199,1,100,18.75,80,89.28571429,87.5,3,38040,2,33413
200,1,100,18.75,80,89.28571429,87.5,3,25189,2,22104
201,1,100,18.75,80,89.28571429,87.5,3,23647,2,20048
202,1,100,18.75,80,89.28571429,87.5,3,26731,2,23133
203,1,100,18.75,80,89.28571429,87.5,3,29815,2,25702
204,1,100,18.75,80,89.28571429,87.5,3,30844,2,26731
205,1,100,18.75,80,89.28571429,87.5,3,36498,2,32899
206,1,100,18.75,80,89.28571429,87.5,3,32899,2,29301
207,1,100,18.75,80,89.28571429,87.5,3,28787,2,24674
208,1,100,18.75,80,89.28571429,87.5,3,25188,2,21590
209,1,100,18.75,80,89.28571429,87.5,3,29815,2,25703
210,1,100,18.75,80,89.28571429,87.5,3,31871,3,28787
211,1,100,18.75,80,89.28571429,87.5,3,26731,2,22619
212,1,100,18.75,80,89.28571429,87.5,3,21076,2,17992
213,1,100,18.75,80,89.28571429,87.5,3,22619,2,17992
214,1,100,18.75,80,89.28571429,87.5,3,23133,3,20562
215,1,100,18.75,80,89.28571429,87.5,3,21590,3,19534
216,1,100,18.75,80,89.28571429,87.5,3,22104,3,20048
217,1,100,18.75,80,89.28571429,87.5,3,21590,3,19534
218,1,100,18.75,80,89.28571429,87.5,3,41125,2,35984
219,1,100,18.75,80,89.28571429,87.5,3,30843,2,27245
220,1,100,18.75,80,89.28571429,87.5,3,31871,3,28787
221,1,100,18.75,80,89.28571429,87.5,3,64771,2,57574
222,1,100,18.75,80,89.28571429,87.5,3,50891,3,47293
223,1,100,18.75,80,89.28571429,87.5,3,37013,3,33928
224,1,100,18.75,80,89.28571429,87.5,3,28788,3,26217
225,1,100,18.75,80,89.28571429,87.5,3,21591,3,19534
226,1,100,18.75,80,89.28571429,87.5,3,22619,3,20049
227,1,100,18.75,80,89.28571429,87.5,3,23646,2,20048
228,1,100,18.75,80,89.28571429,87.5,3,24160,2,20562
229,1,100,18.75,80,89.28571429,87.5,3,46265,3,41639
230,1,100,18.75,80,89.28571429,87.5,3,39069,2,34442
231,1,100,18.75,80,89.28571429,87.5,3,43181,2,38554
232,1,100,18.75,80,89.28571429,87.5,3,23646,2,20048
233,1,100,18.75,80,89.28571429,87.5,3,22105,3,19534
234,1,100,18.75,80,89.28571429,87.5,3,29301,2,25189
235,1,100,18.75,80,89.28571429,87.5,3,26217,3,23647
236,1,100,18.75,80,89.28571429,87.5,3,27759,3,25703
237,1,100,18.75,80,89.28571429,87.5,3,32386,2,28274
238,1,100,18.75,80,89.28571429,87.5,3,27245,3,24160
239,1,100,18.75,80,89.28571429,87.5,3,20562,3,18506
240,1,100,18.75,80,89.28571429,87.5,3,22105,2,19020
241,1,100,18.75,80,89.28571429,87.5,3,64771,2,60658
242,1,100,18.75,80,89.28571429,87.5,3,29815,3,27245
243,1,100,18.75,80,89.28571429,87.5,3,26731,2,22618
244,1,100,18.75,80,89.28571429,87.5,3,59116,2,53462
245,1,100,18.75,80,89.28571429,87.5,3,42153,2,37526
246,1,100,18.75,80,89.28571429,87.5,3,29815,2,25702
247,1,100,18.75,80,89.28571429,87.5,3,58089,2,51406
248,1,100,18.75,80,89.28571429,87.5,3,46779,3,42153
249,1,100,18.75,80,89.28571429,87.5,3,45237,2,39068
250,1,100,18.75,80,89.28571429,87.5,3,46779,2,40096
251,1,100,18.75,80,89.28571429,87.5,3,30844,2,25703
252,1,100,18.75,80,89.28571429,87.5,3,40096,3,37012
253,1,100,18.75,80,89.28571429,87.5,3,37012,2,32900
254,1,100,18.75,80,89.28571429,87.5,3,36498,3,32900
255,1,100,18.75,80,89.28571429,87.5,3,27759,3,25189
256,1,100,18.75,80,89.28571429,87.5,3,32899,3,22618
257,1,100,18.75,80,89.28571429,87.5,3,25703,2,22104
258,1,100,18.75,80,89.28571429,87.5,3,24160,3,21590
259,1,100,18.75,80,89.28571429,87.5,3,23133,2,19020
260,1,100,18.75,80,89.28571429,87.5,3,24160,3,22104
261,1,100,18.75,80,89.28571429,87.5,3,25189,2,21591
262,1,100,18.75,80,89.28571429,87.5,3,23132,3,20562
263,1,100,18.75,80,89.28571429,87.5,3,23647,2,19534
264,1,100,18.75,80,89.28571429,87.5,3,22619,3,20049
265,1,100,18.75,80,89.28571429,87.5,3,21591,3,19020
266,1,100,18.75,80,89.28571429,87.5,3,22105,2,18506
267,1,100,18.75,80,89.28571429,87.5,3,25189,2,20563
268,1,100,18.75,80,89.28571429,87.5,3,23133,3,20562
269,1,100,18.75,80,89.28571429,87.5,3,22104,3,20048
270,1,100,18.75,80,89.28571429,87.5,3,24675,3,22105
271,1,100,18.75,80,89.28571429,87.5,3,25703,3,23132
272,1,100,18.75,80,89.28571429,87.5,3,25189,3,22619
273,1,100,18.75,80,89.28571429,87.5,3,28787,2,24161
274,1,100,18.75,80,89.28571429,87.5,3,28273,2,24161
275,1,100,18.75,80,89.28571429,87.5,3,25189,3,22619
276,1,100,18.75,80,89.28571429,87.5,3,29815,2,25702
277,1,100,18.75,80,89.28571429,87.5,3,38041,3,34442
278,1,100,18.75,80,89.28571429,87.5,3,50378,3,45237
279,1,100,18.75,80,89.28571429,87.5,3,33413,2,29301
280,1,100,18.75,80,89.28571429,87.5,3,27245,2,23133
281,1,100,18.75,80,89.28571429,87.5,3,39068,2,34442
282,1,100,18.75,80,89.28571429,87.5,3,32386,3,25189
283,1,100,18.75,80,89.28571429,87.5,3,33927,2,29301
284,1,100,18.75,80,89.28571429,87.5,3,40097,3,37013
285,1,100,18.75,80,89.28571429,87.5,3,29815,2,26217
286,1,100,18.75,80,89.28571429,87.5,3,29301,3,26731
287,1,100,18.75,80,89.28571429,87.5,3,27245,2,23132
288,1,100,18.75,80,89.28571429,87.5,3,29815,2,25188
289,1,100,18.75,80,89.28571429,87.5,3,29816,3,27245
290,1,100,18.75,80,89.28571429,87.5,3,32899,2,28273
291,1,100,18.75,80,89.28571429,87.5,3,30329,3,27759
292,1,100,18.75,80,89.28571429,87.5,3,34442,2,30329
293,1,100,18.75,80,89.28571429,87.5,3,40610,3,37526
294,1,100,18.75,80,89.28571429,87.5,3,45237,3,42667
295,1,100,18.75,80,89.28571429,87.5,3,34442,3,31358
296,1,100,18.75,80,89.28571429,87.5,3,32900,2,28787
297,1,100,18.75,80,89.28571429,87.5,3,25189,3,22618
298,1,100,18.75,80,89.28571429,87.5,3,25703,2,21591
299,1,100,18.75,80,89.28571429,87.5,3,33414,2,29301
300,1,100,18.75,80,89.28571429,87.5,3,28273,2,24160
301,1,100,18.75,80,89.28571429,87.5,3,39583,3,35470
302,1,100,18.75,80,89.28571429,87.5,3,25189,2,21590
303,1,100,18.75,80,89.28571429,87.5,3,26217,2,22104
304,1,100,18.75,80,89.28571429,87.5,3,23647,2,19534
305,1,100,18.75,80,89.28571429,87.5,3,21590,2,17992
306,1,100,18.75,80,89.28571429,87.5,3,29302,3,26217
307,1,100,18.75,80,89.28571429,87.5,3,23132,2,19534
308,1,100,18.75,80,89.28571429,87.5,3,24161,3,21591
309,1,100,18.75,80,89.28571429,87.5,3,23646,3,21076
310,1,100,18.75,80,89.28571429,87.5,3,30843,2,26217
311,1,100,18.75,80,89.28571429,87.5,3,26217,2,22105
312,1,100,18.75,80,89.28571429,87.5,3,30844,2,26217
313,1,100,18.75,80,89.28571429,87.5,3,26217,2,22618
314,1,100,18.75,80,89.28571429,87.5,3,31871,3,29301
315,1,100,18.75,80,89.28571429,87.5,3,34955,2,30329
316,1,100,18.75,80,89.28571429,87.5,3,31358,2,27245
317,1,100,18.75,80,89.28571429,87.5,3,28787,3,25703
318,1,100,18.75,80,89.28571429,87.5,3,27759,3,25189
319,1,100,18.75,80,89.28571429,87.5,3,26731,2,22619
320,1,100,18.75,80,89.28571429,87.5,3,26731,3,24675
321,1,100,18.75,80,89.28571429,87.5,3,43181,2,36498
322,1,100,18.75,80,89.28571429,87.5,3,33928,2,29301
323,1,100,18.75,80,89.28571429,87.5,3,29301,3,26731
324,1,100,18.75,80,89.28571429,87.5,3,43181,2,37012
325,1,100,18.75,80,89.28571429,87.5,3,33928,2,29815
326,1,100,18.75,80,89.28571429,87.5,3,28787,2,23647
327,1,100,18.75,80,89.28571429,87.5,3,28788,3,26217
328,1,100,18.75,80,89.28571429,87.5,3,23647,2,20048
329,1,100,18.75,80,89.28571429,87.5,3,27759,3,24674
330,1,100,18.75,80,89.28571429,87.5,3,29301,2,25188
331,1,100,18.75,80,89.28571429,87.5,3,32385,2,26731
332,1,100,18.75,80,89.28571429,87.5,3,45751,3,41639
333,1,100,18.75,80,89.28571429,87.5,3,30330,3,27759
334,1,100,18.75,80,89.28571429,87.5,3,36498,2,32385
335,1,100,18.75,80,89.28571429,87.5,3,29815,3,26730
336,1,100,18.75,80,89.28571429,87.5,3,26731,3,24160
337,1,100,18.75,80,89.28571429,87.5,3,37012,2,30329
338,1,100,18.75,80,89.28571429,87.5,3,39583,3,34442
339,1,100,18.75,80,89.28571429,87.5,3,30329,2,25703
340,1,100,18.75,80,89.28571429,87.5,3,26217,3,23646
341,1,100,18.75,80,89.28571429,87.5,3,26216,2,22618
342,1,100,18.75,80,89.28571429,87.5,3,31871,3,28787
343,1,100,18.75,80,89.28571429,87.5,3,36498,3,32899
344,1,100,18.75,80,89.28571429,87.5,3,43180,2,35984
345,1,100,18.75,80,89.28571429,87.5,3,45237,2,38041
346,1,100,18.75,80,89.28571429,87.5,3,49349,2,43181
347,1,100,18.75,80,89.28571429,87.5,3,41639,2,35984
348,1,100,18.75,80,89.28571429,87.5,3,43181,3,38554
349,1,100,18.75,80,89.28571429,87.5,3,36497,2,30843
350,1,100,18.75,80,89.28571429,87.5,3,59117,2,51920
351,1,100,18.75,80,89.28571429,87.5,3,32385,2,28787
352,1,100,18.75,80,89.28571429,87.5,3,29302,3,26731
353,1,100,18.75,80,89.28571429,87.5,3,39068,3,34442
354,1,100,18.75,80,89.28571429,87.5,3,61686,2,53461
355,1,100,18.75,80,89.28571429,87.5,3,41638,3,38040
356,1,100,18.75,80,89.28571429,87.5,3,27245,3,23646
357,1,100,18.75,80,89.28571429,87.5,3,28273,3,25188
358,1,100,18.75,80,89.28571429,87.5,3,25189,3,22619
359,1,100,18.75,80,89.28571429,87.5,3,23133,3,20563
360,1,100,18.75,80,89.28571429,87.5,3,31358,2,27245
361,1,100,18.75,80,89.28571429,87.5,3,28274,3,25189
362,1,100,18.75,80,89.28571429,87.5,3,27245,2,23132
363,1,100,18.75,80,89.28571429,87.5,3,29301,3,26731
364,1,100,18.75,80,89.28571429,87.5,3,26731,3,24161
365,1,100,18.75,80,89.28571429,87.5,3,26731,3,24161
366,1,100,18.75,80,89.28571429,87.5,3,27245,3,24674
367,1,100,18.75,80,89.28571429,87.5,3,26217,2,22618
368,1,100,18.75,80,89.28571429,87.5,3,25703,2,21590
369,1,100,18.75,80,89.28571429,87.5,3,31871,2,27245
370,1,100,18.75,80,89.28571429,87.5,3,28273,2,23647
371,1,100,18.75,80,89.28571429,87.5,3,31357,3,27759
372,1,100,18.75,80,89.28571429,87.5,3,24161,2,20048
373,1,100,18.75,80,89.28571429,87.5,3,22618,3,20048
374,1,100,18.75,80,89.28571429,87.5,3,27245,2,23647
375,1,100,18.75,80,89.28571429,87.5,3,31358,3,27759
376,1,100,18.75,80,89.28571429,87.5,3,27759,2,23133
377,1,100,18.75,80,89.28571429,87.5,3,24161,2,20562
378,1,100,18.75,80,89.28571429,87.5,3,34441,3,30329
379,1,100,18.75,80,89.28571429,87.5,3,38040,3,33927
380,1,100,18.75,80,89.28571429,87.5,3,27245,3,24675
381,1,100,18.75,80,89.28571429,87.5,3,23133,3,20563
382,1,100,18.75,80,89.28571429,87.5,3,24675,3,21590
383,1,100,18.75,80,89.28571429,87.5,3,25702,2,21590
384,1,100,18.75,80,89.28571429,87.5,3,59117,2,50378
385,1,100,18.75,80,89.28571429,87.5,3,45751,3,42667
386,1,100,18.75,80,89.28571429,87.5,3,32386,2,22104
387,1,100,18.75,80,89.28571429,87.5,3,31357,3,23646
388,1,100,18.75,80,89.28571429,87.5,3,42667,2,38555
389,1,100,18.75,80,89.28571429,87.5,3,28273,2,24675
390,1,100,18.75,80,89.28571429,87.5,3,26216,2,23132
391,1,100,18.75,80,89.28571429,87.5,3,20563,3,19020
392,1,100,18.75,80,89.28571429,87.5,3,19534,3,17478
393,1,100,18.75,80,89.28571429,87.5,3,20048,3,17992
394,1,100,18.75,80,89.28571429,87.5,3,24161,2,20562
395,1,100,18.75,80,89.28571429,87.5,3,23133,3,19020
396,1,100,18.75,80,89.28571429,87.5,3,19021,3,16964
397,1,100,18.75,80,89.28571429,87.5,3,20049,3,17992
398,1,100,18.75,80,89.28571429,87.5,3,21076,3,19020
399,1,100,18.75,80,89.28571429,87.5,3,21590,2,18506
400,1,100,18.75,80,89.28571429,87.5,3,21591,3,19534
401,1,100,18.75,80,89.28571429,87.5,3,21076,3,19020
402,1,100,18.75,80,89.28571429,87.5,3,23646,2,20562
403,1,100,18.75,80,89.28571429,87.5,3,22618,3,20048
404,1,100,18.75,80,89.28571429,87.5,3,22105,2,19021
405,1,100,18.75,80,89.28571429,87.5,3,25703,2,22104
406,1,100,18.75,80,89.28571429,87.5,3,23133,2,19020
407,1,100,18.75,80,89.28571429,87.5,3,25188,3,23132
408,1,100,18.75,80,89.28571429,87.5,3,26731,3,24675
409,1,100,18.75,80,89.28571429,87.5,3,23647,2,20562
410,1,100,18.75,80,89.28571429,87.5,3,25188,2,22104
411,1,100,18.75,80,89.28571429,87.5,3,34956,3,32900
412,1,100,18.75,80,89.28571429,87.5,3,27759,3,25703
413,1,100,18.75,80,89.28571429,87.5,3,36498,3,34442
414,1,100,18.75,80,89.28571429,87.5,3,22619,3,20563
415,1,100,18.75,80,89.28571429,87.5,3,21077,3,19020
416,1,100,18.75,80,89.28571429,87.5,3,24160,3,22104
417,1,100,18.75,80,89.28571429,87.5,3,24675,3,22619
418,1,100,18.75,80,89.28571429,87.5,3,21076,3,19534
419,1,100,18.75,80,89.28571429,87.5,3,29815,3,27759
420,1,100,18.75,80,89.28571429,87.5,3,33414,2,29816
421,1,100,18.75,80,89.28571429,87.5,3,59117,3,56546
422,1,100,18.75,80,89.28571429,87.5,3,31872,3,29816
423,1,100,18.75,80,89.28571429,87.5,3,28273,3,26216
424,1,100,18.75,80,89.28571429,87.5,3,24674,2,21076
425,1,100,18.75,80,89.28571429,87.5,3,25189,3,23133
426,1,100,18.75,80,89.28571429,87.5,3,26217,2,22104
427,1,100,18.75,80,89.28571429,87.5,3,28787,2,24675
428,1,100,18.75,80,89.28571429,87.5,3,32900,2,29301
429,1,100,18.75,80,89.28571429,87.5,3,31357,2,27759
430,1,100,18.75,80,89.28571429,87.5,3,33413,3,30843
431,1,100,18.75,80,89.28571429,87.5,3,25703,3,23647
432,1,100,18.75,80,89.28571429,87.5,3,27759,2,24675
433,1,100,18.75,80,89.28571429,87.5,3,28787,3,26217
434,1,100,18.75,80,89.28571429,87.5,3,25703,3,23646
435,1,100,18.75,80,89.28571429,87.5,3,26217,2,22618
436,1,100,18.75,80,89.28571429,87.5,3,30330,3,28274
437,1,100,18.75,80,89.28571429,87.5,3,27759,2,24161
438,1,100,18.75,80,89.28571429,87.5,3,42666,3,40610
439,1,100,18.75,80,89.28571429,87.5,3,30843,3,28787
440,1,100,18.75,80,89.28571429,87.5,3,28273,3,26217
441,1,100,18.75,80,89.28571429,87.5,3,32900,3,30844
442,1,100,18.75,80,89.28571429,87.5,3,31358,3,29302
443,1,100,18.75,80,89.28571429,87.5,3,31357,3,29301
444,1,100,18.75,80,89.28571429,87.5,3,36498,2,32385
445,1,100,18.75,80,89.28571429,87.5,3,30843,3,28787
446,1,100,18.75,80,89.28571429,87.5,3,53462,2,47293
447,1,100,18.75,80,89.28571429,87.5,3,38554,3,35470
448,1,100,18.75,80,89.28571429,87.5,3,71454,3,67855
449,1,100,18.75,80,89.28571429,87.5,3,39582,2,34956
450,1,100,18.75,80,89.28571429,87.5,3,29816,2,25189
451,1,100,18.75,80,89.28571429,87.5,3,29301,3,26217
452,1,100,18.75,80,89.28571429,87.5,3,32385,3,29301
453,1,100,18.75,80,89.28571429,87.5,3,24161,3,22104
454,1,100,18.75,80,89.28571429,87.5,3,29301,3,27245
455,1,100,18.75,80,89.28571429,87.5,3,29815,2,26217
456,1,100,18.75,80,89.28571429,87.5,3,24674,3,22104
457,1,100,18.75,80,89.28571429,87.5,3,22105,2,19020
458,1,100,18.75,80,89.28571429,87.5,3,27245,2,24160
459,1,100,18.75,80,89.28571429,87.5,3,25189,3,23133
460,1,100,18.75,80,89.28571429,87.5,3,27245,3,25189
461,1,100,18.75,80,89.28571429,87.5,3,24160,2,20562
462,1,100,18.75,80,89.28571429,87.5,3,26731,2,23133
463,1,100,18.75,80,89.28571429,87.5,3,25189,3,22618
464,1,100,18.75,80,89.28571429,87.5,3,26731,3,24161
465,1,100,18.75,80,89.28571429,87.5,3,27245,3,25188
466,1,100,18.75,80,89.28571429,87.5,3,23133,2,19534
467,1,100,18.75,80,89.28571429,87.5,3,24161,3,21590
468,1,100,18.75,80,89.28571429,87.5,3,21076,2,17991
469,1,100,18.75,80,89.28571429,87.5,3,21076,2,18506
470,1,100,18.75,80,89.28571429,87.5,3,23132,2,20048
471,1,100,18.75,80,89.28571429,87.5,3,23133,3,21076
472,1,100,18.75,80,89.28571429,87.5,3,40097,3,36498
473,1,100,18.75,80,89.28571429,87.5,3,43180,2,37526
474,1,100,18.75,80,89.28571429,87.5,3,27759,2,24161
475,1,100,18.75,80,89.28571429,87.5,3,23132,2,19534
476,1,100,18.75,80,89.28571429,87.5,3,23646,2,20048
477,1,100,18.75,80,89.28571429,87.5,3,21591,3,19535
478,1,100,18.75,80,89.28571429,87.5,3,21076,2,17992
479,1,100,18.75,80,89.28571429,87.5,3,22619,2,19020
480,1,100,18.75,80,89.28571429,87.5,3,34441,2,30329
481,1,100,18.75,80,89.28571429,87.5,3,60145,3,56546
482,1,100,18.75,80,89.28571429,87.5,3,40611,3,38040
483,1,100,18.75,80,89.28571429,87.5,3,38555,2,33414
484,1,100,18.75,80,89.28571429,87.5,3,39582,3,35984
485,1,100,18.75,80,89.28571429,87.5,3,38554,2,33927
486,1,100,18.75,80,89.28571429,87.5,3,32900,3,30329
487,1,100,18.75,80,89.28571429,87.5,3,33927,2,29301
488,1,100,18.75,80,89.28571429,87.5,3,29302,3,27245
489,1,100,18.75,80,89.28571429,87.5,3,26217,2,22619
490,1,100,18.75,80,89.28571429,87.5,3,24675,3,22618
491,1,100,18.75,80,89.28571429,87.5,3,24161,3,22104
492,1,100,18.75,80,89.28571429,87.5,3,20049,3,18506
493,1,100,18.75,80,89.28571429,87.5,3,22104,3,20048
494,1,100,18.75,80,89.28571429,87.5,3,22104,2,18506
495,1,100,18.75,80,89.28571429,87.5,3,23132,3,21076
496,1,100,18.75,80,89.28571429,87.5,3,21591,2,17992
497,1,100,18.75,80,89.28571429,87.5,3,21590,2,18506
498,1,100,18.75,80,89.28571429,87.5,3,23647,2,20048
499,1,100,18.75,80,89.28571429,87.5,3,22619,3,20562
500,1,100,18.75,80,89.28571429,87.5,3,23646,2,20048
501,1,100,18.75,80,89.28571429,87.5,3,25189,2,21590
502,1,100,18.75,80,89.28571429,87.5,3,22105,2,18506
503,1,100,18.75,80,89.28571429,87.5,3,20562,3,18506
504,1,100,18.75,80,89.28571429,87.5,3,24674,3,22618
505,1,100,18.75,80,89.28571429,87.5,3,20048,3,17992
506,1,100,18.75,80,89.28571429,87.5,3,27759,2,24161
507,1,100,18.75,80,89.28571429,87.5,3,24674,3,22104
508,1,100,18.75,80,89.28571429,87.5,3,22619,2,18506
509,1,100,18.75,80,89.28571429,87.5,3,24161,2,20563
510,1,100,18.75,80,89.28571429,87.5,3,24161,2,20562
511,1,100,18.75,80,89.28571429,87.5,3,35984,3,33928
512,1,100,18.75,80,89.28571429,87.5,3,28273,3,26217
513,1,100,18.75,80,89.28571429,87.5,3,28274,2,24675
514,1,100,18.75,80,89.28571429,87.5,3,35984,2,32900
515,1,100,18.75,80,89.28571429,87.5,3,30330,2,26217
516,1,100,18.75,80,89.28571429,87.5,3,26731,3,24675
517,1,100,18.75,80,89.28571429,87.5,3,25188,2,21590
518,1,100,18.75,80,89.28571429,87.5,3,27245,2,23647
519,1,100,18.75,80,89.28571429,87.5,3,25189,2,21590
520,1,100,18.75,80,89.28571429,87.5,3,21591,3,19020
521,1,100,18.75,80,89.28571429,87.5,3,22104,2,19020
522,1,100,18.75,80,89.28571429,87.5,3,21591,3,19535
523,1,100,18.75,80,89.28571429,87.5,3,20563,3,18506
524,1,100,18.75,80,89.28571429,87.5,3,22104,3,19534
525,1,100,18.75,80,89.28571429,87.5,3,22618,3,20562
526,1,100,18.75,80,89.28571429,87.5,3,21590,2,18506
527,1,100,18.75,80,89.28571429,87.5,3,20562,3,18506
528,1,100,18.75,80,89.28571429,87.5,3,20562,3,18506
529,1,100,18.75,80,89.28571429,87.5,3,20562,2,17478
530,1,100,18.75,80,89.28571429,87.5,3,21076,2,17478
531,1,100,18.75,80,89.28571429,87.5,3,21077,2,17992
532,1,100,18.75,80,89.28571429,87.5,3,20562,2,16964
533,1,100,18.75,80,89.28571429,87.5,3,23646,3,21590
534,1,100,18.75,80,89.28571429,87.5,3,23132,3,21076
535,1,100,18.75,80,89.28571429,87.5,3,20562,3,18506
536,1,100,18.75,80,89.28571429,87.5,3,22104,3,20048
537,1,100,18.75,80,89.28571429,87.5,3,22619,3,20562
538,1,100,18.75,80,89.28571429,87.5,3,22619,2,19021
539,1,100,18.75,80,89.28571429,87.5,3,21591,2,17992
540,1,100,18.75,80,89.28571429,87.5,3,21076,2,17992
541,1,100,18.75,80,89.28571429,87.5,3,23133,3,21076
542,1,100,18.75,80,89.28571429,87.5,3,24161,3,22105
543,1,100,18.75,80,89.28571429,87.5,3,27759,2,24161
544,1,100,18.75,80,89.28571429,87.5,3,25189,2,22104
545,1,100,18.75,80,89.28571429,87.5,3,31871,2,27759
546,1,100,18.75,80,89.28571429,87.5,3,22105,2,19020
547,1,100,18.75,80,89.28571429,87.5,3,21077,3,19020
548,1,100,18.75,80,89.28571429,87.5,3,20563,2,17478
549,1,100,18.75,80,89.28571429,87.5,3,21076,2,17478
550,1,100,18.75,80,89.28571429,87.5,3,25189,3,22618
551,1,100,18.75,80,89.28571429,87.5,3,20048,2,16964
552,1,100,18.75,80,89.28571429,87.5,3,20562,2,17478
553,1,100,18.75,80,89.28571429,87.5,3,22104,2,19020
554,1,100,18.75,80,89.28571429,87.5,3,22618,2,17992
555,1,100,18.75,80,89.28571429,87.5,3,25189,3,22104
556,1,100,18.75,80,89.28571429,87.5,3,21077,3,19020
557,1,100,18.75,80,89.28571429,87.5,3,21591,3,19534
558,1,100,18.75,80,89.28571429,87.5,3,21591,3,19535
559,1,100,18.75,80,89.28571429,87.5,3,21590,2,17992
560,1,100,18.75,80,89.28571429,87.5,3,20048,3,17992
561,1,100,18.75,80,89.28571429,87.5,3,25189,2,21590
562,1,100,18.75,80,89.28571429,87.5,3,22105,3,20049
563,1,100,18.75,80,89.28571429,87.5,3,21076,3,19020
564,1,100,18.75,80,89.28571429,87.5,3,21077,2,17478
565,1,100,18.75,80,89.28571429,87.5,3,22618,2,19020
566,1,100,18.75,80,89.28571429,87.5,3,21077,3,19020
567,1,100,18.75,80,89.28571429,87.5,3,21590,2,18506
568,1,100,18.75,80,89.28571429,87.5,3,23132,3,21076
569,1,100,18.75,80,89.28571429,87.5,3,24160,2,20562
570,1,100,18.75,80,89.28571429,87.5,3,22618,2,19534
571,1,100,18.75,80,89.28571429,87.5,3,23646,3,21590
572,1,100,18.75,80,89.28571429,87.5,3,23133,3,20563
573,1,100,18.75,80,89.28571429,87.5,3,25703,2,22105
574,1,100,18.75,80,89.28571429,87.5,3,21590,2,17992
575,1,100,18.75,80,89.28571429,87.5,3,23646,3,21076
576,1,100,18.75,80,89.28571429,87.5,3,24161,2,20563
577,1,100,18.75,80,89.28571429,87.5,3,22104,3,20048
578,1,100,18.75,80,89.28571429,87.5,3,22104,3,20048
579,1,100,18.75,80,89.28571429,87.5,3,22105,2,18506
580,1,100,18.75,80,89.28571429,87.5,3,23133,3,20563
581,1,100,18.75,80,89.28571429,87.5,3,22619,2,18506
582,1,100,18.75,80,89.28571429,87.5,3,21590,3,19534
583,1,100,18.75,80,89.28571429,87.5,3,21076,3,19020
584,1,100,18.75,80,89.28571429,87.5,3,21590,2,17992
585,1,100,18.75,80,89.28571429,87.5,3,22619,2,19020
586,1,100,18.75,80,89.28571429,87.5,3,21590,2,17992
587,1,100,18.75,80,89.28571429,87.5,3,22619,3,20049
588,1,100,18.75,80,89.28571429,87.5,3,22105,3,19534
589,1,100,18.75,80,89.28571429,87.5,3,21077,2,17992
590,1,100,18.75,80,89.28571429,87.5,3,20563,2,17478
591,1,100,18.75,80,89.28571429,87.5,3,19534,3,17478
592,1,100,18.75,80,89.28571429,87.5,3,20048,2,16964
593,1,100,18.75,80,89.28571429,87.5,3,21076,2,16450
594,1,100,18.75,80,89.28571429,87.5,3,20562,2,15935
595,1,100,18.75,80,89.28571429,87.5,3,18506,3,16450
596,1,100,18.75,80,89.28571429,87.5,3,19535,2,16450
597,1,100,18.75,80,89.28571429,87.5,3,19020,3,16964
598,1,100,18.75,80,89.28571429,87.5,3,35984,3,33414
599,1,100,18.75,80,89.28571429,87.5,3,30843,2,27759
600,1,100,18.75,80,89.28571429,87.5,3,26731,3,24161
601,1,100,18.75,80,89.28571429,87.5,3,24674,2,21076
602,1,100,18.75,80,89.28571429,87.5,3,23132,3,21076
603,1,100,18.75,80,89.28571429,87.5,3,32900,3,30844
604,1,100,18.75,80,89.28571429,87.5,3,23132,3,20562
605,1,100,18.75,80,89.28571429,87.5,3,23646,2,20048
606,1,100,18.75,80,89.28571429,87.5,3,24160,2,20562
607,1,100,18.75,80,89.28571429,87.5,3,20562,2,17478
608,1,100,18.75,80,89.28571429,87.5,3,43181,2,40096
609,1,100,18.75,80,89.28571429,87.5,3,27759,2,24674
610,1,100,18.75,80,89.28571429,87.5,3,42667,2,38554
611,1,100,18.75,80,89.28571429,87.5,3,24161,2,20562
612,1,100,18.75,80,89.28571429,87.5,3,21591,3,19535
613,1,100,18.75,80,89.28571429,87.5,3,19020,3,17478
614,1,100,18.75,80,89.28571429,87.5,3,26217,3,17992
615,1,100,18.75,80,89.28571429,87.5,3,21590,3,19534
616,1,100,18.75,80,89.28571429,87.5,3,38554,2,31357
617,1,100,18.75,80,89.28571429,87.5,3,53462,2,44723
618,1,100,18.75,80,89.28571429,87.5,3,37012,3,33928
619,1,100,18.75,80,89.28571429,87.5,3,36498,2,30843
620,1,100,18.75,80,89.28571429,87.5,3,30330,2,25703
621,1,100,18.75,80,89.28571429,87.5,3,28273,3,25703
622,1,100,18.75,80,89.28571429,87.5,3,29301,2,24674
623,1,100,18.75,80,89.28571429,87.5,3,33927,3,30843
624,1,100,18.75,80,89.28571429,87.5,3,30843,3,27759
625,1,100,18.75,80,89.28571429,87.5,3,44208,2,39068
626,1,100,18.75,80,89.28571429,87.5,3,32385,3,29815
627,1,100,18.75,80,89.28571429,87.5,3,37012,2,31358
628,1,100,18.75,80,89.28571429,87.5,3,28273,3,25703
629,1,100,18.75,80,89.28571429,87.5,3,28273,3,25703
630,1,100,18.75,80,89.28571429,87.5,3,27245,3,24675
631,1,100,18.75,80,89.28571429,87.5,3,33413,2,27759
632,1,100,18.75,80,89.28571429,87.5,3,33927,3,29815
633,1,100,18.75,80,89.28571429,87.5,3,33414,2,27759
634,1,100,18.75,80,89.28571429,87.5,3,24675,2,21076
635,1,100,18.75,80,89.28571429,87.5,3,21076,2,17992
636,1,100,18.75,80,89.28571429,87.5,3,19020,2,15422
637,1,100,18.75,80,89.28571429,87.5,3,17992,2,14908
638,1,100,18.75,80,89.28571429,87.5,3,18506,2,15936
639,1,100,18.75,80,89.28571429,87.5,3,25188,2,21076
640,1,100,18.75,80,89.28571429,87.5,3,23133,3,21077
641,1,100,18.75,80,89.28571429,87.5,3,37526,3,34441
642,1,100,18.75,80,89.28571429,87.5,3,38554,3,35470
643,1,100,18.75,80,89.28571429,87.5,3,54490,2,48835
644,1,100,18.75,80,89.28571429,87.5,3,42667,2,34956
645,1,100,18.75,80,89.28571429,87.5,3,31358,3,28787
646,1,100,18.75,80,89.28571429,87.5,3,24675,3,22618
647,1,100,18.75,80,89.28571429,87.5,3,22619,2,19534
648,1,100,18.75,80,89.28571429,87.5,3,24161,2,21077
649,1,100,18.75,80,89.28571429,87.5,3,22618,3,20562
650,1,100,18.75,80,89.28571429,87.5,3,44209,2,38554
651,1,100,18.75,80,89.28571429,87.5,3,31871,3,29301
652,1,100,18.75,80,89.28571429,87.5,3,28787,3,26731
653,1,100,18.75,80,89.28571429,87.5,3,27245,2,24161
654,1,100,18.75,80,89.28571429,87.5,3,35984,3,33927
655,1,100,18.75,80,89.28571429,87.5,3,22618,3,20562
656,1,100,18.75,80,89.28571429,87.5,3,23132,3,21590
657,1,100,18.75,80,89.28571429,87.5,3,23646,3,21590
658,1,100,18.75,80,89.28571429,87.5,3,23646,3,22104
659,1,100,18.75,80,89.28571429,87.5,3,22619,3,20562
660,1,100,18.75,80,89.28571429,87.5,3,29302,3,26731
661,1,100,18.75,80,89.28571429,87.5,3,40611,2,35984
662,1,100,18.75,80,89.28571429,87.5,3,32385,3,25702
663,1,100,18.75,80,89.28571429,87.5,3,30329,3,19534
664,1,100,18.75,80,89.28571429,87.5,3,20562,2,16964
665,1,100,18.75,80,89.28571429,87.5,3,20048,3,18506
666,1,100,18.75,80,89.28571429,87.5,3,26217,2,23132
667,1,100,18.75,80,89.28571429,87.5,3,21591,2,18506
668,1,100,18.75,80,89.28571429,87.5,3,21076,2,17992
669,1,100,18.75,80,89.28571429,87.5,3,21590,3,19534
670,1,100,18.75,80,89.28571429,87.5,3,21590,3,20048
671,1,100,18.75,80,89.28571429,87.5,3,20048,2,17478
672,1,100,18.75,80,89.28571429,87.5,3,20048,3,18506
673,1,100,18.75,80,89.28571429,87.5,3,20562,2,17478
674,1,100,18.75,80,89.28571429,87.5,3,34441,2,31357
675,1,100,18.75,80,89.28571429,87.5,3,20563,3,19020
676,1,100,18.75,80,89.28571429,87.5,3,21590,2,18506
677,1,100,18.75,80,89.28571429,87.5,3,21076,3,19020
678,1,100,18.75,80,89.28571429,87.5,3,33413,2,29301
679,1,100,18.75,80,89.28571429,87.5,3,52433,2,46265
680,1,100,18.75,80,89.28571429,87.5,3,25703,3,23646
681,1,100,18.75,80,89.28571429,87.5,3,26216,3,24160
682,1,100,18.75,80,89.28571429,87.5,3,33414,2,29815
683,1,100,18.75,80,89.28571429,87.5,3,46779,2,40096
684,1,100,18.75,80,89.28571429,87.5,3,39582,2,36498
685,1,100,18.75,80,89.28571429,87.5,3,48321,3,46265
686,1,100,18.75,80,89.28571429,87.5,3,28787,2,24675
687,1,100,18.75,80,89.28571429,87.5,3,25703,2,21076
688,1,100,18.75,80,89.28571429,87.5,3,22104,3,20048
689,1,100,18.75,80,89.28571429,87.5,3,39583,3,37012
690,1,100,18.75,80,89.28571429,87.5,3,22618,3,20562
691,1,100,18.75,80,89.28571429,87.5,3,25189,3,23647
692,1,100,18.75,80,89.28571429,87.5,3,46779,2,42666
693,1,100,18.75,80,89.28571429,87.5,3,23647,3,21591
694,1,100,18.75,80,89.28571429,87.5,3,83791,3,81221
695,1,100,18.75,80,89.28571429,87.5,3,46779,3,44722
696,1,100,18.75,80,89.28571429,87.5,3,23133,3,21077
697,1,100,18.75,80,89.28571429,87.5,3,23646,3,21590
698,1,100,18.75,80,89.28571429,87.5,3,23646,3,21590
699,1,100,18.75,80,89.28571429,87.5,3,26217,2,22618
700,1,100,18.75,80,89.28571429,87.5,3,21590,2,18506
701,1,100,18.75,80,89.28571429,87.5,3,20562,3,19020
702,1,100,18.75,80,89.28571429,87.5,3,22104,2,18506
703,1,100,18.75,80,89.28571429,87.5,3,20562,3,19020
704,1,100,18.75,80,89.28571429,87.5,3,20562,3,18506
705,1,100,18.75,80,89.28571429,87.5,3,21076,3,19534
706,1,100,18.75,80,89.28571429,87.5,3,20048,3,18506
707,1,100,18.75,80,89.28571429,87.5,3,21076,3,19534
708,1,100,18.75,80,89.28571429,87.5,3,39582,2,33928
709,1,100,18.75,80,89.28571429,87.5,3,24674,2,21076
710,1,100,18.75,80,89.28571429,87.5,3,21076,3,19020
711,1,100,18.75,80,89.28571429,87.5,3,21076,2,17992
712,1,100,18.75,80,89.28571429,87.5,3,22104,2,18506
713,1,100,18.75,80,89.28571429,87.5,3,30844,2,27245
714,1,100,18.75,80,89.28571429,87.5,3,23132,2,20048
715,1,100,18.75,80,89.28571429,87.5,3,21590,3,19534
716,1,100,18.75,80,89.28571429,87.5,3,22104,3,20048
717,1,100,18.75,80,89.28571429,87.5,3,21590,2,18506
718,1,100,18.75,80,89.28571429,87.5,3,22104,2,19020
719,1,100,18.75,80,89.28571429,87.5,3,24674,3,22618
720,1,100,18.75,80,89.28571429,87.5,3,31872,3,29815
721,1,100,18.75,80,89.28571429,87.5,3,25703,2,22105
722,1,100,18.75,80,89.28571429,87.5,3,25703,3,23646
723,1,100,18.75,80,89.28571429,87.5,3,30329,2,26731
724,1,100,18.75,80,89.28571429,87.5,3,22105,3,20562
725,1,100,18.75,80,89.28571429,87.5,3,22104,3,20048
726,1,100,18.75,80,89.28571429,87.5,3,26731,3,24675
727,1,100,18.75,80,89.28571429,87.5,3,22105,3,19534
728,1,100,18.75,80,89.28571429,87.5,3,22619,3,20562
729,1,100,18.75,80,89.28571429,87.5,3,23133,2,19534
730,1,100,18.75,80,89.28571429,87.5,3,21076,3,19020
731,1,100,18.75,80,89.28571429,87.5,3,21076,3,19020
732,1,100,18.75,80,89.28571429,87.5,3,21076,2,17478
733,1,100,18.75,80,89.28571429,87.5,3,20048,3,17992
734,1,100,18.75,80,89.28571429,87.5,3,22104,2,18506
735,1,100,18.75,80,89.28571429,87.5,3,22105,3,20048
736,1,100,18.75,80,89.28571429,87.5,3,21590,3,19534
737,1,100,18.75,80,89.28571429,87.5,3,21076,2,17477
738,1,100,18.75,80,89.28571429,87.5,3,20562,3,18506
739,1,100,18.75,80,89.28571429,87.5,3,31872,2,26731
740,1,100,18.75,80,89.28571429,87.5,3,25703,3,23646
741,1,100,18.75,80,89.28571429,87.5,3,25189,2,21076
742,1,100,18.75,80,89.28571429,87.5,3,21077,3,19534
743,1,100,18.75,80,89.28571429,87.5,3,34441,2,28787
744,1,100,18.75,80,89.28571429,87.5,3,22105,3,20048
745,1,100,18.75,80,89.28571429,87.5,3,28788,3,27245
746,1,100,18.75,80,89.28571429,87.5,3,33413,2,28273
747,1,100,18.75,80,89.28571429,87.5,3,38040,2,32899
748,1,100,18.75,80,89.28571429,87.5,3,47807,3,38554
749,1,100,18.75,80,89.28571429,87.5,3,34442,2,30330
750,1,100,18.75,80,89.28571429,87.5,3,26216,3,23646
751,1,100,18.75,80,89.28571429,87.5,3,24160,2,20562
752,1,100,18.75,80,89.28571429,87.5,3,24160,2,20048
753,1,100,18.75,80,89.28571429,87.5,3,24160,2,20562
754,1,100,18.75,80,89.28571429,87.5,3,22618,2,18506
755,1,100,18.75,80,89.28571429,87.5,3,22618,3,20048
756,1,100,18.75,80,89.28571429,87.5,3,20048,3,17992
757,1,100,18.75,80,89.28571429,87.5,3,21076,2,17478
758,1,100,18.75,80,89.28571429,87.5,3,20563,2,16964
759,1,100,18.75,80,89.28571429,87.5,3,20563,3,18506
760,1,100,18.75,80,89.28571429,87.5,3,23133,3,21076
761,1,100,18.75,80,89.28571429,87.5,3,25189,2,21076
762,1,100,18.75,80,89.28571429,87.5,3,21590,3,19534
763,1,100,18.75,80,89.28571429,87.5,3,20562,3,18506
764,1,100,18.75,80,89.28571429,87.5,3,20562,2,16964
765,1,100,18.75,80,89.28571429,87.5,3,20562,2,17478
766,1,100,18.75,80,89.28571429,87.5,3,22105,3,20562
767,1,100,18.75,80,89.28571429,87.5,3,25189,2,21591
768,1,100,18.75,80,89.28571429,87.5,3,49864,3,47807
769,1,100,18.75,80,89.28571429,87.5,3,32385,3,30843
770,1,100,18.75,80,89.28571429,87.5,3,37527,3,26731
771,1,100,18.75,80,89.28571429,87.5,3,27759,3,25702
772,1,100,18.75,80,89.28571429,87.5,3,25189,3,23133
773,1,100,18.75,80,89.28571429,87.5,3,25189,2,21076
774,1,100,18.75,80,89.28571429,87.5,3,24161,3,22104
775,1,100,18.75,80,89.28571429,87.5,3,23133,3,21076
776,1,100,18.75,80,89.28571429,87.5,3,24161,3,22104
777,1,100,18.75,80,89.28571429,87.5,3,26217,2,22104
778,1,100,18.75,80,89.28571429,87.5,3,22104,3,20048
779,1,100,18.75,80,89.28571429,87.5,3,24161,2,20563
780,1,100,18.75,80,89.28571429,87.5,3,61687,3,58603
781,1,100,18.75,80,89.28571429,87.5,3,24675,3,22105
782,1,100,18.75,80,89.28571429,87.5,3,25188,2,21590
783,1,100,18.75,80,89.28571429,87.5,3,23133,3,21076
784,1,100,18.75,80,89.28571429,87.5,3,24160,2,20562
785,1,100,18.75,80,89.28571429,87.5,3,24161,2,20563
786,1,100,18.75,80,89.28571429,87.5,3,23132,2,19020
787,1,100,18.75,80,89.28571429,87.5,3,26216,3,23646
788,1,100,18.75,80,89.28571429,87.5,3,25702,2,21590
789,1,100,18.75,80,89.28571429,87.5,3,40610,2,32899
790,1,100,18.75,80,89.28571429,87.5,3,29301,2,22104
791,1,100,18.75,80,89.28571429,87.5,3,25702,3,23132
792,1,100,18.75,80,89.28571429,87.5,3,22618,3,20562
793,1,100,18.75,80,89.28571429,87.5,3,20048,3,18506
794,1,100,18.75,80,89.28571429,87.5,3,19534,3,17992
795,1,100,18.75,80,89.28571429,87.5,3,26217,2,21590
796,1,100,18.75,80,89.28571429,87.5,3,29815,2,25189
797,1,100,18.75,80,89.28571429,87.5,3,42153,2,35984
798,1,100,18.75,80,89.28571429,87.5,3,25189,3,23133
799,1,100,18.75,80,89.28571429,87.5,3,24161,2,20562
800,1,100,18.75,80,89.28571429,87.5,3,23646,3,21590
801,1,100,18.75,80,89.28571429,87.5,3,34442,3,32386
802,1,100,18.75,80,89.28571429,87.5,3,28787,3,26731
803,1,100,18.75,80,89.28571429,87.5,3,23646,3,21590
804,1,100,18.75,80,89.28571429,87.5,3,24675,3,22618
805,1,100,18.75,80,89.28571429,87.5,3,26731,2,22619
806,1,100,18.75,80,89.28571429,87.5,3,22618,2,19020
807,1,100,18.75,80,89.28571429,87.5,3,24160,2,20048
808,1,100,18.75,80,89.28571429,87.5,3,24675,2,20562
809,1,100,18.75,80,89.28571429,87.5,3,24675,2,19534
810,1,100,18.75,80,89.28571429,87.5,3,23133,2,19534
811,1,100,18.75,80,89.28571429,87.5,3,24161,3,22105
812,1,100,18.75,80,89.28571429,87.5,3,27245,2,23646
813,1,100,18.75,80,89.28571429,87.5,3,27759,3,25703
814,1,100,18.75,80,89.28571429,87.5,3,45237,3,41639
815,1,100,18.75,80,89.28571429,87.5,3,30844,2,26217
816,1,100,18.75,80,89.28571429,87.5,3,25188,3,23132
817,1,100,18.75,80,89.28571429,87.5,3,24674,2,21076
818,1,100,18.75,80,89.28571429,87.5,3,26216,3,24160
819,1,100,18.75,80,89.28571429,87.5,3,24674,2,21076
820,1,100,18.75,80,89.28571429,87.5,3,28273,2,24160
821,1,100,18.75,80,89.28571429,87.5,3,31871,2,28273
822,1,100,18.75,80,89.28571429,87.5,3,29301,3,26731
823,1,100,18.75,80,89.28571429,87.5,3,32386,3,29816
824,1,100,18.75,80,89.28571429,87.5,3,48321,3,44723
825,1,100,18.75,80,89.28571429,87.5,3,29301,3,26731
826,1,100,18.75,80,89.28571429,87.5,3,28787,3,26217
827,1,100,18.75,80,89.28571429,87.5,3,25703,2,22105
828,1,100,18.75,80,89.28571429,87.5,3,23133,3,21076
829,1,100,18.75,80,89.28571429,87.5,3,22104,2,17992
830,1,100,18.75,80,89.28571429,87.5,3,22105,2,17992
831,1,100,18.75,80,89.28571429,87.5,3,23132,3,21076
832,1,100,18.75,80,89.28571429,87.5,3,31358,3,27759
833,1,100,18.75,80,89.28571429,87.5,3,61687,3,58603
834,1,100,18.75,80,89.28571429,87.5,3,29815,2,25703
835,1,100,18.75,80,89.28571429,87.5,3,22105,2,18506
836,1,100,18.75,80,89.28571429,87.5,3,24161,3,22105
837,1,100,18.75,80,89.28571429,87.5,3,38554,2,34956
838,1,100,18.75,80,89.28571429,87.5,3,22104,3,20048
839,1,100,18.75,80,89.28571429,87.5,3,22618,2,19020
840,1,100,18.75,80,89.28571429,87.5,3,23133,3,20048
841,1,100,18.75,80,89.28571429,87.5,3,37527,2,33928
842,1,100,18.75,80,89.28571429,87.5,3,23646,3,21590
843,1,100,18.75,80,89.28571429,87.5,3,22105,2,18507
844,1,100,18.75,80,89.28571429,87.5,3,21590,2,17992
845,1,100,18.75,80,89.28571429,87.5,3,21077,2,17992
846,1,100,18.75,80,89.28571429,87.5,3,21076,2,17478
847,1,100,18.75,80,89.28571429,87.5,3,23132,2,19534
848,1,100,18.75,80,89.28571429,87.5,3,43695,3,39582
849,1,100,18.75,80,89.28571429,87.5,3,25703,2,22104
850,1,100,18.75,80,89.28571429,87.5,3,22619,3,21077
851,1,100,18.75,80,89.28571429,87.5,3,20562,3,18506
852,1,100,18.75,80,89.28571429,87.5,3,22618,2,19534
853,1,100,18.75,80,89.28571429,87.5,3,23133,3,21076
854,1,100,18.75,80,89.28571429,87.5,3,26731,3,24675
855,1,100,18.75,80,89.28571429,87.5,3,28274,3,25703
856,1,100,18.75,80,89.28571429,87.5,3,35470,2,31871
857,1,100,18.75,80,89.28571429,87.5,3,20562,3,18506
858,1,100,18.75,80,89.28571429,87.5,3,23132,2,19020
859,1,100,18.75,80,89.28571429,87.5,3,22105,3,20049
860,1,100,18.75,80,89.28571429,87.5,3,21076,3,18506
861,1,100,18.75,80,89.28571429,87.5,3,20048,3,18506
862,1,100,18.75,80,89.28571429,87.5,3,23132,2,19534
863,1,100,18.75,80,89.28571429,87.5,3,23132,3,21076
864,1,100,18.75,80,89.28571429,87.5,3,21591,3,19535
865,1,100,18.75,80,89.28571429,87.5,3,20562,3,18506
866,1,100,18.75,80,89.28571429,87.5,3,21591,2,17478
867,1,100,18.75,80,89.28571429,87.5,3,21590,2,17991
868,1,100,18.75,80,89.28571429,87.5,3,22619,2,19021
869,1,100,18.75,80,89.28571429,87.5,3,25702,3,23646
870,1,100,18.75,80,89.28571429,87.5,3,24161,2,20049
871,1,100,18.75,80,89.28571429,87.5,3,30329,2,25702
872,1,100,18.75,80,89.28571429,87.5,3,22619,3,20562
873,1,100,18.75,80,89.28571429,87.5,3,23646,3,21076
874,1,100,18.75,80,89.28571429,87.5,3,32900,2,27245
875,1,100,18.75,80,89.28571429,87.5,3,22618,2,19020
876,1,100,18.75,80,89.28571429,87.5,3,25189,2,21076
877,1,100,18.75,80,89.28571429,87.5,3,32386,2,26731
878,1,100,18.75,80,89.28571429,87.5,3,23133,3,21077
879,1,100,18.75,80,89.28571429,87.5,3,29301,3,27244
880,1,100,18.75,80,89.28571429,87.5,3,24161,3,21590
881,1,100,18.75,80,89.28571429,87.5,3,22104,2,18506
882,1,100,18.75,80,89.28571429,87.5,3,21591,3,19534
883,1,100,18.75,80,89.28571429,87.5,3,21076,3,19534
884,1,100,18.75,80,89.28571429,87.5,3,21076,3,19020
885,1,100,18.75,80,89.28571429,87.5,3,22618,3,20048
886,1,100,18.75,80,89.28571429,87.5,3,22619,2,19020
887,1,100,18.75,80,89.28571429,87.5,3,29816,2,26217
888,1,100,18.75,80,89.28571429,87.5,3,25188,3,22618
889,1,100,18.75,80,89.28571429,87.5,3,24161,3,22105
890,1,100,18.75,80,89.28571429,87.5,3,21076,2,17478
891,1,100,18.75,80,89.28571429,87.5,3,23132,3,20048
892,1,100,18.75,80,89.28571429,87.5,3,22618,3,20048
893,1,100,18.75,80,89.28571429,87.5,3,21590,3,19534
894,1,100,18.75,80,89.28571429,87.5,3,20048,3,17992
895,1,100,18.75,80,89.28571429,87.5,3,23647,3,21591
896,1,100,18.75,80,89.28571429,87.5,3,26731,3,24675
897,1,100,18.75,80,89.28571429,87.5,3,34442,2,28273
898,1,100,18.75,80,89.28571429,87.5,3,23132,3,21076
899,1,100,18.75,80,89.28571429,87.5,3,22104,2,19020
900,1,100,18.75,80,89.28571429,87.5,3,25703,2,21591
901,1,100,18.75,80,89.28571429,87.5,3,53462,2,49863
902,1,100,18.75,80,89.28571429,87.5,3,21076,3,19020
903,1,100,18.75,80,89.28571429,87.5,3,23647,3,21591
904,1,100,18.75,80,89.28571429,87.5,3,37012,2,30843
905,1,100,18.75,80,89.28571429,87.5,3,21590,2,17991
906,1,100,18.75,80,89.28571429,87.5,3,20562,3,18506
907,1,100,18.75,80,89.28571429,87.5,3,21590,3,19534
908,1,100,18.75,80,89.28571429,87.5,3,21590,2,17992
909,1,100,18.75,80,89.28571429,87.5,3,22104,2,18506
910,1,100,18.75,80,89.28571429,87.5,3,41124,3,37012
911,1,100,18.75,80,89.28571429,87.5,3,23133,2,19534
912,1,100,18.75,80,89.28571429,87.5,3,21591,2,17992
913,1,100,18.75,80,89.28571429,87.5,3,19534,3,17478
914,1,100,18.75,80,89.28571429,87.5,3,20048,3,17478
915,1,100,18.75,80,89.28571429,87.5,3,19534,3,17478
916,1,100,18.75,80,89.28571429,87.5,3,21590,3,19534
917,1,100,18.75,80,89.28571429,87.5,3,23133,3,21076
918,1,100,18.75,80,89.28571429,87.5,3,24675,3,22619
919,1,100,18.75,80,89.28571429,87.5,3,23133,2,19534
920,1,100,18.75,80,89.28571429,87.5,3,19534,3,17992
921,1,100,18.75,80,89.28571429,87.5,3,20562,2,16963
922,1,100,18.75,80,89.28571429,87.5,3,21076,3,19020
923,1,100,18.75,80,89.28571429,87.5,3,21076,3,19020
924,1,100,18.75,80,89.28571429,87.5,3,20562,3,19020
925,1,100,18.75,80,89.28571429,87.5,3,20562,3,18506
926,1,100,18.75,80,89.28571429,87.5,3,27244,2,23132
927,1,100,18.75,80,89.28571429,87.5,3,20048,2,16450
928,1,100,18.75,80,89.28571429,87.5,3,22104,2,18506
929,1,100,18.75,80,89.28571429,87.5,3,34956,3,28273
930,1,100,18.75,80,89.28571429,87.5,3,34955,3,25188
931,1,100,18.75,80,89.28571429,87.5,3,22105,2,17992
932,1,100,18.75,80,89.28571429,87.5,3,20048,3,17992
933,1,100,18.75,80,89.28571429,87.5,3,21591,3,18506
934,1,100,18.75,80,89.28571429,87.5,3,20562,3,18506
935,1,100,18.75,80,89.28571429,87.5,3,20562,2,16964
936,1,100,18.75,80,89.28571429,87.5,3,20048,2,16963
937,1,100,18.75,80,89.28571429,87.5,3,20563,2,16964
938,1,100,18.75,80,89.28571429,87.5,3,22105,2,18506
939,1,100,18.75,80,89.28571429,87.5,3,22618,2,19020
940,1,100,18.75,80,89.28571429,87.5,3,21591,2,16964
941,1,100,18.75,80,89.28571429,87.5,3,32899,2,27245
942,1,100,18.75,80,89.28571429,87.5,3,23132,3,21076
943,1,100,18.75,80,89.28571429,87.5,3,20562,2,17477
944,1,100,18.75,80,89.28571429,87.5,3,21590,2,17992
945,1,100,18.75,80,89.28571429,87.5,3,22618,2,19020
946,1,100,18.75,80,89.28571429,87.5,3,21076,2,17478
947,1,100,18.75,80,89.28571429,87.5,3,21077,2,16964
948,1,100,18.75,80,89.28571429,87.5,3,20563,3,18506
949,1,100,18.75,80,89.28571429,87.5,3,20563,3,18506
950,1,100,18.75,80,89.28571429,87.5,3,26731,3,24160
951,1,100,18.75,80,89.28571429,87.5,3,21590,2,17992
952,1,100,18.75,80,89.28571429,87.5,3,21076,2,17478
953,1,100,18.75,80,89.28571429,87.5,3,21076,2,17478
954,1,100,18.75,80,89.28571429,87.5,3,21590,3,19534
955,1,100,18.75,80,89.28571429,87.5,3,21076,3,19534
956,1,100,18.75,80,89.28571429,87.5,3,22104,2,18506
957,1,100,18.75,80,89.28571429,87.5,3,25189,3,22618
958,1,100,18.75,80,89.28571429,87.5,3,42153,3,39068
959,1,100,18.75,80,89.28571429,87.5,3,25703,2,21591
960,1,100,18.75,80,89.28571429,87.5,3,22618,2,19534
961,1,100,18.75,80,89.28571429,87.5,3,23132,2,19534
962,1,100,18.75,80,89.28571429,87.5,3,22104,2,18505
963,1,100,18.75,80,89.28571429,87.5,3,22105,2,19020
964,1,100,18.75,80,89.28571429,87.5,3,22104,2,18506
965,1,100,18.75,80,89.28571429,87.5,3,25703,2,21590
966,1,100,18.75,80,89.28571429,87.5,3,24160,2,20562
967,1,100,18.75,80,89.28571429,87.5,3,32900,2,29301
968,1,100,18.75,80,89.28571429,87.5,3,21076,2,17478
969,1,100,18.75,80,89.28571429,87.5,3,21076,2,17992
970,1,100,18.75,80,89.28571429,87.5,3,20562,3,18506
971,1,100,18.75,80,89.28571429,87.5,3,21590,2,17992
972,1,100,18.75,80,89.28571429,87.5,3,22619,2,18506
973,1,100,18.75,80,89.28571429,87.5,3,28787,3,26731
974,1,100,18.75,80,89.28571429,87.5,3,29301,3,26217
975,1,100,18.75,80,89.28571429,87.5,3,27759,3,25189
976,1,100,18.75,80,89.28571429,87.5,3,25703,2,21590
977,1,100,18.75,80,89.28571429,87.5,3,25188,2,20562
978,1,100,18.75,80,89.28571429,87.5,3,20048,2,16964
979,1,100,18.75,80,89.28571429,87.5,3,18506,2,15421
980,1,100,18.75,80,89.28571429,87.5,3,20563,3,18506
981,1,100,18.75,80,89.28571429,87.5,3,45237,3,42153
982,1,100,18.75,80,89.28571429,87.5,3,22105,3,20562
983,1,100,18.75,80,89.28571429,87.5,3,21076,3,19020
984,1,100,18.75,80,89.28571429,87.5,3,40610,2,33414
985,1,100,18.75,80,89.28571429,87.5,3,20562,3,19020
986,1,100,18.75,80,89.28571429,87.5,3,20563,3,18506
987,1,100,18.75,80,89.28571429,87.5,3,20562,3,18505
988,1,100,18.75,80,89.28571429,87.5,3,23133,2,19534
989,1,100,18.75,80,89.28571429,87.5,3,20563,3,18506
990,1,100,18.75,80,89.28571429,87.5,3,20048,2,16964
991,1,100,18.75,80,89.28571429,87.5,3,19534,3,17992
992,1,100,18.75,80,89.28571429,87.5,3,20562,2,16964
993,1,100,18.75,80,89.28571429,87.5,3,20562,2,16964
994,1,100,18.75,80,89.28571429,87.5,3,19535,3,17992
995,1,100,18.75,80,89.28571429,87.5,3,20562,2,17478
996,1,100,18.75,80,89.28571429,87.5,3,20048,2,16449
997,1,100,18.75,80,89.28571429,87.5,3,19020,3,17478
998,1,100,18.75,80,89.28571429,87.5,3,19020,3,16964
999,1,100,18.75,80,89.28571429,87.5,3,18506,3,16449
1000,1,100,18.75,80,89.28571429,87.5,3,21591,2,17992
