RunTimeNumber,Number Of Faults,States Coverage,Transition Coverage,Branches Coverage,Instructions Coverage,Lines Coverage,Number of tests to achieve All States coverage,Execution time in nanoseconds to achieve All States coverage
1,0,100,18.75,75,86.15384615,84.21052632,3,6246295
2,0,100,18.75,75,86.15384615,84.21052632,3,51406
3,0,100,18.75,75,86.15384615,84.21052632,3,39068
4,0,100,18.75,75,86.15384615,84.21052632,3,65285
5,0,100,18.75,75,86.15384615,84.21052632,3,46779
6,0,100,18.75,75,86.15384615,84.21052632,3,60658
7,0,100,18.75,75,86.15384615,84.21052632,3,38040
8,0,100,18.75,75,86.15384615,84.21052632,3,38555
9,0,100,18.75,75,86.15384615,84.21052632,3,37526
10,0,100,18.75,75,86.15384615,84.21052632,3,41124
11,0,100,18.75,75,86.15384615,84.21052632,3,37012
12,0,100,18.75,75,86.15384615,84.21052632,3,41124
13,0,100,18.75,75,86.15384615,84.21052632,3,40610
14,0,100,18.75,75,86.15384615,84.21052632,3,34442
15,0,100,18.75,75,86.15384615,84.21052632,3,32900
16,0,100,18.75,75,86.15384615,84.21052632,3,57061
17,0,100,18.75,75,86.15384615,84.21052632,3,60659
18,0,100,18.75,75,86.15384615,84.21052632,3,55004
19,0,100,18.75,75,86.15384615,84.21052632,3,64257
20,0,100,18.75,75,86.15384615,84.21052632,3,65800
21,0,100,18.75,75,86.15384615,84.21052632,3,82249
22,0,100,18.75,75,86.15384615,84.21052632,3,53976
23,0,100,18.75,75,86.15384615,84.21052632,3,56032
24,0,100,18.75,75,86.15384615,84.21052632,3,48835
25,0,100,18.75,75,86.15384615,84.21052632,3,47808
26,0,100,18.75,75,86.15384615,84.21052632,3,53462
27,0,100,18.75,75,86.15384615,84.21052632,3,461623
28,0,100,18.75,75,86.15384615,84.21052632,3,65799
29,0,100,18.75,75,86.15384615,84.21052632,3,39582
30,0,100,18.75,75,86.15384615,84.21052632,3,38040
31,0,100,18.75,75,86.15384615,84.21052632,3,47293
32,0,100,18.75,75,86.15384615,84.21052632,3,35984
33,0,100,18.75,75,86.15384615,84.21052632,3,27759
34,0,100,18.75,75,86.15384615,84.21052632,3,29301
35,0,100,18.75,75,86.15384615,84.21052632,3,33928
36,0,100,18.75,75,86.15384615,84.21052632,3,28273
37,0,100,18.75,75,86.15384615,84.21052632,3,28787
38,0,100,18.75,75,86.15384615,84.21052632,3,25703
39,0,100,18.75,75,86.15384615,84.21052632,3,31358
40,0,100,18.75,75,86.15384615,84.21052632,3,26731
41,0,100,18.75,75,86.15384615,84.21052632,3,24161
42,0,100,18.75,75,86.15384615,84.21052632,3,3621525
43,0,100,18.75,75,86.15384615,84.21052632,3,79678
44,0,100,18.75,75,86.15384615,84.21052632,3,41639
45,0,100,18.75,75,86.15384615,84.21052632,3,29301
46,0,100,18.75,75,86.15384615,84.21052632,3,34956
47,0,100,18.75,75,86.15384615,84.21052632,3,25702
48,0,100,18.75,75,86.15384615,84.21052632,3,20048
49,0,100,18.75,75,86.15384615,84.21052632,3,29816
50,0,100,18.75,75,86.15384615,84.21052632,3,40610
51,0,100,18.75,75,86.15384615,84.21052632,3,21076
52,0,100,18.75,75,86.15384615,84.21052632,3,20048
53,0,100,18.75,75,86.15384615,84.21052632,3,20048
54,0,100,18.75,75,86.15384615,84.21052632,3,32385
55,0,100,18.75,75,86.15384615,84.21052632,3,28787
56,0,100,18.75,75,86.15384615,84.21052632,3,20048
57,0,100,18.75,75,86.15384615,84.21052632,3,21077
58,0,100,18.75,75,86.15384615,84.21052632,3,22618
59,0,100,18.75,75,86.15384615,84.21052632,3,19534
60,0,100,18.75,75,86.15384615,84.21052632,3,24161
61,0,100,18.75,75,86.15384615,84.21052632,3,21076
62,0,100,18.75,75,86.15384615,84.21052632,3,21076
63,0,100,18.75,75,86.15384615,84.21052632,3,18506
64,0,100,18.75,75,86.15384615,84.21052632,3,23132
65,0,100,18.75,75,86.15384615,84.21052632,3,19535
66,0,100,18.75,75,86.15384615,84.21052632,3,19534
67,0,100,18.75,75,86.15384615,84.21052632,3,22619
68,0,100,18.75,75,86.15384615,84.21052632,3,21076
69,0,100,18.75,75,86.15384615,84.21052632,3,25189
70,0,100,18.75,75,86.15384615,84.21052632,3,22618
71,0,100,18.75,75,86.15384615,84.21052632,3,22104
72,0,100,18.75,75,86.15384615,84.21052632,3,19535
73,0,100,18.75,75,86.15384615,84.21052632,3,30844
74,0,100,18.75,75,86.15384615,84.21052632,3,22619
75,0,100,18.75,75,86.15384615,84.21052632,3,23133
76,0,100,18.75,75,86.15384615,84.21052632,3,24675
77,0,100,18.75,75,86.15384615,84.21052632,3,27245
78,0,100,18.75,75,86.15384615,84.21052632,3,30329
79,0,100,18.75,75,86.15384615,84.21052632,3,23132
80,0,100,18.75,75,86.15384615,84.21052632,3,27245
81,0,100,18.75,75,86.15384615,84.21052632,3,33928
82,0,100,18.75,75,86.15384615,84.21052632,3,32900
83,0,100,18.75,75,86.15384615,84.21052632,3,31872
84,0,100,18.75,75,86.15384615,84.21052632,3,25703
85,0,100,18.75,75,86.15384615,84.21052632,3,27759
86,0,100,18.75,75,86.15384615,84.21052632,3,43695
87,0,100,18.75,75,86.15384615,84.21052632,3,93044
88,0,100,18.75,75,86.15384615,84.21052632,3,25703
89,0,100,18.75,75,86.15384615,84.21052632,3,31872
90,0,100,18.75,75,86.15384615,84.21052632,3,22619
91,0,100,18.75,75,86.15384615,84.21052632,3,20562
92,0,100,18.75,75,86.15384615,84.21052632,3,19534
93,0,100,18.75,75,86.15384615,84.21052632,3,28273
94,0,100,18.75,75,86.15384615,84.21052632,3,23133
95,0,100,18.75,75,86.15384615,84.21052632,3,30844
96,0,100,18.75,75,86.15384615,84.21052632,3,63229
97,0,100,18.75,75,86.15384615,84.21052632,3,43695
98,0,100,18.75,75,86.15384615,84.21052632,3,27759
99,0,100,18.75,75,86.15384615,84.21052632,3,23647
100,0,100,18.75,75,86.15384615,84.21052632,3,26731
101,0,100,18.75,75,86.15384615,84.21052632,3,18506
102,0,100,18.75,75,86.15384615,84.21052632,3,27759
103,0,100,18.75,75,86.15384615,84.21052632,3,19534
104,0,100,18.75,75,86.15384615,84.21052632,3,24675
105,0,100,18.75,75,86.15384615,84.21052632,3,22104
106,0,100,18.75,75,86.15384615,84.21052632,3,16964
107,0,100,18.75,75,86.15384615,84.21052632,3,15422
108,0,100,18.75,75,86.15384615,84.21052632,3,18506
109,0,100,18.75,75,86.15384615,84.21052632,3,23133
110,0,100,18.75,75,86.15384615,84.21052632,3,16964
111,0,100,18.75,75,86.15384615,84.21052632,3,29815
112,0,100,18.75,75,86.15384615,84.21052632,3,16450
113,0,100,18.75,75,86.15384615,84.21052632,3,24161
114,0,100,18.75,75,86.15384615,84.21052632,3,25188
115,0,100,18.75,75,86.15384615,84.21052632,3,16450
116,0,100,18.75,75,86.15384615,84.21052632,3,24160
117,0,100,18.75,75,86.15384615,84.21052632,3,19534
118,0,100,18.75,75,86.15384615,84.21052632,3,14393
119,0,100,18.75,75,86.15384615,84.21052632,3,15422
120,0,100,18.75,75,86.15384615,84.21052632,3,13366
121,0,100,18.75,75,86.15384615,84.21052632,3,15422
122,0,100,18.75,75,86.15384615,84.21052632,3,16449
123,0,100,18.75,75,86.15384615,84.21052632,3,22618
124,0,100,18.75,75,86.15384615,84.21052632,3,23646
125,0,100,18.75,75,86.15384615,84.21052632,3,17478
126,0,100,18.75,75,86.15384615,84.21052632,3,14908
127,0,100,18.75,75,86.15384615,84.21052632,3,16450
128,0,100,18.75,75,86.15384615,84.21052632,3,24675
129,0,100,18.75,75,86.15384615,84.21052632,3,23133
130,0,100,18.75,75,86.15384615,84.21052632,3,16450
131,0,100,18.75,75,86.15384615,84.21052632,3,32900
132,0,100,18.75,75,86.15384615,84.21052632,3,19020
133,0,100,18.75,75,86.15384615,84.21052632,3,15422
134,0,100,18.75,75,86.15384615,84.21052632,3,17478
135,0,100,18.75,75,86.15384615,84.21052632,3,22104
136,0,100,18.75,75,86.15384615,84.21052632,3,14908
137,0,100,18.75,75,86.15384615,84.21052632,3,16450
138,0,100,18.75,75,86.15384615,84.21052632,3,66828
139,0,100,18.75,75,86.15384615,84.21052632,3,15935
140,0,100,18.75,75,86.15384615,84.21052632,3,33413
141,0,100,18.75,75,86.15384615,84.21052632,3,25703
142,0,100,18.75,75,86.15384615,84.21052632,3,12852
143,0,100,18.75,75,86.15384615,84.21052632,3,13365
144,0,100,18.75,75,86.15384615,84.21052632,3,11310
145,0,100,18.75,75,86.15384615,84.21052632,3,10281
146,0,100,18.75,75,86.15384615,84.21052632,3,17478
147,0,100,18.75,75,86.15384615,84.21052632,3,12338
148,0,100,18.75,75,86.15384615,84.21052632,3,10796
149,0,100,18.75,75,86.15384615,84.21052632,3,9253
150,0,100,18.75,75,86.15384615,84.21052632,3,13880
151,0,100,18.75,75,86.15384615,84.21052632,3,11309
152,0,100,18.75,75,86.15384615,84.21052632,3,11309
153,0,100,18.75,75,86.15384615,84.21052632,3,9253
154,0,100,18.75,75,86.15384615,84.21052632,3,9253
155,0,100,18.75,75,86.15384615,84.21052632,3,10795
156,0,100,18.75,75,86.15384615,84.21052632,3,12337
157,0,100,18.75,75,86.15384615,84.21052632,3,11309
158,0,100,18.75,75,86.15384615,84.21052632,3,10795
159,0,100,18.75,75,86.15384615,84.21052632,3,12851
160,0,100,18.75,75,86.15384615,84.21052632,3,10795
161,0,100,18.75,75,86.15384615,84.21052632,3,13365
162,0,100,18.75,75,86.15384615,84.21052632,3,16964
163,0,100,18.75,75,86.15384615,84.21052632,3,13366
164,0,100,18.75,75,86.15384615,84.21052632,3,13879
165,0,100,18.75,75,86.15384615,84.21052632,3,17992
166,0,100,18.75,75,86.15384615,84.21052632,3,15936
167,0,100,18.75,75,86.15384615,84.21052632,3,14394
168,0,100,18.75,75,86.15384615,84.21052632,3,11310
169,0,100,18.75,75,86.15384615,84.21052632,3,21590
170,0,100,18.75,75,86.15384615,84.21052632,3,18506
171,0,100,18.75,75,86.15384615,84.21052632,3,34956
172,0,100,18.75,75,86.15384615,84.21052632,3,43695
173,0,100,18.75,75,86.15384615,84.21052632,3,36498
174,0,100,18.75,75,86.15384615,84.21052632,3,9253
175,0,100,18.75,75,86.15384615,84.21052632,3,10795
176,0,100,18.75,75,86.15384615,84.21052632,3,11823
177,0,100,18.75,75,86.15384615,84.21052632,3,11824
178,0,100,18.75,75,86.15384615,84.21052632,3,12851
179,0,100,18.75,75,86.15384615,84.21052632,3,12852
180,0,100,18.75,75,86.15384615,84.21052632,3,12338
181,0,100,18.75,75,86.15384615,84.21052632,3,12851
182,0,100,18.75,75,86.15384615,84.21052632,3,13879
183,0,100,18.75,75,86.15384615,84.21052632,3,15422
184,0,100,18.75,75,86.15384615,84.21052632,3,12337
185,0,100,18.75,75,86.15384615,84.21052632,3,13366
186,0,100,18.75,75,86.15384615,84.21052632,3,12337
187,0,100,18.75,75,86.15384615,84.21052632,3,13365
188,0,100,18.75,75,86.15384615,84.21052632,3,20049
189,0,100,18.75,75,86.15384615,84.21052632,3,14394
190,0,100,18.75,75,86.15384615,84.21052632,3,13365
191,0,100,18.75,75,86.15384615,84.21052632,3,12337
192,0,100,18.75,75,86.15384615,84.21052632,3,11309
193,0,100,18.75,75,86.15384615,84.21052632,3,10796
194,0,100,18.75,75,86.15384615,84.21052632,3,14393
195,0,100,18.75,75,86.15384615,84.21052632,3,12852
196,0,100,18.75,75,86.15384615,84.21052632,3,9252
197,0,100,18.75,75,86.15384615,84.21052632,3,8739
198,0,100,18.75,75,86.15384615,84.21052632,3,12852
199,0,100,18.75,75,86.15384615,84.21052632,3,11310
200,0,100,18.75,75,86.15384615,84.21052632,3,8739
201,0,100,18.75,75,86.15384615,84.21052632,3,7711
202,0,100,18.75,75,86.15384615,84.21052632,3,7711
203,0,100,18.75,75,86.15384615,84.21052632,3,7711
204,0,100,18.75,75,86.15384615,84.21052632,3,7711
205,0,100,18.75,75,86.15384615,84.21052632,3,8739
206,0,100,18.75,75,86.15384615,84.21052632,3,7711
207,0,100,18.75,75,86.15384615,84.21052632,3,7197
208,0,100,18.75,75,86.15384615,84.21052632,3,7197
209,0,100,18.75,75,86.15384615,84.21052632,3,7711
210,0,100,18.75,75,86.15384615,84.21052632,3,7711
211,0,100,18.75,75,86.15384615,84.21052632,3,8225
212,0,100,18.75,75,86.15384615,84.21052632,3,8225
213,0,100,18.75,75,86.15384615,84.21052632,3,7711
214,0,100,18.75,75,86.15384615,84.21052632,3,9768
215,0,100,18.75,75,86.15384615,84.21052632,3,7711
216,0,100,18.75,75,86.15384615,84.21052632,3,7710
217,0,100,18.75,75,86.15384615,84.21052632,3,7711
218,0,100,18.75,75,86.15384615,84.21052632,3,8739
219,0,100,18.75,75,86.15384615,84.21052632,3,8224
220,0,100,18.75,75,86.15384615,84.21052632,3,7197
221,0,100,18.75,75,86.15384615,84.21052632,3,7197
222,0,100,18.75,75,86.15384615,84.21052632,3,7197
223,0,100,18.75,75,86.15384615,84.21052632,3,8225
224,0,100,18.75,75,86.15384615,84.21052632,3,8225
225,0,100,18.75,75,86.15384615,84.21052632,3,7197
226,0,100,18.75,75,86.15384615,84.21052632,3,8739
227,0,100,18.75,75,86.15384615,84.21052632,3,8225
228,0,100,18.75,75,86.15384615,84.21052632,3,7711
229,0,100,18.75,75,86.15384615,84.21052632,3,7711
230,0,100,18.75,75,86.15384615,84.21052632,3,9253
231,0,100,18.75,75,86.15384615,84.21052632,3,8225
232,0,100,18.75,75,86.15384615,84.21052632,3,9767
233,0,100,18.75,75,86.15384615,84.21052632,3,8225
234,0,100,18.75,75,86.15384615,84.21052632,3,7711
235,0,100,18.75,75,86.15384615,84.21052632,3,7710
236,0,100,18.75,75,86.15384615,84.21052632,3,9253
237,0,100,18.75,75,86.15384615,84.21052632,3,7711
238,0,100,18.75,75,86.15384615,84.21052632,3,7197
239,0,100,18.75,75,86.15384615,84.21052632,3,7197
240,0,100,18.75,75,86.15384615,84.21052632,3,6683
241,0,100,18.75,75,86.15384615,84.21052632,3,7197
242,0,100,18.75,75,86.15384615,84.21052632,3,7711
243,0,100,18.75,75,86.15384615,84.21052632,3,8739
244,0,100,18.75,75,86.15384615,84.21052632,3,7197
245,0,100,18.75,75,86.15384615,84.21052632,3,9253
246,0,100,18.75,75,86.15384615,84.21052632,3,9253
247,0,100,18.75,75,86.15384615,84.21052632,3,8224
248,0,100,18.75,75,86.15384615,84.21052632,3,8739
249,0,100,18.75,75,86.15384615,84.21052632,3,10795
250,0,100,18.75,75,86.15384615,84.21052632,3,12337
251,0,100,18.75,75,86.15384615,84.21052632,3,9253
252,0,100,18.75,75,86.15384615,84.21052632,3,10281
253,0,100,18.75,75,86.15384615,84.21052632,3,8225
254,0,100,18.75,75,86.15384615,84.21052632,3,9253
255,0,100,18.75,75,86.15384615,84.21052632,3,7711
256,0,100,18.75,75,86.15384615,84.21052632,3,13366
257,0,100,18.75,75,86.15384615,84.21052632,3,13880
258,0,100,18.75,75,86.15384615,84.21052632,3,14908
259,0,100,18.75,75,86.15384615,84.21052632,3,13365
260,0,100,18.75,75,86.15384615,84.21052632,3,12851
261,0,100,18.75,75,86.15384615,84.21052632,3,10281
262,0,100,18.75,75,86.15384615,84.21052632,3,8225
263,0,100,18.75,75,86.15384615,84.21052632,3,8739
264,0,100,18.75,75,86.15384615,84.21052632,3,14908
265,0,100,18.75,75,86.15384615,84.21052632,3,11823
266,0,100,18.75,75,86.15384615,84.21052632,3,9253
267,0,100,18.75,75,86.15384615,84.21052632,3,9767
268,0,100,18.75,75,86.15384615,84.21052632,3,9253
269,0,100,18.75,75,86.15384615,84.21052632,3,8225
270,0,100,18.75,75,86.15384615,84.21052632,3,29815
271,0,100,18.75,75,86.15384615,84.21052632,3,16450
272,0,100,18.75,75,86.15384615,84.21052632,3,10795
273,0,100,18.75,75,86.15384615,84.21052632,3,8225
274,0,100,18.75,75,86.15384615,84.21052632,3,8739
275,0,100,18.75,75,86.15384615,84.21052632,3,9253
276,0,100,18.75,75,86.15384615,84.21052632,3,11823
277,0,100,18.75,75,86.15384615,84.21052632,3,8739
278,0,100,18.75,75,86.15384615,84.21052632,3,7197
279,0,100,18.75,75,86.15384615,84.21052632,3,8739
280,0,100,18.75,75,86.15384615,84.21052632,3,8739
281,0,100,18.75,75,86.15384615,84.21052632,3,9767
282,0,100,18.75,75,86.15384615,84.21052632,3,8224
283,0,100,18.75,75,86.15384615,84.21052632,3,9767
284,0,100,18.75,75,86.15384615,84.21052632,3,9253
285,0,100,18.75,75,86.15384615,84.21052632,3,12851
286,0,100,18.75,75,86.15384615,84.21052632,3,11310
287,0,100,18.75,75,86.15384615,84.21052632,3,8739
288,0,100,18.75,75,86.15384615,84.21052632,3,8739
289,0,100,18.75,75,86.15384615,84.21052632,3,8739
290,0,100,18.75,75,86.15384615,84.21052632,3,8225
291,0,100,18.75,75,86.15384615,84.21052632,3,13366
292,0,100,18.75,75,86.15384615,84.21052632,3,8739
293,0,100,18.75,75,86.15384615,84.21052632,3,7710
294,0,100,18.75,75,86.15384615,84.21052632,3,7711
295,0,100,18.75,75,86.15384615,84.21052632,3,8225
296,0,100,18.75,75,86.15384615,84.21052632,3,11309
297,0,100,18.75,75,86.15384615,84.21052632,3,8225
298,0,100,18.75,75,86.15384615,84.21052632,3,8225
299,0,100,18.75,75,86.15384615,84.21052632,3,11824
300,0,100,18.75,75,86.15384615,84.21052632,3,7711
301,0,100,18.75,75,86.15384615,84.21052632,3,8225
302,0,100,18.75,75,86.15384615,84.21052632,3,8225
303,0,100,18.75,75,86.15384615,84.21052632,3,7711
304,0,100,18.75,75,86.15384615,84.21052632,3,7711
305,0,100,18.75,75,86.15384615,84.21052632,3,7197
306,0,100,18.75,75,86.15384615,84.21052632,3,7711
307,0,100,18.75,75,86.15384615,84.21052632,3,8225
308,0,100,18.75,75,86.15384615,84.21052632,3,8225
309,0,100,18.75,75,86.15384615,84.21052632,3,11823
310,0,100,18.75,75,86.15384615,84.21052632,3,25703
311,0,100,18.75,75,86.15384615,84.21052632,3,12851
312,0,100,18.75,75,86.15384615,84.21052632,3,8739
313,0,100,18.75,75,86.15384615,84.21052632,3,9253
314,0,100,18.75,75,86.15384615,84.21052632,3,8225
315,0,100,18.75,75,86.15384615,84.21052632,3,8739
316,0,100,18.75,75,86.15384615,84.21052632,3,10281
317,0,100,18.75,75,86.15384615,84.21052632,3,11824
318,0,100,18.75,75,86.15384615,84.21052632,3,9253
319,0,100,18.75,75,86.15384615,84.21052632,3,8739
320,0,100,18.75,75,86.15384615,84.21052632,3,8225
321,0,100,18.75,75,86.15384615,84.21052632,3,11309
322,0,100,18.75,75,86.15384615,84.21052632,3,8739
323,0,100,18.75,75,86.15384615,84.21052632,3,8225
324,0,100,18.75,75,86.15384615,84.21052632,3,8225
325,0,100,18.75,75,86.15384615,84.21052632,3,7711
326,0,100,18.75,75,86.15384615,84.21052632,3,8739
327,0,100,18.75,75,86.15384615,84.21052632,3,8224
328,0,100,18.75,75,86.15384615,84.21052632,3,9767
329,0,100,18.75,75,86.15384615,84.21052632,3,8225
330,0,100,18.75,75,86.15384615,84.21052632,3,7711
331,0,100,18.75,75,86.15384615,84.21052632,3,8739
332,0,100,18.75,75,86.15384615,84.21052632,3,14908
333,0,100,18.75,75,86.15384615,84.21052632,3,10281
334,0,100,18.75,75,86.15384615,84.21052632,3,17478
335,0,100,18.75,75,86.15384615,84.21052632,3,9253
336,0,100,18.75,75,86.15384615,84.21052632,3,7710
337,0,100,18.75,75,86.15384615,84.21052632,3,7711
338,0,100,18.75,75,86.15384615,84.21052632,3,8738
339,0,100,18.75,75,86.15384615,84.21052632,3,7711
340,0,100,18.75,75,86.15384615,84.21052632,3,7711
341,0,100,18.75,75,86.15384615,84.21052632,3,10281
342,0,100,18.75,75,86.15384615,84.21052632,3,12338
343,0,100,18.75,75,86.15384615,84.21052632,3,11310
344,0,100,18.75,75,86.15384615,84.21052632,3,13880
345,0,100,18.75,75,86.15384615,84.21052632,3,12851
346,0,100,18.75,75,86.15384615,84.21052632,3,19020
347,0,100,18.75,75,86.15384615,84.21052632,3,13365
348,0,100,18.75,75,86.15384615,84.21052632,3,13880
349,0,100,18.75,75,86.15384615,84.21052632,3,12852
350,0,100,18.75,75,86.15384615,84.21052632,3,9767
351,0,100,18.75,75,86.15384615,84.21052632,3,8739
352,0,100,18.75,75,86.15384615,84.21052632,3,19535
353,0,100,18.75,75,86.15384615,84.21052632,3,10795
354,0,100,18.75,75,86.15384615,84.21052632,3,7197
355,0,100,18.75,75,86.15384615,84.21052632,3,8225
356,0,100,18.75,75,86.15384615,84.21052632,3,10795
357,0,100,18.75,75,86.15384615,84.21052632,3,9767
358,0,100,18.75,75,86.15384615,84.21052632,3,11823
359,0,100,18.75,75,86.15384615,84.21052632,3,8225
360,0,100,18.75,75,86.15384615,84.21052632,3,8739
361,0,100,18.75,75,86.15384615,84.21052632,3,8738
362,0,100,18.75,75,86.15384615,84.21052632,3,9253
363,0,100,18.75,75,86.15384615,84.21052632,3,10281
364,0,100,18.75,75,86.15384615,84.21052632,3,8739
365,0,100,18.75,75,86.15384615,84.21052632,3,8739
366,0,100,18.75,75,86.15384615,84.21052632,3,15422
367,0,100,18.75,75,86.15384615,84.21052632,3,9767
368,0,100,18.75,75,86.15384615,84.21052632,3,8224
369,0,100,18.75,75,86.15384615,84.21052632,3,8225
370,0,100,18.75,75,86.15384615,84.21052632,3,8225
371,0,100,18.75,75,86.15384615,84.21052632,3,8225
372,0,100,18.75,75,86.15384615,84.21052632,3,16450
373,0,100,18.75,75,86.15384615,84.21052632,3,8225
374,0,100,18.75,75,86.15384615,84.21052632,3,8224
375,0,100,18.75,75,86.15384615,84.21052632,3,7711
376,0,100,18.75,75,86.15384615,84.21052632,3,12337
377,0,100,18.75,75,86.15384615,84.21052632,3,10795
378,0,100,18.75,75,86.15384615,84.21052632,3,12851
379,0,100,18.75,75,86.15384615,84.21052632,3,15936
380,0,100,18.75,75,86.15384615,84.21052632,3,10796
381,0,100,18.75,75,86.15384615,84.21052632,3,8225
382,0,100,18.75,75,86.15384615,84.21052632,3,8225
383,0,100,18.75,75,86.15384615,84.21052632,3,8225
384,0,100,18.75,75,86.15384615,84.21052632,3,28273
385,0,100,18.75,75,86.15384615,84.21052632,3,17992
386,0,100,18.75,75,86.15384615,84.21052632,3,11824
387,0,100,18.75,75,86.15384615,84.21052632,3,13366
388,0,100,18.75,75,86.15384615,84.21052632,3,8225
389,0,100,18.75,75,86.15384615,84.21052632,3,10795
390,0,100,18.75,75,86.15384615,84.21052632,3,8739
391,0,100,18.75,75,86.15384615,84.21052632,3,7196
392,0,100,18.75,75,86.15384615,84.21052632,3,7711
393,0,100,18.75,75,86.15384615,84.21052632,3,7711
394,0,100,18.75,75,86.15384615,84.21052632,3,7196
395,0,100,18.75,75,86.15384615,84.21052632,3,7196
396,0,100,18.75,75,86.15384615,84.21052632,3,7710
397,0,100,18.75,75,86.15384615,84.21052632,3,12851
398,0,100,18.75,75,86.15384615,84.21052632,3,10795
399,0,100,18.75,75,86.15384615,84.21052632,3,7711
400,0,100,18.75,75,86.15384615,84.21052632,3,7711
401,0,100,18.75,75,86.15384615,84.21052632,3,8225
402,0,100,18.75,75,86.15384615,84.21052632,3,7711
403,0,100,18.75,75,86.15384615,84.21052632,3,7197
404,0,100,18.75,75,86.15384615,84.21052632,3,7711
405,0,100,18.75,75,86.15384615,84.21052632,3,7711
406,0,100,18.75,75,86.15384615,84.21052632,3,8225
407,0,100,18.75,75,86.15384615,84.21052632,3,7197
408,0,100,18.75,75,86.15384615,84.21052632,3,7197
409,0,100,18.75,75,86.15384615,84.21052632,3,7711
410,0,100,18.75,75,86.15384615,84.21052632,3,9253
411,0,100,18.75,75,86.15384615,84.21052632,3,9767
412,0,100,18.75,75,86.15384615,84.21052632,3,8225
413,0,100,18.75,75,86.15384615,84.21052632,3,7711
414,0,100,18.75,75,86.15384615,84.21052632,3,7197
415,0,100,18.75,75,86.15384615,84.21052632,3,7711
416,0,100,18.75,75,86.15384615,84.21052632,3,10281
417,0,100,18.75,75,86.15384615,84.21052632,3,7711
418,0,100,18.75,75,86.15384615,84.21052632,3,8225
419,0,100,18.75,75,86.15384615,84.21052632,3,7711
420,0,100,18.75,75,86.15384615,84.21052632,3,7711
421,0,100,18.75,75,86.15384615,84.21052632,3,7197
422,0,100,18.75,75,86.15384615,84.21052632,3,7197
423,0,100,18.75,75,86.15384615,84.21052632,3,6683
424,0,100,18.75,75,86.15384615,84.21052632,3,8739
425,0,100,18.75,75,86.15384615,84.21052632,3,7711
426,0,100,18.75,75,86.15384615,84.21052632,3,7711
427,0,100,18.75,75,86.15384615,84.21052632,3,11309
428,0,100,18.75,75,86.15384615,84.21052632,3,8225
429,0,100,18.75,75,86.15384615,84.21052632,3,7711
430,0,100,18.75,75,86.15384615,84.21052632,3,7711
431,0,100,18.75,75,86.15384615,84.21052632,3,9253
432,0,100,18.75,75,86.15384615,84.21052632,3,7197
433,0,100,18.75,75,86.15384615,84.21052632,3,7711
434,0,100,18.75,75,86.15384615,84.21052632,3,12337
435,0,100,18.75,75,86.15384615,84.21052632,3,12852
436,0,100,18.75,75,86.15384615,84.21052632,3,10795
437,0,100,18.75,75,86.15384615,84.21052632,3,8224
438,0,100,18.75,75,86.15384615,84.21052632,3,7711
439,0,100,18.75,75,86.15384615,84.21052632,3,8739
440,0,100,18.75,75,86.15384615,84.21052632,3,7710
441,0,100,18.75,75,86.15384615,84.21052632,3,8225
442,0,100,18.75,75,86.15384615,84.21052632,3,7711
443,0,100,18.75,75,86.15384615,84.21052632,3,8225
444,0,100,18.75,75,86.15384615,84.21052632,3,8225
445,0,100,18.75,75,86.15384615,84.21052632,3,7710
446,0,100,18.75,75,86.15384615,84.21052632,3,7711
447,0,100,18.75,75,86.15384615,84.21052632,3,8225
448,0,100,18.75,75,86.15384615,84.21052632,3,7197
449,0,100,18.75,75,86.15384615,84.21052632,3,14393
450,0,100,18.75,75,86.15384615,84.21052632,3,8739
451,0,100,18.75,75,86.15384615,84.21052632,3,14394
452,0,100,18.75,75,86.15384615,84.21052632,3,8739
453,0,100,18.75,75,86.15384615,84.21052632,3,7711
454,0,100,18.75,75,86.15384615,84.21052632,3,8225
455,0,100,18.75,75,86.15384615,84.21052632,3,8225
456,0,100,18.75,75,86.15384615,84.21052632,3,7711
457,0,100,18.75,75,86.15384615,84.21052632,3,7197
458,0,100,18.75,75,86.15384615,84.21052632,3,8739
459,0,100,18.75,75,86.15384615,84.21052632,3,7197
460,0,100,18.75,75,86.15384615,84.21052632,3,7711
461,0,100,18.75,75,86.15384615,84.21052632,3,14394
462,0,100,18.75,75,86.15384615,84.21052632,3,7711
463,0,100,18.75,75,86.15384615,84.21052632,3,7197
464,0,100,18.75,75,86.15384615,84.21052632,3,7196
465,0,100,18.75,75,86.15384615,84.21052632,3,7711
466,0,100,18.75,75,86.15384615,84.21052632,3,7711
467,0,100,18.75,75,86.15384615,84.21052632,3,7711
468,0,100,18.75,75,86.15384615,84.21052632,3,11823
469,0,100,18.75,75,86.15384615,84.21052632,3,8739
470,0,100,18.75,75,86.15384615,84.21052632,3,10795
471,0,100,18.75,75,86.15384615,84.21052632,3,8225
472,0,100,18.75,75,86.15384615,84.21052632,3,8739
473,0,100,18.75,75,86.15384615,84.21052632,3,9253
474,0,100,18.75,75,86.15384615,84.21052632,3,7711
475,0,100,18.75,75,86.15384615,84.21052632,3,8225
476,0,100,18.75,75,86.15384615,84.21052632,3,9253
477,0,100,18.75,75,86.15384615,84.21052632,3,8225
478,0,100,18.75,75,86.15384615,84.21052632,3,7197
479,0,100,18.75,75,86.15384615,84.21052632,3,6683
480,0,100,18.75,75,86.15384615,84.21052632,3,7710
481,0,100,18.75,75,86.15384615,84.21052632,3,7197
482,0,100,18.75,75,86.15384615,84.21052632,3,10281
483,0,100,18.75,75,86.15384615,84.21052632,3,8739
484,0,100,18.75,75,86.15384615,84.21052632,3,7711
485,0,100,18.75,75,86.15384615,84.21052632,3,8225
486,0,100,18.75,75,86.15384615,84.21052632,3,7197
487,0,100,18.75,75,86.15384615,84.21052632,3,7711
488,0,100,18.75,75,86.15384615,84.21052632,3,8225
489,0,100,18.75,75,86.15384615,84.21052632,3,6683
490,0,100,18.75,75,86.15384615,84.21052632,3,8225
491,0,100,18.75,75,86.15384615,84.21052632,3,7196
492,0,100,18.75,75,86.15384615,84.21052632,3,7197
493,0,100,18.75,75,86.15384615,84.21052632,3,7711
494,0,100,18.75,75,86.15384615,84.21052632,3,8224
495,0,100,18.75,75,86.15384615,84.21052632,3,6683
496,0,100,18.75,75,86.15384615,84.21052632,3,7711
497,0,100,18.75,75,86.15384615,84.21052632,3,9767
498,0,100,18.75,75,86.15384615,84.21052632,3,9767
499,0,100,18.75,75,86.15384615,84.21052632,3,8739
500,0,100,18.75,75,86.15384615,84.21052632,3,8225
501,0,100,18.75,75,86.15384615,84.21052632,3,7711
502,0,100,18.75,75,86.15384615,84.21052632,3,7711
503,0,100,18.75,75,86.15384615,84.21052632,3,9767
504,0,100,18.75,75,86.15384615,84.21052632,3,8225
505,0,100,18.75,75,86.15384615,84.21052632,3,8739
506,0,100,18.75,75,86.15384615,84.21052632,3,7711
507,0,100,18.75,75,86.15384615,84.21052632,3,7197
508,0,100,18.75,75,86.15384615,84.21052632,3,7196
509,0,100,18.75,75,86.15384615,84.21052632,3,21076
510,0,100,18.75,75,86.15384615,84.21052632,3,7711
511,0,100,18.75,75,86.15384615,84.21052632,3,6682
512,0,100,18.75,75,86.15384615,84.21052632,3,11309
513,0,100,18.75,75,86.15384615,84.21052632,3,13365
514,0,100,18.75,75,86.15384615,84.21052632,3,11824
515,0,100,18.75,75,86.15384615,84.21052632,3,11824
516,0,100,18.75,75,86.15384615,84.21052632,3,12851
517,0,100,18.75,75,86.15384615,84.21052632,3,12851
518,0,100,18.75,75,86.15384615,84.21052632,3,10281
519,0,100,18.75,75,86.15384615,84.21052632,3,8738
520,0,100,18.75,75,86.15384615,84.21052632,3,7710
521,0,100,18.75,75,86.15384615,84.21052632,3,7196
522,0,100,18.75,75,86.15384615,84.21052632,3,7196
523,0,100,18.75,75,86.15384615,84.21052632,3,8225
524,0,100,18.75,75,86.15384615,84.21052632,3,7711
525,0,100,18.75,75,86.15384615,84.21052632,3,17992
526,0,100,18.75,75,86.15384615,84.21052632,3,7197
527,0,100,18.75,75,86.15384615,84.21052632,3,7710
528,0,100,18.75,75,86.15384615,84.21052632,3,7711
529,0,100,18.75,75,86.15384615,84.21052632,3,11309
530,0,100,18.75,75,86.15384615,84.21052632,3,8225
531,0,100,18.75,75,86.15384615,84.21052632,3,7711
532,0,100,18.75,75,86.15384615,84.21052632,3,8225
533,0,100,18.75,75,86.15384615,84.21052632,3,9767
534,0,100,18.75,75,86.15384615,84.21052632,3,8225
535,0,100,18.75,75,86.15384615,84.21052632,3,7711
536,0,100,18.75,75,86.15384615,84.21052632,3,6683
537,0,100,18.75,75,86.15384615,84.21052632,3,7196
538,0,100,18.75,75,86.15384615,84.21052632,3,7197
539,0,100,18.75,75,86.15384615,84.21052632,3,10795
540,0,100,18.75,75,86.15384615,84.21052632,3,12852
541,0,100,18.75,75,86.15384615,84.21052632,3,8739
542,0,100,18.75,75,86.15384615,84.21052632,3,7710
543,0,100,18.75,75,86.15384615,84.21052632,3,7196
544,0,100,18.75,75,86.15384615,84.21052632,3,7711
545,0,100,18.75,75,86.15384615,84.21052632,3,7711
546,0,100,18.75,75,86.15384615,84.21052632,3,8225
547,0,100,18.75,75,86.15384615,84.21052632,3,8225
548,0,100,18.75,75,86.15384615,84.21052632,3,7711
549,0,100,18.75,75,86.15384615,84.21052632,3,7197
550,0,100,18.75,75,86.15384615,84.21052632,3,7196
551,0,100,18.75,75,86.15384615,84.21052632,3,7711
552,0,100,18.75,75,86.15384615,84.21052632,3,7710
553,0,100,18.75,75,86.15384615,84.21052632,3,7197
554,0,100,18.75,75,86.15384615,84.21052632,3,7196
555,0,100,18.75,75,86.15384615,84.21052632,3,11309
556,0,100,18.75,75,86.15384615,84.21052632,3,7711
557,0,100,18.75,75,86.15384615,84.21052632,3,8739
558,0,100,18.75,75,86.15384615,84.21052632,3,11823
559,0,100,18.75,75,86.15384615,84.21052632,3,9253
560,0,100,18.75,75,86.15384615,84.21052632,3,8739
561,0,100,18.75,75,86.15384615,84.21052632,3,8739
562,0,100,18.75,75,86.15384615,84.21052632,3,8225
563,0,100,18.75,75,86.15384615,84.21052632,3,7711
564,0,100,18.75,75,86.15384615,84.21052632,3,8225
565,0,100,18.75,75,86.15384615,84.21052632,3,7710
566,0,100,18.75,75,86.15384615,84.21052632,3,8225
567,0,100,18.75,75,86.15384615,84.21052632,3,8225
568,0,100,18.75,75,86.15384615,84.21052632,3,8225
569,0,100,18.75,75,86.15384615,84.21052632,3,12337
570,0,100,18.75,75,86.15384615,84.21052632,3,7197
571,0,100,18.75,75,86.15384615,84.21052632,3,7711
572,0,100,18.75,75,86.15384615,84.21052632,3,8225
573,0,100,18.75,75,86.15384615,84.21052632,3,7711
574,0,100,18.75,75,86.15384615,84.21052632,3,8225
575,0,100,18.75,75,86.15384615,84.21052632,3,7711
576,0,100,18.75,75,86.15384615,84.21052632,3,6683
577,0,100,18.75,75,86.15384615,84.21052632,3,7711
578,0,100,18.75,75,86.15384615,84.21052632,3,7197
579,0,100,18.75,75,86.15384615,84.21052632,3,7197
580,0,100,18.75,75,86.15384615,84.21052632,3,7197
581,0,100,18.75,75,86.15384615,84.21052632,3,7196
582,0,100,18.75,75,86.15384615,84.21052632,3,7197
583,0,100,18.75,75,86.15384615,84.21052632,3,7711
584,0,100,18.75,75,86.15384615,84.21052632,3,7197
585,0,100,18.75,75,86.15384615,84.21052632,3,7197
586,0,100,18.75,75,86.15384615,84.21052632,3,7197
587,0,100,18.75,75,86.15384615,84.21052632,3,8225
588,0,100,18.75,75,86.15384615,84.21052632,3,11309
589,0,100,18.75,75,86.15384615,84.21052632,3,11823
590,0,100,18.75,75,86.15384615,84.21052632,3,8225
591,0,100,18.75,75,86.15384615,84.21052632,3,7711
592,0,100,18.75,75,86.15384615,84.21052632,3,7711
593,0,100,18.75,75,86.15384615,84.21052632,3,7197
594,0,100,18.75,75,86.15384615,84.21052632,3,7197
595,0,100,18.75,75,86.15384615,84.21052632,3,7711
596,0,100,18.75,75,86.15384615,84.21052632,3,7711
597,0,100,18.75,75,86.15384615,84.21052632,3,7711
598,0,100,18.75,75,86.15384615,84.21052632,3,11823
599,0,100,18.75,75,86.15384615,84.21052632,3,7197
600,0,100,18.75,75,86.15384615,84.21052632,3,6683
601,0,100,18.75,75,86.15384615,84.21052632,3,9767
602,0,100,18.75,75,86.15384615,84.21052632,3,6683
603,0,100,18.75,75,86.15384615,84.21052632,3,6169
604,0,100,18.75,75,86.15384615,84.21052632,3,6683
605,0,100,18.75,75,86.15384615,84.21052632,3,7196
606,0,100,18.75,75,86.15384615,84.21052632,3,7196
607,0,100,18.75,75,86.15384615,84.21052632,3,7197
608,0,100,18.75,75,86.15384615,84.21052632,3,7196
609,0,100,18.75,75,86.15384615,84.21052632,3,6682
610,0,100,18.75,75,86.15384615,84.21052632,3,6683
611,0,100,18.75,75,86.15384615,84.21052632,3,6683
612,0,100,18.75,75,86.15384615,84.21052632,3,7197
613,0,100,18.75,75,86.15384615,84.21052632,3,6683
614,0,100,18.75,75,86.15384615,84.21052632,3,8738
615,0,100,18.75,75,86.15384615,84.21052632,3,8739
616,0,100,18.75,75,86.15384615,84.21052632,3,7197
617,0,100,18.75,75,86.15384615,84.21052632,3,7197
618,0,100,18.75,75,86.15384615,84.21052632,3,6682
619,0,100,18.75,75,86.15384615,84.21052632,3,6683
620,0,100,18.75,75,86.15384615,84.21052632,3,7196
621,0,100,18.75,75,86.15384615,84.21052632,3,10281
622,0,100,18.75,75,86.15384615,84.21052632,3,13880
623,0,100,18.75,75,86.15384615,84.21052632,3,6682
624,0,100,18.75,75,86.15384615,84.21052632,3,6169
625,0,100,18.75,75,86.15384615,84.21052632,3,7197
626,0,100,18.75,75,86.15384615,84.21052632,3,6683
627,0,100,18.75,75,86.15384615,84.21052632,3,7196
628,0,100,18.75,75,86.15384615,84.21052632,3,7197
629,0,100,18.75,75,86.15384615,84.21052632,3,7197
630,0,100,18.75,75,86.15384615,84.21052632,3,7197
631,0,100,18.75,75,86.15384615,84.21052632,3,21077
632,0,100,18.75,75,86.15384615,84.21052632,3,7711
633,0,100,18.75,75,86.15384615,84.21052632,3,7711
634,0,100,18.75,75,86.15384615,84.21052632,3,7711
635,0,100,18.75,75,86.15384615,84.21052632,3,7196
636,0,100,18.75,75,86.15384615,84.21052632,3,7197
637,0,100,18.75,75,86.15384615,84.21052632,3,7197
638,0,100,18.75,75,86.15384615,84.21052632,3,7197
639,0,100,18.75,75,86.15384615,84.21052632,3,7196
640,0,100,18.75,75,86.15384615,84.21052632,3,11310
641,0,100,18.75,75,86.15384615,84.21052632,3,11823
642,0,100,18.75,75,86.15384615,84.21052632,3,11824
643,0,100,18.75,75,86.15384615,84.21052632,3,15936
644,0,100,18.75,75,86.15384615,84.21052632,3,12337
645,0,100,18.75,75,86.15384615,84.21052632,3,11823
646,0,100,18.75,75,86.15384615,84.21052632,3,9254
647,0,100,18.75,75,86.15384615,84.21052632,3,9767
648,0,100,18.75,75,86.15384615,84.21052632,3,9767
649,0,100,18.75,75,86.15384615,84.21052632,3,15936
650,0,100,18.75,75,86.15384615,84.21052632,3,12337
651,0,100,18.75,75,86.15384615,84.21052632,3,7711
652,0,100,18.75,75,86.15384615,84.21052632,3,6683
653,0,100,18.75,75,86.15384615,84.21052632,3,7196
654,0,100,18.75,75,86.15384615,84.21052632,3,6683
655,0,100,18.75,75,86.15384615,84.21052632,3,7197
656,0,100,18.75,75,86.15384615,84.21052632,3,6683
657,0,100,18.75,75,86.15384615,84.21052632,3,6683
658,0,100,18.75,75,86.15384615,84.21052632,3,6168
659,0,100,18.75,75,86.15384615,84.21052632,3,6683
660,0,100,18.75,75,86.15384615,84.21052632,3,6683
661,0,100,18.75,75,86.15384615,84.21052632,3,6683
662,0,100,18.75,75,86.15384615,84.21052632,3,7197
663,0,100,18.75,75,86.15384615,84.21052632,3,6682
664,0,100,18.75,75,86.15384615,84.21052632,3,6683
665,0,100,18.75,75,86.15384615,84.21052632,3,6683
666,0,100,18.75,75,86.15384615,84.21052632,3,6683
667,0,100,18.75,75,86.15384615,84.21052632,3,6683
668,0,100,18.75,75,86.15384615,84.21052632,3,6169
669,0,100,18.75,75,86.15384615,84.21052632,3,6683
670,0,100,18.75,75,86.15384615,84.21052632,3,6682
671,0,100,18.75,75,86.15384615,84.21052632,3,6683
672,0,100,18.75,75,86.15384615,84.21052632,3,6168
673,0,100,18.75,75,86.15384615,84.21052632,3,6682
674,0,100,18.75,75,86.15384615,84.21052632,3,6683
675,0,100,18.75,75,86.15384615,84.21052632,3,6683
676,0,100,18.75,75,86.15384615,84.21052632,3,6683
677,0,100,18.75,75,86.15384615,84.21052632,3,7197
678,0,100,18.75,75,86.15384615,84.21052632,3,6169
679,0,100,18.75,75,86.15384615,84.21052632,3,6683
680,0,100,18.75,75,86.15384615,84.21052632,3,6683
681,0,100,18.75,75,86.15384615,84.21052632,3,7197
682,0,100,18.75,75,86.15384615,84.21052632,3,9253
683,0,100,18.75,75,86.15384615,84.21052632,3,34442
684,0,100,18.75,75,86.15384615,84.21052632,3,11309
685,0,100,18.75,75,86.15384615,84.21052632,3,9253
686,0,100,18.75,75,86.15384615,84.21052632,3,8224
687,0,100,18.75,75,86.15384615,84.21052632,3,7197
688,0,100,18.75,75,86.15384615,84.21052632,3,6682
689,0,100,18.75,75,86.15384615,84.21052632,3,7197
690,0,100,18.75,75,86.15384615,84.21052632,3,7196
691,0,100,18.75,75,86.15384615,84.21052632,3,9253
692,0,100,18.75,75,86.15384615,84.21052632,3,8224
693,0,100,18.75,75,86.15384615,84.21052632,3,7196
694,0,100,18.75,75,86.15384615,84.21052632,3,7197
695,0,100,18.75,75,86.15384615,84.21052632,3,6683
696,0,100,18.75,75,86.15384615,84.21052632,3,6683
697,0,100,18.75,75,86.15384615,84.21052632,3,6682
698,0,100,18.75,75,86.15384615,84.21052632,3,6683
699,0,100,18.75,75,86.15384615,84.21052632,3,6168
700,0,100,18.75,75,86.15384615,84.21052632,3,6682
701,0,100,18.75,75,86.15384615,84.21052632,3,7196
702,0,100,18.75,75,86.15384615,84.21052632,3,6683
703,0,100,18.75,75,86.15384615,84.21052632,3,6169
704,0,100,18.75,75,86.15384615,84.21052632,3,7197
705,0,100,18.75,75,86.15384615,84.21052632,3,6682
706,0,100,18.75,75,86.15384615,84.21052632,3,7197
707,0,100,18.75,75,86.15384615,84.21052632,3,6682
708,0,100,18.75,75,86.15384615,84.21052632,3,6168
709,0,100,18.75,75,86.15384615,84.21052632,3,6683
710,0,100,18.75,75,86.15384615,84.21052632,3,6682
711,0,100,18.75,75,86.15384615,84.21052632,3,7196
712,0,100,18.75,75,86.15384615,84.21052632,3,7197
713,0,100,18.75,75,86.15384615,84.21052632,3,7196
714,0,100,18.75,75,86.15384615,84.21052632,3,6682
715,0,100,18.75,75,86.15384615,84.21052632,3,8225
716,0,100,18.75,75,86.15384615,84.21052632,3,9253
717,0,100,18.75,75,86.15384615,84.21052632,3,8225
718,0,100,18.75,75,86.15384615,84.21052632,3,6683
719,0,100,18.75,75,86.15384615,84.21052632,3,7197
720,0,100,18.75,75,86.15384615,84.21052632,3,6683
721,0,100,18.75,75,86.15384615,84.21052632,3,6683
722,0,100,18.75,75,86.15384615,84.21052632,3,6683
723,0,100,18.75,75,86.15384615,84.21052632,3,7711
724,0,100,18.75,75,86.15384615,84.21052632,3,6682
725,0,100,18.75,75,86.15384615,84.21052632,3,7197
726,0,100,18.75,75,86.15384615,84.21052632,3,10281
727,0,100,18.75,75,86.15384615,84.21052632,3,6168
728,0,100,18.75,75,86.15384615,84.21052632,3,7197
729,0,100,18.75,75,86.15384615,84.21052632,3,6683
730,0,100,18.75,75,86.15384615,84.21052632,3,6682
731,0,100,18.75,75,86.15384615,84.21052632,3,6169
732,0,100,18.75,75,86.15384615,84.21052632,3,7197
733,0,100,18.75,75,86.15384615,84.21052632,3,6683
734,0,100,18.75,75,86.15384615,84.21052632,3,7197
735,0,100,18.75,75,86.15384615,84.21052632,3,7197
736,0,100,18.75,75,86.15384615,84.21052632,3,6683
737,0,100,18.75,75,86.15384615,84.21052632,3,6682
738,0,100,18.75,75,86.15384615,84.21052632,3,7197
739,0,100,18.75,75,86.15384615,84.21052632,3,7196
740,0,100,18.75,75,86.15384615,84.21052632,3,7711
741,0,100,18.75,75,86.15384615,84.21052632,3,7197
742,0,100,18.75,75,86.15384615,84.21052632,3,7197
743,0,100,18.75,75,86.15384615,84.21052632,3,7197
744,0,100,18.75,75,86.15384615,84.21052632,3,7197
745,0,100,18.75,75,86.15384615,84.21052632,3,7711
746,0,100,18.75,75,86.15384615,84.21052632,3,7711
747,0,100,18.75,75,86.15384615,84.21052632,3,7197
748,0,100,18.75,75,86.15384615,84.21052632,3,7197
749,0,100,18.75,75,86.15384615,84.21052632,3,7197
750,0,100,18.75,75,86.15384615,84.21052632,3,6683
751,0,100,18.75,75,86.15384615,84.21052632,3,7711
752,0,100,18.75,75,86.15384615,84.21052632,3,7197
753,0,100,18.75,75,86.15384615,84.21052632,3,7711
754,0,100,18.75,75,86.15384615,84.21052632,3,7711
755,0,100,18.75,75,86.15384615,84.21052632,3,7711
756,0,100,18.75,75,86.15384615,84.21052632,3,7711
757,0,100,18.75,75,86.15384615,84.21052632,3,7711
758,0,100,18.75,75,86.15384615,84.21052632,3,7197
759,0,100,18.75,75,86.15384615,84.21052632,3,7711
760,0,100,18.75,75,86.15384615,84.21052632,3,6683
761,0,100,18.75,75,86.15384615,84.21052632,3,6683
762,0,100,18.75,75,86.15384615,84.21052632,3,6682
763,0,100,18.75,75,86.15384615,84.21052632,3,7711
764,0,100,18.75,75,86.15384615,84.21052632,3,7197
765,0,100,18.75,75,86.15384615,84.21052632,3,7197
766,0,100,18.75,75,86.15384615,84.21052632,3,7197
767,0,100,18.75,75,86.15384615,84.21052632,3,7197
768,0,100,18.75,75,86.15384615,84.21052632,3,10282
769,0,100,18.75,75,86.15384615,84.21052632,3,14907
770,0,100,18.75,75,86.15384615,84.21052632,3,10281
771,0,100,18.75,75,86.15384615,84.21052632,3,9767
772,0,100,18.75,75,86.15384615,84.21052632,3,15421
773,0,100,18.75,75,86.15384615,84.21052632,3,12851
774,0,100,18.75,75,86.15384615,84.21052632,3,9253
775,0,100,18.75,75,86.15384615,84.21052632,3,9253
776,0,100,18.75,75,86.15384615,84.21052632,3,7711
777,0,100,18.75,75,86.15384615,84.21052632,3,7197
778,0,100,18.75,75,86.15384615,84.21052632,3,7196
779,0,100,18.75,75,86.15384615,84.21052632,3,6169
780,0,100,18.75,75,86.15384615,84.21052632,3,6169
781,0,100,18.75,75,86.15384615,84.21052632,3,12337
782,0,100,18.75,75,86.15384615,84.21052632,3,8225
783,0,100,18.75,75,86.15384615,84.21052632,3,7197
784,0,100,18.75,75,86.15384615,84.21052632,3,6683
785,0,100,18.75,75,86.15384615,84.21052632,3,7197
786,0,100,18.75,75,86.15384615,84.21052632,3,6683
787,0,100,18.75,75,86.15384615,84.21052632,3,6682
788,0,100,18.75,75,86.15384615,84.21052632,3,6169
789,0,100,18.75,75,86.15384615,84.21052632,3,8225
790,0,100,18.75,75,86.15384615,84.21052632,3,10795
791,0,100,18.75,75,86.15384615,84.21052632,3,7711
792,0,100,18.75,75,86.15384615,84.21052632,3,7711
793,0,100,18.75,75,86.15384615,84.21052632,3,10795
794,0,100,18.75,75,86.15384615,84.21052632,3,7197
795,0,100,18.75,75,86.15384615,84.21052632,3,7197
796,0,100,18.75,75,86.15384615,84.21052632,3,6682
797,0,100,18.75,75,86.15384615,84.21052632,3,7197
798,0,100,18.75,75,86.15384615,84.21052632,3,7711
799,0,100,18.75,75,86.15384615,84.21052632,3,9253
800,0,100,18.75,75,86.15384615,84.21052632,3,7711
801,0,100,18.75,75,86.15384615,84.21052632,3,6683
802,0,100,18.75,75,86.15384615,84.21052632,3,7711
803,0,100,18.75,75,86.15384615,84.21052632,3,8225
804,0,100,18.75,75,86.15384615,84.21052632,3,21590
805,0,100,18.75,75,86.15384615,84.21052632,3,7197
806,0,100,18.75,75,86.15384615,84.21052632,3,7197
807,0,100,18.75,75,86.15384615,84.21052632,3,7711
808,0,100,18.75,75,86.15384615,84.21052632,3,7711
809,0,100,18.75,75,86.15384615,84.21052632,3,6682
810,0,100,18.75,75,86.15384615,84.21052632,3,7197
811,0,100,18.75,75,86.15384615,84.21052632,3,9767
812,0,100,18.75,75,86.15384615,84.21052632,3,9253
813,0,100,18.75,75,86.15384615,84.21052632,3,7196
814,0,100,18.75,75,86.15384615,84.21052632,3,8739
815,0,100,18.75,75,86.15384615,84.21052632,3,8739
816,0,100,18.75,75,86.15384615,84.21052632,3,7711
817,0,100,18.75,75,86.15384615,84.21052632,3,7711
818,0,100,18.75,75,86.15384615,84.21052632,3,13365
819,0,100,18.75,75,86.15384615,84.21052632,3,8225
820,0,100,18.75,75,86.15384615,84.21052632,3,21076
821,0,100,18.75,75,86.15384615,84.21052632,3,13365
822,0,100,18.75,75,86.15384615,84.21052632,3,7711
823,0,100,18.75,75,86.15384615,84.21052632,3,7711
824,0,100,18.75,75,86.15384615,84.21052632,3,7711
825,0,100,18.75,75,86.15384615,84.21052632,3,7711
826,0,100,18.75,75,86.15384615,84.21052632,3,7197
827,0,100,18.75,75,86.15384615,84.21052632,3,7711
828,0,100,18.75,75,86.15384615,84.21052632,3,8225
829,0,100,18.75,75,86.15384615,84.21052632,3,6683
830,0,100,18.75,75,86.15384615,84.21052632,3,6169
831,0,100,18.75,75,86.15384615,84.21052632,3,6682
832,0,100,18.75,75,86.15384615,84.21052632,3,6169
833,0,100,18.75,75,86.15384615,84.21052632,3,6169
834,0,100,18.75,75,86.15384615,84.21052632,3,6683
835,0,100,18.75,75,86.15384615,84.21052632,3,5654
836,0,100,18.75,75,86.15384615,84.21052632,3,7196
837,0,100,18.75,75,86.15384615,84.21052632,3,6683
838,0,100,18.75,75,86.15384615,84.21052632,3,6683
839,0,100,18.75,75,86.15384615,84.21052632,3,6683
840,0,100,18.75,75,86.15384615,84.21052632,3,6683
841,0,100,18.75,75,86.15384615,84.21052632,3,6169
842,0,100,18.75,75,86.15384615,84.21052632,3,6683
843,0,100,18.75,75,86.15384615,84.21052632,3,6168
844,0,100,18.75,75,86.15384615,84.21052632,3,6169
845,0,100,18.75,75,86.15384615,84.21052632,3,6169
846,0,100,18.75,75,86.15384615,84.21052632,3,6168
847,0,100,18.75,75,86.15384615,84.21052632,3,6168
848,0,100,18.75,75,86.15384615,84.21052632,3,6683
849,0,100,18.75,75,86.15384615,84.21052632,3,6168
850,0,100,18.75,75,86.15384615,84.21052632,3,6169
851,0,100,18.75,75,86.15384615,84.21052632,3,6683
852,0,100,18.75,75,86.15384615,84.21052632,3,6169
853,0,100,18.75,75,86.15384615,84.21052632,3,6683
854,0,100,18.75,75,86.15384615,84.21052632,3,17478
855,0,100,18.75,75,86.15384615,84.21052632,3,18506
856,0,100,18.75,75,86.15384615,84.21052632,3,23132
857,0,100,18.75,75,86.15384615,84.21052632,3,17478
858,0,100,18.75,75,86.15384615,84.21052632,3,6169
859,0,100,18.75,75,86.15384615,84.21052632,3,6169
860,0,100,18.75,75,86.15384615,84.21052632,3,6683
861,0,100,18.75,75,86.15384615,84.21052632,3,6169
862,0,100,18.75,75,86.15384615,84.21052632,3,6682
863,0,100,18.75,75,86.15384615,84.21052632,3,6683
864,0,100,18.75,75,86.15384615,84.21052632,3,6683
865,0,100,18.75,75,86.15384615,84.21052632,3,6683
866,0,100,18.75,75,86.15384615,84.21052632,3,7196
867,0,100,18.75,75,86.15384615,84.21052632,3,6683
868,0,100,18.75,75,86.15384615,84.21052632,3,6683
869,0,100,18.75,75,86.15384615,84.21052632,3,6682
870,0,100,18.75,75,86.15384615,84.21052632,3,16964
871,0,100,18.75,75,86.15384615,84.21052632,3,7197
872,0,100,18.75,75,86.15384615,84.21052632,3,7711
873,0,100,18.75,75,86.15384615,84.21052632,3,7196
874,0,100,18.75,75,86.15384615,84.21052632,3,7711
875,0,100,18.75,75,86.15384615,84.21052632,3,8225
876,0,100,18.75,75,86.15384615,84.21052632,3,10281
877,0,100,18.75,75,86.15384615,84.21052632,3,7197
878,0,100,18.75,75,86.15384615,84.21052632,3,7196
879,0,100,18.75,75,86.15384615,84.21052632,3,9767
880,0,100,18.75,75,86.15384615,84.21052632,3,11310
881,0,100,18.75,75,86.15384615,84.21052632,3,8739
882,0,100,18.75,75,86.15384615,84.21052632,3,7711
883,0,100,18.75,75,86.15384615,84.21052632,3,35984
884,0,100,18.75,75,86.15384615,84.21052632,3,7711
885,0,100,18.75,75,86.15384615,84.21052632,3,7197
886,0,100,18.75,75,86.15384615,84.21052632,3,7197
887,0,100,18.75,75,86.15384615,84.21052632,3,8225
888,0,100,18.75,75,86.15384615,84.21052632,3,7197
889,0,100,18.75,75,86.15384615,84.21052632,3,6683
890,0,100,18.75,75,86.15384615,84.21052632,3,6169
891,0,100,18.75,75,86.15384615,84.21052632,3,6683
892,0,100,18.75,75,86.15384615,84.21052632,3,8739
893,0,100,18.75,75,86.15384615,84.21052632,3,8739
894,0,100,18.75,75,86.15384615,84.21052632,3,6168
895,0,100,18.75,75,86.15384615,84.21052632,3,6682
896,0,100,18.75,75,86.15384615,84.21052632,3,9253
897,0,100,18.75,75,86.15384615,84.21052632,3,12851
898,0,100,18.75,75,86.15384615,84.21052632,3,6683
899,0,100,18.75,75,86.15384615,84.21052632,3,6683
900,0,100,18.75,75,86.15384615,84.21052632,3,6168
901,0,100,18.75,75,86.15384615,84.21052632,3,6169
902,0,100,18.75,75,86.15384615,84.21052632,3,6683
903,0,100,18.75,75,86.15384615,84.21052632,3,7197
904,0,100,18.75,75,86.15384615,84.21052632,3,6169
905,0,100,18.75,75,86.15384615,84.21052632,3,6683
906,0,100,18.75,75,86.15384615,84.21052632,3,6683
907,0,100,18.75,75,86.15384615,84.21052632,3,6682
908,0,100,18.75,75,86.15384615,84.21052632,3,6168
909,0,100,18.75,75,86.15384615,84.21052632,3,6169
910,0,100,18.75,75,86.15384615,84.21052632,3,6169
911,0,100,18.75,75,86.15384615,84.21052632,3,6169
912,0,100,18.75,75,86.15384615,84.21052632,3,6169
913,0,100,18.75,75,86.15384615,84.21052632,3,6683
914,0,100,18.75,75,86.15384615,84.21052632,3,6683
915,0,100,18.75,75,86.15384615,84.21052632,3,6169
916,0,100,18.75,75,86.15384615,84.21052632,3,6169
917,0,100,18.75,75,86.15384615,84.21052632,3,5655
918,0,100,18.75,75,86.15384615,84.21052632,3,6169
919,0,100,18.75,75,86.15384615,84.21052632,3,6683
920,0,100,18.75,75,86.15384615,84.21052632,3,6169
921,0,100,18.75,75,86.15384615,84.21052632,3,6682
922,0,100,18.75,75,86.15384615,84.21052632,3,7710
923,0,100,18.75,75,86.15384615,84.21052632,3,5654
924,0,100,18.75,75,86.15384615,84.21052632,3,6168
925,0,100,18.75,75,86.15384615,84.21052632,3,6169
926,0,100,18.75,75,86.15384615,84.21052632,3,6169
927,0,100,18.75,75,86.15384615,84.21052632,3,6683
928,0,100,18.75,75,86.15384615,84.21052632,3,6169
929,0,100,18.75,75,86.15384615,84.21052632,3,6168
930,0,100,18.75,75,86.15384615,84.21052632,3,15936
931,0,100,18.75,75,86.15384615,84.21052632,3,6169
932,0,100,18.75,75,86.15384615,84.21052632,3,6682
933,0,100,18.75,75,86.15384615,84.21052632,3,6169
934,0,100,18.75,75,86.15384615,84.21052632,3,8225
935,0,100,18.75,75,86.15384615,84.21052632,3,6683
936,0,100,18.75,75,86.15384615,84.21052632,3,5655
937,0,100,18.75,75,86.15384615,84.21052632,3,6169
938,0,100,18.75,75,86.15384615,84.21052632,3,7197
939,0,100,18.75,75,86.15384615,84.21052632,3,8739
940,0,100,18.75,75,86.15384615,84.21052632,3,6683
941,0,100,18.75,75,86.15384615,84.21052632,3,6169
942,0,100,18.75,75,86.15384615,84.21052632,3,7711
943,0,100,18.75,75,86.15384615,84.21052632,3,6169
944,0,100,18.75,75,86.15384615,84.21052632,3,6169
945,0,100,18.75,75,86.15384615,84.21052632,3,17478
946,0,100,18.75,75,86.15384615,84.21052632,3,6169
947,0,100,18.75,75,86.15384615,84.21052632,3,6169
948,0,100,18.75,75,86.15384615,84.21052632,3,6168
949,0,100,18.75,75,86.15384615,84.21052632,3,5655
950,0,100,18.75,75,86.15384615,84.21052632,3,5141
951,0,100,18.75,75,86.15384615,84.21052632,3,5655
952,0,100,18.75,75,86.15384615,84.21052632,3,5655
953,0,100,18.75,75,86.15384615,84.21052632,3,5655
954,0,100,18.75,75,86.15384615,84.21052632,3,5654
955,0,100,18.75,75,86.15384615,84.21052632,3,8224
956,0,100,18.75,75,86.15384615,84.21052632,3,5140
957,0,100,18.75,75,86.15384615,84.21052632,3,6168
958,0,100,18.75,75,86.15384615,84.21052632,3,5654
959,0,100,18.75,75,86.15384615,84.21052632,3,6169
960,0,100,18.75,75,86.15384615,84.21052632,3,6169
961,0,100,18.75,75,86.15384615,84.21052632,3,5654
962,0,100,18.75,75,86.15384615,84.21052632,3,6682
963,0,100,18.75,75,86.15384615,84.21052632,3,13879
964,0,100,18.75,75,86.15384615,84.21052632,3,6169
965,0,100,18.75,75,86.15384615,84.21052632,3,17478
966,0,100,18.75,75,86.15384615,84.21052632,3,6169
967,0,100,18.75,75,86.15384615,84.21052632,3,6169
968,0,100,18.75,75,86.15384615,84.21052632,3,6168
969,0,100,18.75,75,86.15384615,84.21052632,3,5655
970,0,100,18.75,75,86.15384615,84.21052632,3,5140
971,0,100,18.75,75,86.15384615,84.21052632,3,5655
972,0,100,18.75,75,86.15384615,84.21052632,3,5140
973,0,100,18.75,75,86.15384615,84.21052632,3,5654
974,0,100,18.75,75,86.15384615,84.21052632,3,5655
975,0,100,18.75,75,86.15384615,84.21052632,3,5654
976,0,100,18.75,75,86.15384615,84.21052632,3,6168
977,0,100,18.75,75,86.15384615,84.21052632,3,5141
978,0,100,18.75,75,86.15384615,84.21052632,3,7710
979,0,100,18.75,75,86.15384615,84.21052632,3,7197
980,0,100,18.75,75,86.15384615,84.21052632,3,5140
981,0,100,18.75,75,86.15384615,84.21052632,3,19020
982,0,100,18.75,75,86.15384615,84.21052632,3,8225
983,0,100,18.75,75,86.15384615,84.21052632,3,5141
984,0,100,18.75,75,86.15384615,84.21052632,3,5655
985,0,100,18.75,75,86.15384615,84.21052632,3,5654
986,0,100,18.75,75,86.15384615,84.21052632,3,5655
987,0,100,18.75,75,86.15384615,84.21052632,3,5655
988,0,100,18.75,75,86.15384615,84.21052632,3,5141
989,0,100,18.75,75,86.15384615,84.21052632,3,5654
990,0,100,18.75,75,86.15384615,84.21052632,3,5654
991,0,100,18.75,75,86.15384615,84.21052632,3,5654
992,0,100,18.75,75,86.15384615,84.21052632,3,5141
993,0,100,18.75,75,86.15384615,84.21052632,3,5654
994,0,100,18.75,75,86.15384615,84.21052632,3,5655
995,0,100,18.75,75,86.15384615,84.21052632,3,5141
996,0,100,18.75,75,86.15384615,84.21052632,3,5654
997,0,100,18.75,75,86.15384615,84.21052632,3,5655
998,0,100,18.75,75,86.15384615,84.21052632,3,6683
999,0,100,18.75,75,86.15384615,84.21052632,3,5655
1000,0,100,18.75,75,86.15384615,84.21052632,3,6169
