RunTimeNumber,Execution time,Number Of Tests,Decision Tree Coverage,Branches Coverage,Instructions Coverage,Lines Coverage
1.0, 5409412.0, 39.0, 100.0, 88.46153846153845, 100.0, 100.0
2.0, 100241.0, 34.0, 100.0, 92.3076923076923, 100.0, 100.0
3.0, 70939.0, 27.0, 100.0, 92.3076923076923, 100.0, 100.0
4.0, 100241.0, 35.0, 100.0, 96.15384615384616, 100.0, 100.0
5.0, 79679.0, 32.0, 100.0, 96.15384615384616, 100.0, 100.0
6.0, 152675.0, 66.0, 100.0, 96.15384615384616, 100.0, 100.0
7.0, 73510.0, 24.0, 100.0, 92.3076923076923, 100.0, 100.0
8.0, 93044.0, 47.0, 100.0, 96.15384615384616, 100.0, 100.0
9.0, 70426.0, 23.0, 100.0, 88.46153846153845, 100.0, 100.0
10.0, 61687.0, 23.0, 100.0, 88.46153846153845, 100.0, 100.0
11.0, 66827.0, 32.0, 100.0, 92.3076923076923, 100.0, 100.0
12.0, 89446.0, 49.0, 100.0, 88.46153846153845, 100.0, 100.0
13.0, 53976.0, 20.0, 100.0, 88.46153846153845, 100.0, 100.0
14.0, 129543.0, 43.0, 100.0, 88.46153846153845, 100.0, 100.0
15.0, 44209.0, 26.0, 100.0, 88.46153846153845, 100.0, 100.0
16.0, 53461.0, 52.0, 100.0, 96.15384615384616, 100.0, 100.0
17.0, 58089.0, 54.0, 100.0, 92.3076923076923, 100.0, 100.0
18.0, 107438.0, 28.0, 100.0, 88.46153846153845, 100.0, 100.0
19.0, 88418.0, 27.0, 100.0, 88.46153846153845, 100.0, 100.0
20.0, 31871.0, 28.0, 100.0, 88.46153846153845, 100.0, 100.0
21.0, 59117.0, 48.0, 100.0, 96.15384615384616, 100.0, 100.0
22.0, 31871.0, 23.0, 100.0, 88.46153846153845, 100.0, 100.0
23.0, 35984.0, 25.0, 100.0, 88.46153846153845, 100.0, 100.0
24.0, 68883.0, 47.0, 100.0, 92.3076923076923, 100.0, 100.0
25.0, 19534.0, 23.0, 100.0, 88.46153846153845, 100.0, 100.0
26.0, 40610.0, 58.0, 100.0, 84.61538461538461, 100.0, 100.0
27.0, 18506.0, 18.0, 100.0, 84.61538461538461, 100.0, 100.0
28.0, 65799.0, 35.0, 100.0, 92.3076923076923, 100.0, 100.0
29.0, 34956.0, 52.0, 100.0, 92.3076923076923, 100.0, 100.0
30.0, 17992.0, 21.0, 100.0, 92.3076923076923, 100.0, 100.0
31.0, 27759.0, 45.0, 100.0, 92.3076923076923, 100.0, 100.0
32.0, 22105.0, 26.0, 100.0, 92.3076923076923, 100.0, 100.0
33.0, 22105.0, 16.0, 100.0, 92.3076923076923, 100.0, 100.0
34.0, 3842570.0, 27.0, 100.0, 92.3076923076923, 100.0, 100.0
35.0, 21590.0, 14.0, 100.0, 84.61538461538461, 100.0, 100.0
36.0, 24675.0, 30.0, 100.0, 88.46153846153845, 100.0, 100.0
37.0, 38040.0, 58.0, 100.0, 92.3076923076923, 100.0, 100.0
38.0, 19534.0, 18.0, 100.0, 92.3076923076923, 100.0, 100.0
39.0, 14393.0, 16.0, 100.0, 92.3076923076923, 100.0, 100.0
40.0, 29302.0, 41.0, 100.0, 96.15384615384616, 100.0, 100.0
41.0, 36498.0, 35.0, 100.0, 88.46153846153845, 100.0, 100.0
42.0, 40610.0, 71.0, 100.0, 96.15384615384616, 100.0, 100.0
43.0, 29301.0, 30.0, 100.0, 92.3076923076923, 100.0, 100.0
44.0, 21590.0, 19.0, 100.0, 84.61538461538461, 100.0, 100.0
45.0, 15422.0, 18.0, 100.0, 88.46153846153845, 100.0, 100.0
46.0, 13880.0, 17.0, 100.0, 88.46153846153845, 100.0, 100.0
47.0, 14907.0, 17.0, 100.0, 88.46153846153845, 100.0, 100.0
48.0, 16450.0, 24.0, 100.0, 88.46153846153845, 100.0, 100.0
49.0, 16450.0, 23.0, 100.0, 88.46153846153845, 100.0, 100.0
50.0, 31872.0, 53.0, 100.0, 92.3076923076923, 100.0, 100.0
51.0, 12851.0, 15.0, 100.0, 92.3076923076923, 100.0, 100.0
52.0, 22104.0, 35.0, 100.0, 92.3076923076923, 100.0, 100.0
53.0, 83792.0, 58.0, 100.0, 92.3076923076923, 100.0, 100.0
54.0, 13880.0, 16.0, 100.0, 88.46153846153845, 100.0, 100.0
55.0, 33928.0, 31.0, 100.0, 92.3076923076923, 100.0, 100.0
56.0, 25189.0, 25.0, 100.0, 88.46153846153845, 100.0, 100.0
57.0, 50892.0, 48.0, 100.0, 96.15384615384616, 100.0, 100.0
58.0, 34442.0, 52.0, 100.0, 92.3076923076923, 100.0, 100.0
59.0, 52948.0, 53.0, 100.0, 88.46153846153845, 100.0, 100.0
60.0, 31872.0, 58.0, 100.0, 96.15384615384616, 100.0, 100.0
61.0, 25189.0, 35.0, 100.0, 96.15384615384616, 100.0, 100.0
62.0, 14394.0, 19.0, 100.0, 96.15384615384616, 100.0, 100.0
63.0, 40096.0, 67.0, 100.0, 88.46153846153845, 100.0, 100.0
64.0, 27759.0, 49.0, 100.0, 96.15384615384616, 100.0, 100.0
65.0, 24160.0, 25.0, 100.0, 92.3076923076923, 100.0, 100.0
66.0, 64257.0, 67.0, 100.0, 96.15384615384616, 100.0, 100.0
67.0, 22104.0, 29.0, 100.0, 88.46153846153845, 100.0, 100.0
68.0, 86361.0, 96.0, 100.0, 92.3076923076923, 100.0, 100.0
69.0, 25703.0, 24.0, 100.0, 88.46153846153845, 100.0, 100.0
70.0, 24674.0, 40.0, 100.0, 88.46153846153845, 100.0, 100.0
71.0, 21076.0, 31.0, 100.0, 96.15384615384616, 100.0, 100.0
72.0, 46265.0, 49.0, 100.0, 92.3076923076923, 100.0, 100.0
73.0, 12851.0, 13.0, 100.0, 88.46153846153845, 100.0, 100.0
74.0, 35470.0, 34.0, 100.0, 88.46153846153845, 100.0, 100.0
75.0, 34442.0, 34.0, 100.0, 88.46153846153845, 100.0, 100.0
76.0, 27759.0, 43.0, 100.0, 92.3076923076923, 100.0, 100.0
77.0, 36498.0, 66.0, 100.0, 96.15384615384616, 100.0, 100.0
78.0, 28273.0, 26.0, 100.0, 88.46153846153845, 100.0, 100.0
79.0, 31357.0, 23.0, 100.0, 92.3076923076923, 100.0, 100.0
80.0, 28787.0, 26.0, 100.0, 96.15384615384616, 100.0, 100.0
81.0, 29815.0, 19.0, 100.0, 92.3076923076923, 100.0, 100.0
82.0, 17478.0, 18.0, 100.0, 88.46153846153845, 100.0, 100.0
83.0, 29815.0, 45.0, 100.0, 88.46153846153845, 100.0, 100.0
84.0, 17477.0, 28.0, 100.0, 96.15384615384616, 100.0, 100.0
85.0, 22105.0, 30.0, 100.0, 92.3076923076923, 100.0, 100.0
86.0, 32385.0, 24.0, 100.0, 92.3076923076923, 100.0, 100.0
87.0, 33928.0, 30.0, 100.0, 92.3076923076923, 100.0, 100.0
88.0, 54490.0, 35.0, 100.0, 88.46153846153845, 100.0, 100.0
89.0, 41639.0, 41.0, 100.0, 92.3076923076923, 100.0, 100.0
90.0, 14907.0, 18.0, 100.0, 88.46153846153845, 100.0, 100.0
91.0, 39582.0, 75.0, 100.0, 96.15384615384616, 100.0, 100.0
92.0, 20048.0, 32.0, 100.0, 96.15384615384616, 100.0, 100.0
93.0, 33928.0, 59.0, 100.0, 92.3076923076923, 100.0, 100.0
94.0, 22619.0, 38.0, 100.0, 96.15384615384616, 100.0, 100.0
95.0, 21590.0, 16.0, 100.0, 88.46153846153845, 100.0, 100.0
96.0, 40610.0, 46.0, 100.0, 88.46153846153845, 100.0, 100.0
97.0, 43180.0, 43.0, 100.0, 92.3076923076923, 100.0, 100.0
98.0, 50377.0, 58.0, 100.0, 92.3076923076923, 100.0, 100.0
99.0, 38040.0, 37.0, 100.0, 92.3076923076923, 100.0, 100.0
100.0, 60145.0, 72.0, 100.0, 96.15384615384616, 100.0, 100.0
101.0, 41638.0, 35.0, 100.0, 92.3076923076923, 100.0, 100.0
102.0, 57060.0, 62.0, 100.0, 96.15384615384616, 100.0, 100.0
103.0, 44209.0, 40.0, 100.0, 92.3076923076923, 100.0, 100.0
104.0, 19020.0, 16.0, 100.0, 88.46153846153845, 100.0, 100.0
105.0, 20049.0, 28.0, 100.0, 92.3076923076923, 100.0, 100.0
106.0, 19535.0, 30.0, 100.0, 92.3076923076923, 100.0, 100.0
107.0, 15936.0, 17.0, 100.0, 88.46153846153845, 100.0, 100.0
108.0, 25189.0, 42.0, 100.0, 92.3076923076923, 100.0, 100.0
109.0, 47294.0, 78.0, 100.0, 96.15384615384616, 100.0, 100.0
110.0, 19534.0, 32.0, 100.0, 92.3076923076923, 100.0, 100.0
111.0, 15936.0, 23.0, 100.0, 88.46153846153845, 100.0, 100.0
112.0, 19534.0, 31.0, 100.0, 92.3076923076923, 100.0, 100.0
113.0, 18506.0, 31.0, 100.0, 92.3076923076923, 100.0, 100.0
114.0, 17478.0, 23.0, 100.0, 88.46153846153845, 100.0, 100.0
115.0, 15422.0, 18.0, 100.0, 92.3076923076923, 100.0, 100.0
116.0, 19534.0, 21.0, 100.0, 92.3076923076923, 100.0, 100.0
117.0, 23132.0, 35.0, 100.0, 88.46153846153845, 100.0, 100.0
118.0, 14393.0, 19.0, 100.0, 88.46153846153845, 100.0, 100.0
119.0, 13880.0, 11.0, 100.0, 88.46153846153845, 100.0, 100.0
120.0, 20048.0, 30.0, 100.0, 92.3076923076923, 100.0, 100.0
121.0, 35470.0, 33.0, 100.0, 92.3076923076923, 100.0, 100.0
122.0, 20562.0, 25.0, 100.0, 88.46153846153845, 100.0, 100.0
123.0, 19020.0, 32.0, 100.0, 88.46153846153845, 100.0, 100.0
124.0, 16450.0, 19.0, 100.0, 88.46153846153845, 100.0, 100.0
125.0, 18506.0, 18.0, 100.0, 88.46153846153845, 100.0, 100.0
126.0, 19020.0, 27.0, 100.0, 84.61538461538461, 100.0, 100.0
127.0, 16963.0, 24.0, 100.0, 92.3076923076923, 100.0, 100.0
128.0, 29815.0, 51.0, 100.0, 96.15384615384616, 100.0, 100.0
129.0, 13879.0, 14.0, 100.0, 88.46153846153845, 100.0, 100.0
130.0, 15936.0, 23.0, 100.0, 92.3076923076923, 100.0, 100.0
131.0, 11310.0, 14.0, 100.0, 88.46153846153845, 100.0, 100.0
132.0, 27245.0, 49.0, 100.0, 92.3076923076923, 100.0, 100.0
133.0, 17992.0, 25.0, 100.0, 92.3076923076923, 100.0, 100.0
134.0, 14907.0, 17.0, 100.0, 84.61538461538461, 100.0, 100.0
135.0, 15936.0, 19.0, 100.0, 88.46153846153845, 100.0, 100.0
136.0, 20048.0, 18.0, 100.0, 96.15384615384616, 100.0, 100.0
137.0, 27245.0, 51.0, 100.0, 96.15384615384616, 100.0, 100.0
138.0, 34442.0, 61.0, 100.0, 96.15384615384616, 100.0, 100.0
139.0, 23646.0, 37.0, 100.0, 92.3076923076923, 100.0, 100.0
140.0, 21590.0, 29.0, 100.0, 92.3076923076923, 100.0, 100.0
141.0, 51920.0, 29.0, 100.0, 92.3076923076923, 100.0, 100.0
142.0, 31358.0, 36.0, 100.0, 92.3076923076923, 100.0, 100.0
143.0, 25703.0, 22.0, 100.0, 88.46153846153845, 100.0, 100.0
144.0, 45237.0, 38.0, 100.0, 88.46153846153845, 100.0, 100.0
145.0, 64771.0, 60.0, 100.0, 96.15384615384616, 100.0, 100.0
146.0, 18506.0, 20.0, 100.0, 84.61538461538461, 100.0, 100.0
147.0, 19020.0, 29.0, 100.0, 92.3076923076923, 100.0, 100.0
148.0, 30329.0, 62.0, 100.0, 92.3076923076923, 100.0, 100.0
149.0, 15936.0, 27.0, 100.0, 92.3076923076923, 100.0, 100.0
150.0, 22619.0, 38.0, 100.0, 88.46153846153845, 100.0, 100.0
151.0, 17478.0, 19.0, 100.0, 88.46153846153845, 100.0, 100.0
152.0, 12337.0, 14.0, 100.0, 84.61538461538461, 100.0, 100.0
153.0, 13366.0, 16.0, 100.0, 88.46153846153845, 100.0, 100.0
154.0, 15421.0, 17.0, 100.0, 96.15384615384616, 100.0, 100.0
155.0, 21077.0, 32.0, 100.0, 92.3076923076923, 100.0, 100.0
156.0, 20048.0, 38.0, 100.0, 92.3076923076923, 100.0, 100.0
157.0, 13365.0, 20.0, 100.0, 92.3076923076923, 100.0, 100.0
158.0, 25703.0, 47.0, 100.0, 84.61538461538461, 100.0, 100.0
159.0, 14907.0, 22.0, 100.0, 88.46153846153845, 100.0, 100.0
160.0, 19020.0, 30.0, 100.0, 88.46153846153845, 100.0, 100.0
161.0, 54490.0, 34.0, 100.0, 88.46153846153845, 100.0, 100.0
162.0, 62201.0, 64.0, 100.0, 92.3076923076923, 100.0, 100.0
163.0, 23647.0, 42.0, 100.0, 88.46153846153845, 100.0, 100.0
164.0, 29302.0, 55.0, 100.0, 96.15384615384616, 100.0, 100.0
165.0, 11309.0, 14.0, 100.0, 92.3076923076923, 100.0, 100.0
166.0, 29815.0, 57.0, 100.0, 92.3076923076923, 100.0, 100.0
167.0, 25189.0, 42.0, 100.0, 92.3076923076923, 100.0, 100.0
168.0, 26731.0, 14.0, 100.0, 92.3076923076923, 100.0, 100.0
169.0, 13879.0, 18.0, 100.0, 88.46153846153845, 100.0, 100.0
170.0, 25189.0, 48.0, 100.0, 92.3076923076923, 100.0, 100.0
171.0, 27759.0, 54.0, 100.0, 92.3076923076923, 100.0, 100.0
172.0, 28787.0, 14.0, 100.0, 92.3076923076923, 100.0, 100.0
173.0, 22618.0, 21.0, 100.0, 92.3076923076923, 100.0, 100.0
174.0, 17992.0, 22.0, 100.0, 84.61538461538461, 100.0, 100.0
175.0, 15422.0, 13.0, 100.0, 88.46153846153845, 100.0, 100.0
176.0, 57574.0, 46.0, 100.0, 96.15384615384616, 100.0, 100.0
177.0, 21591.0, 33.0, 100.0, 92.3076923076923, 100.0, 100.0
178.0, 13879.0, 20.0, 100.0, 88.46153846153845, 100.0, 100.0
179.0, 21076.0, 33.0, 100.0, 92.3076923076923, 100.0, 100.0
180.0, 23647.0, 39.0, 100.0, 96.15384615384616, 100.0, 100.0
181.0, 22105.0, 33.0, 100.0, 96.15384615384616, 100.0, 100.0
182.0, 11823.0, 17.0, 100.0, 92.3076923076923, 100.0, 100.0
183.0, 21076.0, 41.0, 100.0, 88.46153846153845, 100.0, 100.0
184.0, 30330.0, 56.0, 100.0, 96.15384615384616, 100.0, 100.0
185.0, 19020.0, 28.0, 100.0, 84.61538461538461, 100.0, 100.0
186.0, 10281.0, 11.0, 100.0, 76.92307692307693, 93.65079365079364, 88.88888888888889
187.0, 16450.0, 22.0, 100.0, 92.3076923076923, 100.0, 100.0
188.0, 49864.0, 62.0, 100.0, 96.15384615384616, 100.0, 100.0
189.0, 29815.0, 30.0, 100.0, 88.46153846153845, 100.0, 100.0
190.0, 11824.0, 13.0, 100.0, 88.46153846153845, 100.0, 100.0
191.0, 24675.0, 35.0, 100.0, 92.3076923076923, 100.0, 100.0
192.0, 24675.0, 20.0, 100.0, 88.46153846153845, 100.0, 100.0
193.0, 32385.0, 40.0, 100.0, 84.61538461538461, 100.0, 100.0
194.0, 36498.0, 34.0, 100.0, 88.46153846153845, 100.0, 100.0
195.0, 23647.0, 20.0, 100.0, 88.46153846153845, 100.0, 100.0
196.0, 17478.0, 14.0, 100.0, 88.46153846153845, 100.0, 100.0
197.0, 32386.0, 38.0, 100.0, 92.3076923076923, 100.0, 100.0
198.0, 43181.0, 43.0, 100.0, 92.3076923076923, 100.0, 100.0
199.0, 43181.0, 42.0, 100.0, 92.3076923076923, 100.0, 100.0
200.0, 14908.0, 10.0, 100.0, 84.61538461538461, 100.0, 100.0
201.0, 23132.0, 25.0, 100.0, 88.46153846153845, 100.0, 100.0
202.0, 22618.0, 35.0, 100.0, 92.3076923076923, 100.0, 100.0
203.0, 14394.0, 14.0, 100.0, 88.46153846153845, 100.0, 100.0
204.0, 21590.0, 28.0, 100.0, 92.3076923076923, 100.0, 100.0
205.0, 20562.0, 34.0, 100.0, 92.3076923076923, 100.0, 100.0
206.0, 8739.0, 12.0, 100.0, 88.46153846153845, 100.0, 100.0
207.0, 12851.0, 17.0, 100.0, 84.61538461538461, 100.0, 100.0
208.0, 21591.0, 32.0, 100.0, 92.3076923076923, 100.0, 100.0
209.0, 14394.0, 22.0, 100.0, 84.61538461538461, 100.0, 100.0
210.0, 23133.0, 40.0, 100.0, 92.3076923076923, 100.0, 100.0
211.0, 11824.0, 17.0, 100.0, 88.46153846153845, 100.0, 100.0
212.0, 13366.0, 21.0, 100.0, 92.3076923076923, 100.0, 100.0
213.0, 12337.0, 13.0, 100.0, 88.46153846153845, 100.0, 100.0
214.0, 19534.0, 31.0, 100.0, 88.46153846153845, 100.0, 100.0
215.0, 23133.0, 19.0, 100.0, 92.3076923076923, 100.0, 100.0
216.0, 20562.0, 30.0, 100.0, 92.3076923076923, 100.0, 100.0
217.0, 16450.0, 12.0, 100.0, 84.61538461538461, 100.0, 100.0
218.0, 20048.0, 24.0, 100.0, 92.3076923076923, 100.0, 100.0
219.0, 15936.0, 21.0, 100.0, 92.3076923076923, 100.0, 100.0
220.0, 17478.0, 29.0, 100.0, 96.15384615384616, 100.0, 100.0
221.0, 15422.0, 19.0, 100.0, 88.46153846153845, 100.0, 100.0
222.0, 15935.0, 21.0, 100.0, 88.46153846153845, 100.0, 100.0
223.0, 23646.0, 36.0, 100.0, 92.3076923076923, 100.0, 100.0
224.0, 15422.0, 25.0, 100.0, 88.46153846153845, 100.0, 100.0
225.0, 13880.0, 15.0, 100.0, 84.61538461538461, 100.0, 100.0
226.0, 27245.0, 43.0, 100.0, 96.15384615384616, 100.0, 100.0
227.0, 20562.0, 33.0, 100.0, 92.3076923076923, 100.0, 100.0
228.0, 17478.0, 27.0, 100.0, 92.3076923076923, 100.0, 100.0
229.0, 19020.0, 19.0, 100.0, 92.3076923076923, 100.0, 100.0
230.0, 23647.0, 31.0, 100.0, 88.46153846153845, 100.0, 100.0
231.0, 16450.0, 17.0, 100.0, 92.3076923076923, 100.0, 100.0
232.0, 24674.0, 36.0, 100.0, 92.3076923076923, 100.0, 100.0
233.0, 22618.0, 44.0, 100.0, 96.15384615384616, 100.0, 100.0
234.0, 12338.0, 16.0, 100.0, 96.15384615384616, 100.0, 100.0
235.0, 41639.0, 31.0, 100.0, 84.61538461538461, 100.0, 100.0
236.0, 23647.0, 23.0, 100.0, 88.46153846153845, 100.0, 100.0
237.0, 29815.0, 35.0, 100.0, 92.3076923076923, 100.0, 100.0
238.0, 16964.0, 25.0, 100.0, 92.3076923076923, 100.0, 100.0
239.0, 16450.0, 32.0, 100.0, 96.15384615384616, 100.0, 100.0
240.0, 16964.0, 35.0, 100.0, 92.3076923076923, 100.0, 100.0
241.0, 18506.0, 31.0, 100.0, 84.61538461538461, 100.0, 100.0
242.0, 58602.0, 85.0, 100.0, 92.3076923076923, 100.0, 100.0
243.0, 15422.0, 26.0, 100.0, 88.46153846153845, 100.0, 100.0
244.0, 28273.0, 60.0, 100.0, 92.3076923076923, 100.0, 100.0
245.0, 36498.0, 35.0, 100.0, 88.46153846153845, 100.0, 100.0
246.0, 37526.0, 25.0, 100.0, 88.46153846153845, 100.0, 100.0
247.0, 26730.0, 47.0, 100.0, 92.3076923076923, 100.0, 100.0
248.0, 35470.0, 39.0, 100.0, 92.3076923076923, 100.0, 100.0
249.0, 13880.0, 24.0, 100.0, 84.61538461538461, 100.0, 100.0
250.0, 23647.0, 25.0, 100.0, 92.3076923076923, 100.0, 100.0
251.0, 20562.0, 18.0, 100.0, 88.46153846153845, 100.0, 100.0
252.0, 25189.0, 26.0, 100.0, 88.46153846153845, 100.0, 100.0
253.0, 15936.0, 24.0, 100.0, 88.46153846153845, 100.0, 100.0
254.0, 25703.0, 47.0, 100.0, 96.15384615384616, 100.0, 100.0
255.0, 21591.0, 44.0, 100.0, 84.61538461538461, 100.0, 100.0
256.0, 33413.0, 40.0, 100.0, 96.15384615384616, 100.0, 100.0
257.0, 40096.0, 44.0, 100.0, 96.15384615384616, 100.0, 100.0
258.0, 25189.0, 26.0, 100.0, 92.3076923076923, 100.0, 100.0
259.0, 74024.0, 84.0, 100.0, 92.3076923076923, 100.0, 100.0
260.0, 19020.0, 16.0, 100.0, 88.46153846153845, 100.0, 100.0
261.0, 21076.0, 19.0, 100.0, 92.3076923076923, 100.0, 100.0
262.0, 42153.0, 39.0, 100.0, 92.3076923076923, 100.0, 100.0
263.0, 26730.0, 31.0, 100.0, 88.46153846153845, 100.0, 100.0
264.0, 20563.0, 19.0, 100.0, 84.61538461538461, 100.0, 100.0
265.0, 24675.0, 26.0, 100.0, 92.3076923076923, 100.0, 100.0
266.0, 15936.0, 14.0, 100.0, 88.46153846153845, 100.0, 100.0
267.0, 37012.0, 72.0, 100.0, 96.15384615384616, 100.0, 100.0
268.0, 17478.0, 17.0, 100.0, 84.61538461538461, 100.0, 100.0
269.0, 19020.0, 26.0, 100.0, 92.3076923076923, 100.0, 100.0
270.0, 26217.0, 32.0, 100.0, 92.3076923076923, 100.0, 100.0
271.0, 19534.0, 18.0, 100.0, 84.61538461538461, 100.0, 100.0
272.0, 16964.0, 13.0, 100.0, 88.46153846153845, 100.0, 100.0
273.0, 33413.0, 65.0, 100.0, 92.3076923076923, 100.0, 100.0
274.0, 33414.0, 74.0, 100.0, 96.15384615384616, 100.0, 100.0
275.0, 17992.0, 27.0, 100.0, 88.46153846153845, 100.0, 100.0
276.0, 21591.0, 42.0, 100.0, 88.46153846153845, 100.0, 100.0
277.0, 13880.0, 24.0, 100.0, 88.46153846153845, 100.0, 100.0
278.0, 21590.0, 43.0, 100.0, 88.46153846153845, 100.0, 100.0
279.0, 17478.0, 31.0, 100.0, 96.15384615384616, 100.0, 100.0
280.0, 13879.0, 22.0, 100.0, 88.46153846153845, 100.0, 100.0
281.0, 17478.0, 30.0, 100.0, 92.3076923076923, 100.0, 100.0
282.0, 20562.0, 41.0, 100.0, 96.15384615384616, 100.0, 100.0
283.0, 25703.0, 28.0, 100.0, 92.3076923076923, 100.0, 100.0
284.0, 26731.0, 27.0, 100.0, 88.46153846153845, 100.0, 100.0
285.0, 21077.0, 15.0, 100.0, 84.61538461538461, 100.0, 100.0
286.0, 77622.0, 70.0, 100.0, 96.15384615384616, 100.0, 100.0
287.0, 39068.0, 48.0, 100.0, 96.15384615384616, 100.0, 100.0
288.0, 15936.0, 18.0, 100.0, 84.61538461538461, 100.0, 100.0
289.0, 26217.0, 47.0, 100.0, 88.46153846153845, 100.0, 100.0
290.0, 14394.0, 19.0, 100.0, 92.3076923076923, 100.0, 100.0
291.0, 16450.0, 16.0, 100.0, 92.3076923076923, 100.0, 100.0
292.0, 25703.0, 31.0, 100.0, 88.46153846153845, 100.0, 100.0
293.0, 26217.0, 31.0, 100.0, 96.15384615384616, 100.0, 100.0
294.0, 22618.0, 29.0, 100.0, 92.3076923076923, 100.0, 100.0
295.0, 30844.0, 67.0, 100.0, 88.46153846153845, 100.0, 100.0
296.0, 15421.0, 26.0, 100.0, 92.3076923076923, 100.0, 100.0
297.0, 25189.0, 33.0, 100.0, 88.46153846153845, 100.0, 100.0
298.0, 17992.0, 31.0, 100.0, 88.46153846153845, 100.0, 100.0
299.0, 23133.0, 36.0, 100.0, 92.3076923076923, 100.0, 100.0
300.0, 17992.0, 35.0, 100.0, 84.61538461538461, 100.0, 100.0
301.0, 16964.0, 32.0, 100.0, 96.15384615384616, 100.0, 100.0
302.0, 24674.0, 44.0, 100.0, 88.46153846153845, 100.0, 100.0
303.0, 12852.0, 18.0, 100.0, 92.3076923076923, 100.0, 100.0
304.0, 25703.0, 53.0, 100.0, 96.15384615384616, 100.0, 100.0
305.0, 19020.0, 32.0, 100.0, 88.46153846153845, 100.0, 100.0
306.0, 23647.0, 49.0, 100.0, 88.46153846153845, 100.0, 100.0
307.0, 35470.0, 42.0, 100.0, 88.46153846153845, 100.0, 100.0
308.0, 16450.0, 28.0, 100.0, 92.3076923076923, 100.0, 100.0
309.0, 20048.0, 35.0, 100.0, 96.15384615384616, 100.0, 100.0
310.0, 19020.0, 38.0, 100.0, 96.15384615384616, 100.0, 100.0
311.0, 20048.0, 30.0, 100.0, 88.46153846153845, 100.0, 100.0
312.0, 17478.0, 25.0, 100.0, 88.46153846153845, 100.0, 100.0
313.0, 12852.0, 15.0, 100.0, 88.46153846153845, 100.0, 100.0
314.0, 18506.0, 35.0, 100.0, 92.3076923076923, 100.0, 100.0
315.0, 13365.0, 17.0, 100.0, 92.3076923076923, 100.0, 100.0
316.0, 20562.0, 29.0, 100.0, 88.46153846153845, 100.0, 100.0
317.0, 12337.0, 17.0, 100.0, 88.46153846153845, 100.0, 100.0
318.0, 28788.0, 21.0, 100.0, 92.3076923076923, 100.0, 100.0
319.0, 16964.0, 36.0, 100.0, 92.3076923076923, 100.0, 100.0
320.0, 17478.0, 28.0, 100.0, 96.15384615384616, 100.0, 100.0
321.0, 37012.0, 78.0, 100.0, 92.3076923076923, 100.0, 100.0
322.0, 15422.0, 25.0, 100.0, 96.15384615384616, 100.0, 100.0
323.0, 16964.0, 28.0, 100.0, 92.3076923076923, 100.0, 100.0
324.0, 14394.0, 21.0, 100.0, 88.46153846153845, 100.0, 100.0
325.0, 12851.0, 21.0, 100.0, 84.61538461538461, 100.0, 100.0
326.0, 15421.0, 26.0, 100.0, 92.3076923076923, 100.0, 100.0
327.0, 19020.0, 35.0, 100.0, 88.46153846153845, 100.0, 100.0
328.0, 12337.0, 22.0, 100.0, 96.15384615384616, 100.0, 100.0
329.0, 10795.0, 16.0, 100.0, 88.46153846153845, 100.0, 100.0
330.0, 14908.0, 27.0, 100.0, 92.3076923076923, 100.0, 100.0
331.0, 13365.0, 17.0, 100.0, 96.15384615384616, 100.0, 100.0
332.0, 16964.0, 33.0, 100.0, 88.46153846153845, 100.0, 100.0
333.0, 13365.0, 24.0, 100.0, 84.61538461538461, 100.0, 100.0
334.0, 19535.0, 31.0, 100.0, 96.15384615384616, 100.0, 100.0
335.0, 17478.0, 33.0, 100.0, 96.15384615384616, 100.0, 100.0
336.0, 18506.0, 37.0, 100.0, 88.46153846153845, 100.0, 100.0
337.0, 15936.0, 22.0, 100.0, 88.46153846153845, 100.0, 100.0
338.0, 19020.0, 34.0, 100.0, 92.3076923076923, 100.0, 100.0
339.0, 10281.0, 15.0, 100.0, 88.46153846153845, 100.0, 100.0
340.0, 12852.0, 21.0, 100.0, 88.46153846153845, 100.0, 100.0
341.0, 12852.0, 15.0, 100.0, 84.61538461538461, 100.0, 100.0
342.0, 14908.0, 23.0, 100.0, 88.46153846153845, 100.0, 100.0
343.0, 16964.0, 32.0, 100.0, 92.3076923076923, 100.0, 100.0
344.0, 9767.0, 13.0, 100.0, 88.46153846153845, 100.0, 100.0
345.0, 10795.0, 18.0, 100.0, 92.3076923076923, 100.0, 100.0
346.0, 22104.0, 43.0, 100.0, 92.3076923076923, 100.0, 100.0
347.0, 16450.0, 23.0, 100.0, 88.46153846153845, 100.0, 100.0
348.0, 31357.0, 50.0, 100.0, 96.15384615384616, 100.0, 100.0
349.0, 14908.0, 30.0, 100.0, 88.46153846153845, 100.0, 100.0
350.0, 14907.0, 25.0, 100.0, 88.46153846153845, 100.0, 100.0
351.0, 18506.0, 29.0, 100.0, 92.3076923076923, 100.0, 100.0
352.0, 13880.0, 22.0, 100.0, 88.46153846153845, 100.0, 100.0
353.0, 11823.0, 17.0, 100.0, 84.61538461538461, 100.0, 100.0
354.0, 17992.0, 35.0, 100.0, 92.3076923076923, 100.0, 100.0
355.0, 18506.0, 30.0, 100.0, 92.3076923076923, 100.0, 100.0
356.0, 16450.0, 28.0, 100.0, 88.46153846153845, 100.0, 100.0
357.0, 15422.0, 22.0, 100.0, 88.46153846153845, 100.0, 100.0
358.0, 26731.0, 55.0, 100.0, 96.15384615384616, 100.0, 100.0
359.0, 17477.0, 29.0, 100.0, 92.3076923076923, 100.0, 100.0
360.0, 22104.0, 44.0, 100.0, 92.3076923076923, 100.0, 100.0
361.0, 15422.0, 26.0, 100.0, 84.61538461538461, 100.0, 100.0
362.0, 27759.0, 43.0, 100.0, 92.3076923076923, 100.0, 100.0
363.0, 11309.0, 15.0, 100.0, 88.46153846153845, 100.0, 100.0
364.0, 11310.0, 14.0, 100.0, 88.46153846153845, 100.0, 100.0
365.0, 13366.0, 20.0, 100.0, 88.46153846153845, 100.0, 100.0
366.0, 23646.0, 49.0, 100.0, 96.15384615384616, 100.0, 100.0
367.0, 23647.0, 50.0, 100.0, 88.46153846153845, 100.0, 100.0
368.0, 28788.0, 20.0, 100.0, 88.46153846153845, 100.0, 100.0
369.0, 14907.0, 24.0, 100.0, 88.46153846153845, 100.0, 100.0
370.0, 12337.0, 17.0, 100.0, 96.15384615384616, 100.0, 100.0
371.0, 12852.0, 22.0, 100.0, 88.46153846153845, 100.0, 100.0
372.0, 31358.0, 73.0, 100.0, 92.3076923076923, 100.0, 100.0
373.0, 14394.0, 23.0, 100.0, 92.3076923076923, 100.0, 100.0
374.0, 19534.0, 39.0, 100.0, 84.61538461538461, 100.0, 100.0
375.0, 12851.0, 20.0, 100.0, 88.46153846153845, 100.0, 100.0
376.0, 14907.0, 28.0, 100.0, 88.46153846153845, 100.0, 100.0
377.0, 16963.0, 35.0, 100.0, 92.3076923076923, 100.0, 100.0
378.0, 14393.0, 26.0, 100.0, 84.61538461538461, 100.0, 100.0
379.0, 18506.0, 20.0, 100.0, 88.46153846153845, 100.0, 100.0
380.0, 38040.0, 51.0, 100.0, 96.15384615384616, 100.0, 100.0
381.0, 15936.0, 29.0, 100.0, 92.3076923076923, 100.0, 100.0
382.0, 15936.0, 21.0, 100.0, 88.46153846153845, 100.0, 100.0
383.0, 23646.0, 52.0, 100.0, 96.15384615384616, 100.0, 100.0
384.0, 21076.0, 26.0, 100.0, 96.15384615384616, 100.0, 100.0
385.0, 29301.0, 51.0, 100.0, 88.46153846153845, 100.0, 100.0
386.0, 22104.0, 24.0, 100.0, 92.3076923076923, 100.0, 100.0
387.0, 32385.0, 32.0, 100.0, 92.3076923076923, 100.0, 100.0
388.0, 18506.0, 17.0, 100.0, 84.61538461538461, 100.0, 100.0
389.0, 41639.0, 48.0, 100.0, 96.15384615384616, 100.0, 100.0
390.0, 36498.0, 37.0, 100.0, 96.15384615384616, 100.0, 100.0
391.0, 19535.0, 19.0, 100.0, 92.3076923076923, 100.0, 100.0
392.0, 29815.0, 37.0, 100.0, 88.46153846153845, 100.0, 100.0
393.0, 11309.0, 14.0, 100.0, 92.3076923076923, 100.0, 100.0
394.0, 14908.0, 25.0, 100.0, 92.3076923076923, 100.0, 100.0
395.0, 20048.0, 42.0, 100.0, 92.3076923076923, 100.0, 100.0
396.0, 15936.0, 30.0, 100.0, 88.46153846153845, 100.0, 100.0
397.0, 20563.0, 43.0, 100.0, 92.3076923076923, 100.0, 100.0
398.0, 16964.0, 33.0, 100.0, 92.3076923076923, 100.0, 100.0
399.0, 15422.0, 28.0, 100.0, 84.61538461538461, 100.0, 100.0
400.0, 10795.0, 16.0, 100.0, 92.3076923076923, 100.0, 100.0
401.0, 28273.0, 64.0, 100.0, 92.3076923076923, 100.0, 100.0
402.0, 15422.0, 21.0, 100.0, 92.3076923076923, 100.0, 100.0
403.0, 14394.0, 25.0, 100.0, 88.46153846153845, 100.0, 100.0
404.0, 13365.0, 17.0, 100.0, 88.46153846153845, 100.0, 100.0
405.0, 29815.0, 43.0, 100.0, 92.3076923076923, 100.0, 100.0
406.0, 10282.0, 12.0, 100.0, 88.46153846153845, 100.0, 100.0
407.0, 30329.0, 40.0, 100.0, 88.46153846153845, 100.0, 100.0
408.0, 25703.0, 28.0, 100.0, 96.15384615384616, 100.0, 100.0
409.0, 30844.0, 31.0, 100.0, 88.46153846153845, 100.0, 100.0
410.0, 53976.0, 94.0, 100.0, 96.15384615384616, 100.0, 100.0
411.0, 16964.0, 16.0, 100.0, 84.61538461538461, 100.0, 100.0
412.0, 28273.0, 33.0, 100.0, 96.15384615384616, 100.0, 100.0
413.0, 23133.0, 22.0, 100.0, 88.46153846153845, 100.0, 100.0
414.0, 17478.0, 17.0, 100.0, 92.3076923076923, 100.0, 100.0
415.0, 23646.0, 21.0, 100.0, 84.61538461538461, 100.0, 100.0
416.0, 33413.0, 43.0, 100.0, 92.3076923076923, 100.0, 100.0
417.0, 15935.0, 14.0, 100.0, 92.3076923076923, 100.0, 100.0
418.0, 17992.0, 17.0, 100.0, 80.76923076923077, 93.65079365079364, 88.88888888888889
419.0, 51406.0, 61.0, 100.0, 92.3076923076923, 100.0, 100.0
420.0, 30843.0, 20.0, 100.0, 88.46153846153845, 100.0, 100.0
421.0, 23132.0, 23.0, 100.0, 84.61538461538461, 100.0, 100.0
422.0, 28787.0, 24.0, 100.0, 88.46153846153845, 100.0, 100.0
423.0, 67341.0, 28.0, 100.0, 92.3076923076923, 100.0, 100.0
424.0, 47294.0, 47.0, 100.0, 92.3076923076923, 100.0, 100.0
425.0, 18506.0, 17.0, 100.0, 88.46153846153845, 100.0, 100.0
426.0, 45237.0, 57.0, 100.0, 92.3076923076923, 100.0, 100.0
427.0, 26731.0, 18.0, 100.0, 88.46153846153845, 100.0, 100.0
428.0, 13880.0, 21.0, 100.0, 92.3076923076923, 100.0, 100.0
429.0, 16964.0, 30.0, 100.0, 88.46153846153845, 100.0, 100.0
430.0, 18506.0, 37.0, 100.0, 92.3076923076923, 100.0, 100.0
431.0, 25188.0, 31.0, 100.0, 92.3076923076923, 100.0, 100.0
432.0, 24160.0, 35.0, 100.0, 88.46153846153845, 100.0, 100.0
433.0, 18506.0, 34.0, 100.0, 88.46153846153845, 100.0, 100.0
434.0, 15421.0, 26.0, 100.0, 88.46153846153845, 100.0, 100.0
435.0, 22619.0, 44.0, 100.0, 96.15384615384616, 100.0, 100.0
436.0, 14908.0, 21.0, 100.0, 88.46153846153845, 100.0, 100.0
437.0, 27245.0, 51.0, 100.0, 96.15384615384616, 100.0, 100.0
438.0, 15422.0, 27.0, 100.0, 92.3076923076923, 100.0, 100.0
439.0, 37526.0, 41.0, 100.0, 92.3076923076923, 100.0, 100.0
440.0, 21077.0, 19.0, 100.0, 92.3076923076923, 100.0, 100.0
441.0, 16450.0, 34.0, 100.0, 92.3076923076923, 100.0, 100.0
442.0, 18506.0, 40.0, 100.0, 92.3076923076923, 100.0, 100.0
443.0, 19535.0, 40.0, 100.0, 92.3076923076923, 100.0, 100.0
444.0, 19020.0, 37.0, 100.0, 84.61538461538461, 100.0, 100.0
445.0, 16964.0, 32.0, 100.0, 96.15384615384616, 100.0, 100.0
446.0, 21591.0, 24.0, 100.0, 92.3076923076923, 100.0, 100.0
447.0, 35983.0, 39.0, 100.0, 92.3076923076923, 100.0, 100.0
448.0, 20562.0, 21.0, 100.0, 88.46153846153845, 100.0, 100.0
449.0, 25189.0, 18.0, 100.0, 88.46153846153845, 100.0, 100.0
450.0, 24675.0, 46.0, 100.0, 92.3076923076923, 100.0, 100.0
451.0, 16964.0, 29.0, 100.0, 88.46153846153845, 100.0, 100.0
452.0, 15935.0, 24.0, 100.0, 92.3076923076923, 100.0, 100.0
453.0, 29302.0, 63.0, 100.0, 92.3076923076923, 100.0, 100.0
454.0, 19020.0, 32.0, 100.0, 92.3076923076923, 100.0, 100.0
455.0, 11824.0, 14.0, 100.0, 88.46153846153845, 100.0, 100.0
456.0, 18506.0, 35.0, 100.0, 88.46153846153845, 100.0, 100.0
457.0, 13880.0, 20.0, 100.0, 92.3076923076923, 100.0, 100.0
458.0, 25189.0, 33.0, 100.0, 96.15384615384616, 100.0, 100.0
459.0, 23647.0, 38.0, 100.0, 88.46153846153845, 100.0, 100.0
460.0, 16964.0, 28.0, 100.0, 84.61538461538461, 100.0, 100.0
461.0, 16450.0, 22.0, 100.0, 92.3076923076923, 100.0, 100.0
462.0, 11823.0, 14.0, 100.0, 88.46153846153845, 100.0, 100.0
463.0, 22104.0, 35.0, 100.0, 92.3076923076923, 100.0, 100.0
464.0, 20562.0, 35.0, 100.0, 92.3076923076923, 100.0, 100.0
465.0, 16450.0, 26.0, 100.0, 92.3076923076923, 100.0, 100.0
466.0, 13366.0, 18.0, 100.0, 92.3076923076923, 100.0, 100.0
467.0, 28273.0, 28.0, 100.0, 88.46153846153845, 100.0, 100.0
468.0, 22618.0, 36.0, 100.0, 92.3076923076923, 100.0, 100.0
469.0, 28273.0, 54.0, 100.0, 96.15384615384616, 100.0, 100.0
470.0, 19020.0, 31.0, 100.0, 92.3076923076923, 100.0, 100.0
471.0, 22618.0, 43.0, 100.0, 92.3076923076923, 100.0, 100.0
472.0, 20562.0, 34.0, 100.0, 92.3076923076923, 100.0, 100.0
473.0, 40097.0, 45.0, 100.0, 96.15384615384616, 100.0, 100.0
474.0, 27759.0, 31.0, 100.0, 88.46153846153845, 100.0, 100.0
475.0, 33414.0, 57.0, 100.0, 92.3076923076923, 100.0, 100.0
476.0, 28273.0, 38.0, 100.0, 88.46153846153845, 100.0, 100.0
477.0, 26217.0, 41.0, 100.0, 92.3076923076923, 100.0, 100.0
478.0, 19534.0, 33.0, 100.0, 92.3076923076923, 100.0, 100.0
479.0, 22618.0, 31.0, 100.0, 96.15384615384616, 100.0, 100.0
480.0, 35984.0, 42.0, 100.0, 84.61538461538461, 100.0, 100.0
481.0, 45237.0, 47.0, 100.0, 92.3076923076923, 100.0, 100.0
482.0, 63743.0, 77.0, 100.0, 96.15384615384616, 100.0, 100.0
483.0, 55004.0, 62.0, 100.0, 96.15384615384616, 100.0, 100.0
484.0, 33414.0, 34.0, 100.0, 96.15384615384616, 100.0, 100.0
485.0, 34956.0, 39.0, 100.0, 92.3076923076923, 100.0, 100.0
486.0, 29301.0, 53.0, 100.0, 96.15384615384616, 100.0, 100.0
487.0, 16450.0, 23.0, 100.0, 92.3076923076923, 100.0, 100.0
488.0, 16450.0, 25.0, 100.0, 96.15384615384616, 100.0, 100.0
489.0, 17992.0, 14.0, 100.0, 84.61538461538461, 100.0, 100.0
490.0, 25189.0, 21.0, 100.0, 84.61538461538461, 100.0, 100.0
491.0, 38041.0, 34.0, 100.0, 92.3076923076923, 100.0, 100.0
492.0, 35470.0, 35.0, 100.0, 92.3076923076923, 100.0, 100.0
493.0, 15421.0, 23.0, 100.0, 96.15384615384616, 100.0, 100.0
494.0, 40610.0, 83.0, 100.0, 96.15384615384616, 100.0, 100.0
495.0, 13366.0, 17.0, 100.0, 84.61538461538461, 100.0, 100.0
496.0, 16964.0, 18.0, 100.0, 84.61538461538461, 100.0, 100.0
497.0, 15935.0, 23.0, 100.0, 88.46153846153845, 100.0, 100.0
498.0, 54490.0, 35.0, 100.0, 92.3076923076923, 100.0, 100.0
499.0, 34955.0, 34.0, 100.0, 92.3076923076923, 100.0, 100.0
500.0, 12338.0, 16.0, 100.0, 88.46153846153845, 100.0, 100.0
501.0, 17992.0, 22.0, 100.0, 92.3076923076923, 100.0, 100.0
502.0, 11309.0, 13.0, 100.0, 84.61538461538461, 96.82539682539682, 94.44444444444444
503.0, 19534.0, 28.0, 100.0, 96.15384615384616, 100.0, 100.0
504.0, 16964.0, 25.0, 100.0, 92.3076923076923, 100.0, 100.0
505.0, 17478.0, 28.0, 100.0, 88.46153846153845, 100.0, 100.0
506.0, 10795.0, 12.0, 100.0, 88.46153846153845, 100.0, 100.0
507.0, 12851.0, 17.0, 100.0, 84.61538461538461, 100.0, 100.0
508.0, 15935.0, 22.0, 100.0, 92.3076923076923, 100.0, 100.0
509.0, 23132.0, 30.0, 100.0, 88.46153846153845, 100.0, 100.0
510.0, 24161.0, 33.0, 100.0, 92.3076923076923, 100.0, 100.0
511.0, 21076.0, 17.0, 100.0, 88.46153846153845, 100.0, 100.0
512.0, 23647.0, 17.0, 100.0, 88.46153846153845, 100.0, 100.0
513.0, 25703.0, 21.0, 100.0, 84.61538461538461, 100.0, 100.0
514.0, 30844.0, 18.0, 100.0, 88.46153846153845, 100.0, 100.0
515.0, 23133.0, 21.0, 100.0, 92.3076923076923, 100.0, 100.0
516.0, 34956.0, 39.0, 100.0, 88.46153846153845, 100.0, 100.0
517.0, 50378.0, 55.0, 100.0, 92.3076923076923, 100.0, 100.0
518.0, 27759.0, 27.0, 100.0, 92.3076923076923, 100.0, 100.0
519.0, 22619.0, 20.0, 100.0, 92.3076923076923, 100.0, 100.0
520.0, 21591.0, 20.0, 100.0, 88.46153846153845, 100.0, 100.0
521.0, 47808.0, 50.0, 100.0, 92.3076923076923, 100.0, 100.0
522.0, 53462.0, 103.0, 100.0, 92.3076923076923, 100.0, 100.0
523.0, 17992.0, 30.0, 100.0, 88.46153846153845, 100.0, 100.0
524.0, 50378.0, 44.0, 100.0, 92.3076923076923, 100.0, 100.0
525.0, 15422.0, 23.0, 100.0, 88.46153846153845, 100.0, 100.0
526.0, 16450.0, 23.0, 100.0, 92.3076923076923, 100.0, 100.0
527.0, 16963.0, 26.0, 100.0, 88.46153846153845, 100.0, 100.0
528.0, 16450.0, 26.0, 100.0, 96.15384615384616, 100.0, 100.0
529.0, 19021.0, 32.0, 100.0, 96.15384615384616, 100.0, 100.0
530.0, 25703.0, 47.0, 100.0, 96.15384615384616, 100.0, 100.0
531.0, 17478.0, 28.0, 100.0, 88.46153846153845, 100.0, 100.0
532.0, 15422.0, 23.0, 100.0, 84.61538461538461, 100.0, 100.0
533.0, 167068.0, 15.0, 100.0, 88.46153846153845, 100.0, 100.0
534.0, 11309.0, 14.0, 100.0, 80.76923076923077, 93.65079365079364, 88.88888888888889
535.0, 18506.0, 34.0, 100.0, 92.3076923076923, 100.0, 100.0
536.0, 30329.0, 66.0, 100.0, 92.3076923076923, 100.0, 100.0
537.0, 11310.0, 15.0, 100.0, 92.3076923076923, 100.0, 100.0
538.0, 14908.0, 25.0, 100.0, 92.3076923076923, 100.0, 100.0
539.0, 25189.0, 54.0, 100.0, 96.15384615384616, 100.0, 100.0
540.0, 15936.0, 33.0, 100.0, 92.3076923076923, 100.0, 100.0
541.0, 20562.0, 47.0, 100.0, 96.15384615384616, 100.0, 100.0
542.0, 7711.0, 12.0, 100.0, 92.3076923076923, 100.0, 100.0
543.0, 10281.0, 13.0, 100.0, 92.3076923076923, 100.0, 100.0
544.0, 34955.0, 68.0, 100.0, 96.15384615384616, 100.0, 100.0
545.0, 15421.0, 26.0, 100.0, 88.46153846153845, 100.0, 100.0
546.0, 12851.0, 26.0, 100.0, 88.46153846153845, 100.0, 100.0
547.0, 13365.0, 25.0, 100.0, 96.15384615384616, 100.0, 100.0
548.0, 14908.0, 30.0, 100.0, 92.3076923076923, 100.0, 100.0
549.0, 16964.0, 39.0, 100.0, 92.3076923076923, 100.0, 100.0
550.0, 12337.0, 14.0, 100.0, 88.46153846153845, 100.0, 100.0
551.0, 10795.0, 19.0, 100.0, 92.3076923076923, 100.0, 100.0
552.0, 8225.0, 11.0, 100.0, 84.61538461538461, 100.0, 100.0
553.0, 12852.0, 26.0, 100.0, 88.46153846153845, 100.0, 100.0
554.0, 15422.0, 31.0, 100.0, 88.46153846153845, 100.0, 100.0
555.0, 15422.0, 30.0, 100.0, 88.46153846153845, 100.0, 100.0
556.0, 15935.0, 35.0, 100.0, 96.15384615384616, 100.0, 100.0
557.0, 14393.0, 28.0, 100.0, 88.46153846153845, 100.0, 100.0
558.0, 14393.0, 32.0, 100.0, 96.15384615384616, 100.0, 100.0
559.0, 8225.0, 12.0, 100.0, 84.61538461538461, 100.0, 100.0
560.0, 14908.0, 30.0, 100.0, 92.3076923076923, 100.0, 100.0
561.0, 20048.0, 45.0, 100.0, 92.3076923076923, 100.0, 100.0
562.0, 11309.0, 20.0, 100.0, 88.46153846153845, 100.0, 100.0
563.0, 27245.0, 58.0, 100.0, 92.3076923076923, 100.0, 100.0
564.0, 22104.0, 31.0, 100.0, 88.46153846153845, 100.0, 100.0
565.0, 23133.0, 21.0, 100.0, 92.3076923076923, 100.0, 100.0
566.0, 11309.0, 15.0, 100.0, 88.46153846153845, 100.0, 100.0
567.0, 22104.0, 46.0, 100.0, 88.46153846153845, 100.0, 100.0
568.0, 12851.0, 20.0, 100.0, 84.61538461538461, 100.0, 100.0
569.0, 17992.0, 35.0, 100.0, 88.46153846153845, 100.0, 100.0
570.0, 16450.0, 31.0, 100.0, 92.3076923076923, 100.0, 100.0
571.0, 16964.0, 33.0, 100.0, 88.46153846153845, 100.0, 100.0
572.0, 18506.0, 36.0, 100.0, 88.46153846153845, 100.0, 100.0
573.0, 20563.0, 40.0, 100.0, 92.3076923076923, 100.0, 100.0
574.0, 14908.0, 21.0, 100.0, 96.15384615384616, 100.0, 100.0
575.0, 15422.0, 24.0, 100.0, 92.3076923076923, 100.0, 100.0
576.0, 11824.0, 17.0, 100.0, 88.46153846153845, 100.0, 100.0
577.0, 39582.0, 54.0, 100.0, 96.15384615384616, 100.0, 100.0
578.0, 21590.0, 37.0, 100.0, 88.46153846153845, 100.0, 100.0
579.0, 12852.0, 13.0, 100.0, 92.3076923076923, 100.0, 100.0
580.0, 19534.0, 42.0, 100.0, 92.3076923076923, 100.0, 100.0
581.0, 13879.0, 21.0, 100.0, 88.46153846153845, 100.0, 100.0
582.0, 9767.0, 11.0, 100.0, 88.46153846153845, 100.0, 100.0
583.0, 17992.0, 32.0, 100.0, 92.3076923076923, 100.0, 100.0
584.0, 11823.0, 17.0, 100.0, 84.61538461538461, 100.0, 100.0
585.0, 21076.0, 42.0, 100.0, 92.3076923076923, 100.0, 100.0
586.0, 24675.0, 31.0, 100.0, 92.3076923076923, 100.0, 100.0
587.0, 16450.0, 15.0, 100.0, 88.46153846153845, 100.0, 100.0
588.0, 25703.0, 17.0, 100.0, 88.46153846153845, 100.0, 100.0
589.0, 98699.0, 121.0, 100.0, 96.15384615384616, 100.0, 100.0
590.0, 23646.0, 20.0, 100.0, 88.46153846153845, 100.0, 100.0
591.0, 17478.0, 16.0, 100.0, 84.61538461538461, 100.0, 100.0
592.0, 19534.0, 18.0, 100.0, 92.3076923076923, 100.0, 100.0
593.0, 11309.0, 19.0, 100.0, 88.46153846153845, 100.0, 100.0
594.0, 15936.0, 32.0, 100.0, 92.3076923076923, 100.0, 100.0
595.0, 9767.0, 16.0, 100.0, 88.46153846153845, 100.0, 100.0
596.0, 18506.0, 26.0, 100.0, 88.46153846153845, 100.0, 100.0
597.0, 21590.0, 37.0, 100.0, 88.46153846153845, 100.0, 100.0
598.0, 14394.0, 21.0, 100.0, 84.61538461538461, 96.82539682539682, 94.44444444444444
599.0, 12852.0, 21.0, 100.0, 88.46153846153845, 100.0, 100.0
600.0, 13880.0, 25.0, 100.0, 92.3076923076923, 100.0, 100.0
601.0, 23133.0, 52.0, 100.0, 88.46153846153845, 100.0, 100.0
602.0, 14908.0, 25.0, 100.0, 92.3076923076923, 100.0, 100.0
603.0, 12337.0, 18.0, 100.0, 84.61538461538461, 100.0, 100.0
604.0, 32899.0, 39.0, 100.0, 92.3076923076923, 100.0, 100.0
605.0, 19534.0, 42.0, 100.0, 92.3076923076923, 100.0, 100.0
606.0, 12851.0, 22.0, 100.0, 84.61538461538461, 100.0, 100.0
607.0, 13366.0, 22.0, 100.0, 92.3076923076923, 100.0, 100.0
608.0, 12337.0, 20.0, 100.0, 88.46153846153845, 100.0, 100.0
609.0, 14908.0, 29.0, 100.0, 92.3076923076923, 100.0, 100.0
610.0, 32386.0, 69.0, 100.0, 92.3076923076923, 100.0, 100.0
611.0, 17478.0, 27.0, 100.0, 88.46153846153845, 100.0, 100.0
612.0, 24675.0, 49.0, 100.0, 92.3076923076923, 100.0, 100.0
613.0, 12337.0, 17.0, 100.0, 92.3076923076923, 100.0, 100.0
614.0, 24161.0, 52.0, 100.0, 92.3076923076923, 100.0, 100.0
615.0, 39582.0, 86.0, 100.0, 96.15384615384616, 100.0, 100.0
616.0, 19020.0, 38.0, 100.0, 84.61538461538461, 100.0, 100.0
617.0, 22104.0, 44.0, 100.0, 92.3076923076923, 100.0, 100.0
618.0, 22618.0, 40.0, 100.0, 92.3076923076923, 100.0, 100.0
619.0, 17478.0, 35.0, 100.0, 88.46153846153845, 100.0, 100.0
620.0, 19020.0, 33.0, 100.0, 92.3076923076923, 100.0, 100.0
621.0, 11309.0, 15.0, 100.0, 88.46153846153845, 100.0, 100.0
622.0, 11823.0, 18.0, 100.0, 92.3076923076923, 100.0, 100.0
623.0, 12338.0, 18.0, 100.0, 84.61538461538461, 100.0, 100.0
624.0, 17478.0, 32.0, 100.0, 92.3076923076923, 100.0, 100.0
625.0, 17991.0, 37.0, 100.0, 92.3076923076923, 100.0, 100.0
626.0, 11310.0, 13.0, 100.0, 84.61538461538461, 100.0, 100.0
627.0, 17992.0, 33.0, 100.0, 92.3076923076923, 100.0, 100.0
628.0, 14907.0, 26.0, 100.0, 96.15384615384616, 100.0, 100.0
629.0, 13879.0, 22.0, 100.0, 92.3076923076923, 100.0, 100.0
630.0, 22618.0, 46.0, 100.0, 88.46153846153845, 100.0, 100.0
631.0, 18506.0, 33.0, 100.0, 88.46153846153845, 100.0, 100.0
632.0, 37526.0, 90.0, 100.0, 92.3076923076923, 100.0, 100.0
633.0, 13879.0, 23.0, 100.0, 84.61538461538461, 100.0, 100.0
634.0, 17477.0, 33.0, 100.0, 88.46153846153845, 100.0, 100.0
635.0, 24160.0, 49.0, 100.0, 92.3076923076923, 100.0, 100.0
636.0, 17478.0, 23.0, 100.0, 88.46153846153845, 100.0, 100.0
637.0, 13880.0, 22.0, 100.0, 92.3076923076923, 100.0, 100.0
638.0, 19534.0, 24.0, 100.0, 96.15384615384616, 100.0, 100.0
639.0, 23132.0, 44.0, 100.0, 88.46153846153845, 100.0, 100.0
640.0, 19020.0, 32.0, 100.0, 96.15384615384616, 100.0, 100.0
641.0, 42153.0, 51.0, 100.0, 92.3076923076923, 100.0, 100.0
642.0, 19534.0, 19.0, 100.0, 92.3076923076923, 100.0, 100.0
643.0, 17992.0, 13.0, 100.0, 84.61538461538461, 100.0, 100.0
644.0, 40610.0, 51.0, 100.0, 96.15384615384616, 100.0, 100.0
645.0, 18506.0, 20.0, 100.0, 84.61538461538461, 100.0, 100.0
646.0, 33413.0, 43.0, 100.0, 96.15384615384616, 100.0, 100.0
647.0, 29301.0, 30.0, 100.0, 88.46153846153845, 100.0, 100.0
648.0, 24675.0, 26.0, 100.0, 88.46153846153845, 100.0, 100.0
649.0, 16450.0, 16.0, 100.0, 92.3076923076923, 100.0, 100.0
650.0, 23647.0, 28.0, 100.0, 88.46153846153845, 100.0, 100.0
651.0, 15422.0, 27.0, 100.0, 84.61538461538461, 100.0, 100.0
652.0, 14908.0, 27.0, 100.0, 92.3076923076923, 100.0, 100.0
653.0, 10795.0, 15.0, 100.0, 88.46153846153845, 100.0, 100.0
654.0, 26217.0, 62.0, 100.0, 92.3076923076923, 100.0, 100.0
655.0, 13879.0, 25.0, 100.0, 88.46153846153845, 100.0, 100.0
656.0, 18506.0, 39.0, 100.0, 96.15384615384616, 100.0, 100.0
657.0, 25702.0, 59.0, 100.0, 96.15384615384616, 100.0, 100.0
658.0, 12852.0, 24.0, 100.0, 84.61538461538461, 100.0, 100.0
659.0, 24161.0, 24.0, 100.0, 88.46153846153845, 100.0, 100.0
660.0, 17992.0, 34.0, 100.0, 92.3076923076923, 100.0, 100.0
661.0, 15936.0, 32.0, 100.0, 88.46153846153845, 100.0, 100.0
662.0, 11823.0, 18.0, 100.0, 84.61538461538461, 100.0, 100.0
663.0, 19020.0, 42.0, 100.0, 96.15384615384616, 100.0, 100.0
664.0, 10795.0, 18.0, 100.0, 84.61538461538461, 100.0, 100.0
665.0, 19020.0, 40.0, 100.0, 92.3076923076923, 100.0, 100.0
666.0, 11309.0, 14.0, 100.0, 92.3076923076923, 100.0, 100.0
667.0, 20562.0, 49.0, 100.0, 96.15384615384616, 100.0, 100.0
668.0, 17478.0, 32.0, 100.0, 88.46153846153845, 100.0, 100.0
669.0, 9768.0, 13.0, 100.0, 76.92307692307693, 93.65079365079364, 88.88888888888889
670.0, 13879.0, 24.0, 100.0, 92.3076923076923, 100.0, 100.0
671.0, 15936.0, 35.0, 100.0, 88.46153846153845, 100.0, 100.0
672.0, 9768.0, 15.0, 100.0, 84.61538461538461, 100.0, 100.0
673.0, 44209.0, 51.0, 100.0, 92.3076923076923, 100.0, 100.0
674.0, 18506.0, 18.0, 100.0, 88.46153846153845, 100.0, 100.0
675.0, 21591.0, 19.0, 100.0, 84.61538461538461, 100.0, 100.0
676.0, 17992.0, 40.0, 100.0, 92.3076923076923, 100.0, 100.0
677.0, 14394.0, 26.0, 100.0, 92.3076923076923, 100.0, 100.0
678.0, 23133.0, 27.0, 100.0, 88.46153846153845, 100.0, 100.0
679.0, 15935.0, 35.0, 100.0, 92.3076923076923, 100.0, 100.0
680.0, 17477.0, 41.0, 100.0, 96.15384615384616, 100.0, 100.0
681.0, 22619.0, 58.0, 100.0, 92.3076923076923, 100.0, 100.0
682.0, 16449.0, 36.0, 100.0, 88.46153846153845, 100.0, 100.0
683.0, 14908.0, 29.0, 100.0, 96.15384615384616, 100.0, 100.0
684.0, 10795.0, 19.0, 100.0, 84.61538461538461, 100.0, 100.0
685.0, 12338.0, 22.0, 100.0, 92.3076923076923, 100.0, 100.0
686.0, 26217.0, 64.0, 100.0, 92.3076923076923, 100.0, 100.0
687.0, 14394.0, 13.0, 100.0, 88.46153846153845, 100.0, 100.0
688.0, 19020.0, 27.0, 100.0, 88.46153846153845, 100.0, 100.0
689.0, 15935.0, 23.0, 100.0, 88.46153846153845, 100.0, 100.0
690.0, 17992.0, 22.0, 100.0, 92.3076923076923, 100.0, 100.0
691.0, 45751.0, 85.0, 100.0, 96.15384615384616, 100.0, 100.0
692.0, 25188.0, 38.0, 100.0, 92.3076923076923, 100.0, 100.0
693.0, 9767.0, 20.0, 100.0, 84.61538461538461, 100.0, 100.0
694.0, 10795.0, 24.0, 100.0, 92.3076923076923, 100.0, 100.0
695.0, 48321.0, 160.0, 100.0, 96.15384615384616, 100.0, 100.0
696.0, 11309.0, 26.0, 100.0, 92.3076923076923, 100.0, 100.0
697.0, 22105.0, 67.0, 100.0, 96.15384615384616, 100.0, 100.0
698.0, 14394.0, 36.0, 100.0, 92.3076923076923, 100.0, 100.0
699.0, 11823.0, 24.0, 100.0, 96.15384615384616, 100.0, 100.0
700.0, 8225.0, 14.0, 100.0, 84.61538461538461, 100.0, 100.0
701.0, 23132.0, 65.0, 100.0, 96.15384615384616, 100.0, 100.0
702.0, 9767.0, 19.0, 100.0, 88.46153846153845, 100.0, 100.0
703.0, 10281.0, 16.0, 100.0, 88.46153846153845, 100.0, 100.0
704.0, 8739.0, 17.0, 100.0, 84.61538461538461, 100.0, 100.0
705.0, 12338.0, 23.0, 100.0, 88.46153846153845, 100.0, 100.0
706.0, 9767.0, 14.0, 100.0, 92.3076923076923, 100.0, 100.0
707.0, 10795.0, 20.0, 100.0, 92.3076923076923, 100.0, 100.0
708.0, 14393.0, 30.0, 100.0, 88.46153846153845, 100.0, 100.0
709.0, 25188.0, 71.0, 100.0, 92.3076923076923, 100.0, 100.0
710.0, 14393.0, 31.0, 100.0, 92.3076923076923, 100.0, 100.0
711.0, 13880.0, 30.0, 100.0, 92.3076923076923, 100.0, 100.0
712.0, 13879.0, 34.0, 100.0, 88.46153846153845, 100.0, 100.0
713.0, 10795.0, 21.0, 100.0, 84.61538461538461, 100.0, 100.0
714.0, 10281.0, 18.0, 100.0, 84.61538461538461, 100.0, 100.0
715.0, 11309.0, 23.0, 100.0, 88.46153846153845, 100.0, 100.0
716.0, 12338.0, 26.0, 100.0, 92.3076923076923, 100.0, 100.0
717.0, 17992.0, 44.0, 100.0, 92.3076923076923, 100.0, 100.0
718.0, 20048.0, 52.0, 100.0, 92.3076923076923, 100.0, 100.0
719.0, 12851.0, 27.0, 100.0, 92.3076923076923, 100.0, 100.0
720.0, 10281.0, 17.0, 100.0, 88.46153846153845, 100.0, 100.0
721.0, 16964.0, 34.0, 100.0, 92.3076923076923, 100.0, 100.0
722.0, 9767.0, 19.0, 100.0, 88.46153846153845, 100.0, 100.0
723.0, 11310.0, 25.0, 100.0, 84.61538461538461, 100.0, 100.0
724.0, 19534.0, 17.0, 100.0, 88.46153846153845, 100.0, 100.0
725.0, 24675.0, 65.0, 100.0, 96.15384615384616, 100.0, 100.0
726.0, 17992.0, 31.0, 100.0, 96.15384615384616, 100.0, 100.0
727.0, 24161.0, 41.0, 100.0, 88.46153846153845, 100.0, 100.0
728.0, 20049.0, 27.0, 100.0, 88.46153846153845, 100.0, 100.0
729.0, 20048.0, 17.0, 100.0, 88.46153846153845, 100.0, 100.0
730.0, 13880.0, 14.0, 100.0, 92.3076923076923, 100.0, 100.0
731.0, 53976.0, 95.0, 100.0, 96.15384615384616, 100.0, 100.0
732.0, 17477.0, 39.0, 100.0, 96.15384615384616, 100.0, 100.0
733.0, 13880.0, 29.0, 100.0, 96.15384615384616, 100.0, 100.0
734.0, 9253.0, 15.0, 100.0, 84.61538461538461, 100.0, 100.0
735.0, 13880.0, 32.0, 100.0, 88.46153846153845, 100.0, 100.0
736.0, 11823.0, 23.0, 100.0, 92.3076923076923, 100.0, 100.0
737.0, 16964.0, 40.0, 100.0, 96.15384615384616, 100.0, 100.0
738.0, 12852.0, 27.0, 100.0, 92.3076923076923, 100.0, 100.0
739.0, 8739.0, 13.0, 100.0, 88.46153846153845, 100.0, 100.0
740.0, 31358.0, 93.0, 100.0, 96.15384615384616, 100.0, 100.0
741.0, 12337.0, 25.0, 100.0, 92.3076923076923, 100.0, 100.0
742.0, 19020.0, 30.0, 100.0, 84.61538461538461, 100.0, 100.0
743.0, 11309.0, 23.0, 100.0, 88.46153846153845, 100.0, 100.0
744.0, 20563.0, 54.0, 100.0, 96.15384615384616, 100.0, 100.0
745.0, 9767.0, 18.0, 100.0, 92.3076923076923, 100.0, 100.0
746.0, 13366.0, 27.0, 100.0, 92.3076923076923, 100.0, 100.0
747.0, 17478.0, 43.0, 100.0, 88.46153846153845, 100.0, 100.0
748.0, 13365.0, 30.0, 100.0, 84.61538461538461, 100.0, 100.0
749.0, 8225.0, 12.0, 100.0, 88.46153846153845, 100.0, 100.0
750.0, 8225.0, 15.0, 100.0, 84.61538461538461, 100.0, 100.0
751.0, 11824.0, 22.0, 100.0, 88.46153846153845, 100.0, 100.0
752.0, 17478.0, 39.0, 100.0, 88.46153846153845, 100.0, 100.0
753.0, 15936.0, 39.0, 100.0, 92.3076923076923, 100.0, 100.0
754.0, 18506.0, 49.0, 100.0, 96.15384615384616, 100.0, 100.0
755.0, 14907.0, 36.0, 100.0, 88.46153846153845, 100.0, 100.0
756.0, 14908.0, 35.0, 100.0, 92.3076923076923, 100.0, 100.0
757.0, 11823.0, 20.0, 100.0, 92.3076923076923, 100.0, 100.0
758.0, 13365.0, 27.0, 100.0, 96.15384615384616, 100.0, 100.0
759.0, 11309.0, 21.0, 100.0, 96.15384615384616, 100.0, 100.0
760.0, 9767.0, 20.0, 100.0, 88.46153846153845, 100.0, 100.0
761.0, 9253.0, 15.0, 100.0, 92.3076923076923, 100.0, 100.0
762.0, 7711.0, 12.0, 100.0, 84.61538461538461, 100.0, 100.0
763.0, 15421.0, 36.0, 100.0, 92.3076923076923, 100.0, 100.0
764.0, 12852.0, 25.0, 100.0, 96.15384615384616, 100.0, 100.0
765.0, 11309.0, 21.0, 100.0, 88.46153846153845, 100.0, 100.0
766.0, 13879.0, 30.0, 100.0, 92.3076923076923, 100.0, 100.0
767.0, 21590.0, 59.0, 100.0, 92.3076923076923, 100.0, 100.0
768.0, 15936.0, 35.0, 100.0, 88.46153846153845, 100.0, 100.0
769.0, 29301.0, 46.0, 100.0, 92.3076923076923, 100.0, 100.0
770.0, 12852.0, 23.0, 100.0, 92.3076923076923, 100.0, 100.0
771.0, 8739.0, 15.0, 100.0, 92.3076923076923, 100.0, 100.0
772.0, 20562.0, 49.0, 100.0, 96.15384615384616, 100.0, 100.0
773.0, 17991.0, 34.0, 100.0, 96.15384615384616, 100.0, 100.0
774.0, 17478.0, 42.0, 100.0, 96.15384615384616, 100.0, 100.0
775.0, 13879.0, 35.0, 100.0, 88.46153846153845, 100.0, 100.0
776.0, 12338.0, 25.0, 100.0, 88.46153846153845, 100.0, 100.0
777.0, 9253.0, 14.0, 100.0, 92.3076923076923, 100.0, 100.0
778.0, 8225.0, 10.0, 100.0, 84.61538461538461, 100.0, 100.0
779.0, 16964.0, 38.0, 100.0, 92.3076923076923, 100.0, 100.0
780.0, 10281.0, 18.0, 100.0, 84.61538461538461, 100.0, 100.0
781.0, 11310.0, 22.0, 100.0, 92.3076923076923, 100.0, 100.0
782.0, 21076.0, 32.0, 100.0, 96.15384615384616, 100.0, 100.0
783.0, 23132.0, 32.0, 100.0, 88.46153846153845, 100.0, 100.0
784.0, 23132.0, 59.0, 100.0, 92.3076923076923, 100.0, 100.0
785.0, 16964.0, 39.0, 100.0, 92.3076923076923, 100.0, 100.0
786.0, 20048.0, 52.0, 100.0, 92.3076923076923, 100.0, 100.0
787.0, 17478.0, 43.0, 100.0, 92.3076923076923, 100.0, 100.0
788.0, 9253.0, 14.0, 100.0, 84.61538461538461, 100.0, 100.0
789.0, 15935.0, 35.0, 100.0, 92.3076923076923, 100.0, 100.0
790.0, 23133.0, 59.0, 100.0, 92.3076923076923, 100.0, 100.0
791.0, 10281.0, 16.0, 100.0, 88.46153846153845, 100.0, 100.0
792.0, 26217.0, 69.0, 100.0, 96.15384615384616, 100.0, 100.0
793.0, 8739.0, 12.0, 100.0, 84.61538461538461, 100.0, 100.0
794.0, 28273.0, 60.0, 100.0, 96.15384615384616, 100.0, 100.0
795.0, 16964.0, 38.0, 100.0, 92.3076923076923, 100.0, 100.0
796.0, 11823.0, 26.0, 100.0, 88.46153846153845, 100.0, 100.0
797.0, 14908.0, 25.0, 100.0, 88.46153846153845, 100.0, 100.0
798.0, 21590.0, 56.0, 100.0, 92.3076923076923, 100.0, 100.0
799.0, 12852.0, 26.0, 100.0, 88.46153846153845, 100.0, 100.0
800.0, 10795.0, 19.0, 100.0, 92.3076923076923, 100.0, 100.0
801.0, 10795.0, 21.0, 100.0, 88.46153846153845, 100.0, 100.0
802.0, 11824.0, 26.0, 100.0, 88.46153846153845, 100.0, 100.0
803.0, 12851.0, 27.0, 100.0, 84.61538461538461, 100.0, 100.0
804.0, 15936.0, 37.0, 100.0, 92.3076923076923, 100.0, 100.0
805.0, 12851.0, 29.0, 100.0, 88.46153846153845, 100.0, 100.0
806.0, 17992.0, 51.0, 100.0, 92.3076923076923, 100.0, 100.0
807.0, 32386.0, 105.0, 100.0, 92.3076923076923, 100.0, 100.0
808.0, 16450.0, 42.0, 100.0, 92.3076923076923, 100.0, 100.0
809.0, 8739.0, 16.0, 100.0, 84.61538461538461, 100.0, 100.0
810.0, 9767.0, 17.0, 100.0, 92.3076923076923, 100.0, 100.0
811.0, 29301.0, 90.0, 100.0, 96.15384615384616, 100.0, 100.0
812.0, 15422.0, 39.0, 100.0, 92.3076923076923, 100.0, 100.0
813.0, 11309.0, 24.0, 100.0, 96.15384615384616, 100.0, 100.0
814.0, 9767.0, 19.0, 100.0, 84.61538461538461, 100.0, 100.0
815.0, 13366.0, 31.0, 100.0, 96.15384615384616, 100.0, 100.0
816.0, 11309.0, 21.0, 100.0, 92.3076923076923, 100.0, 100.0
817.0, 12337.0, 24.0, 100.0, 88.46153846153845, 100.0, 100.0
818.0, 21076.0, 62.0, 100.0, 92.3076923076923, 100.0, 100.0
819.0, 9768.0, 17.0, 100.0, 92.3076923076923, 100.0, 100.0
820.0, 10281.0, 21.0, 100.0, 88.46153846153845, 100.0, 100.0
821.0, 12851.0, 27.0, 100.0, 96.15384615384616, 100.0, 100.0
822.0, 19534.0, 49.0, 100.0, 88.46153846153845, 100.0, 100.0
823.0, 6683.0, 11.0, 100.0, 88.46153846153845, 100.0, 100.0
824.0, 10795.0, 23.0, 100.0, 92.3076923076923, 100.0, 100.0
825.0, 13366.0, 33.0, 100.0, 88.46153846153845, 100.0, 100.0
826.0, 23647.0, 67.0, 100.0, 92.3076923076923, 100.0, 100.0
827.0, 10796.0, 28.0, 100.0, 88.46153846153845, 100.0, 100.0
828.0, 15936.0, 46.0, 100.0, 92.3076923076923, 100.0, 100.0
829.0, 23132.0, 39.0, 100.0, 92.3076923076923, 100.0, 100.0
830.0, 14393.0, 38.0, 100.0, 96.15384615384616, 100.0, 100.0
831.0, 8739.0, 17.0, 100.0, 88.46153846153845, 100.0, 100.0
832.0, 13366.0, 34.0, 100.0, 88.46153846153845, 100.0, 100.0
833.0, 13365.0, 38.0, 100.0, 88.46153846153845, 100.0, 100.0
834.0, 15421.0, 38.0, 100.0, 96.15384615384616, 100.0, 100.0
835.0, 16964.0, 49.0, 100.0, 92.3076923076923, 100.0, 100.0
836.0, 13880.0, 29.0, 100.0, 96.15384615384616, 100.0, 100.0
837.0, 8739.0, 19.0, 100.0, 88.46153846153845, 100.0, 100.0
838.0, 18506.0, 54.0, 100.0, 92.3076923076923, 100.0, 100.0
839.0, 17478.0, 51.0, 100.0, 92.3076923076923, 100.0, 100.0
840.0, 16964.0, 50.0, 100.0, 92.3076923076923, 100.0, 100.0
841.0, 13366.0, 38.0, 100.0, 88.46153846153845, 100.0, 100.0
842.0, 10796.0, 26.0, 100.0, 92.3076923076923, 100.0, 100.0
843.0, 15422.0, 44.0, 100.0, 92.3076923076923, 100.0, 100.0
844.0, 19020.0, 57.0, 100.0, 96.15384615384616, 100.0, 100.0
845.0, 15421.0, 43.0, 100.0, 88.46153846153845, 100.0, 100.0
846.0, 9253.0, 19.0, 100.0, 88.46153846153845, 100.0, 100.0
847.0, 19020.0, 58.0, 100.0, 92.3076923076923, 100.0, 100.0
848.0, 8739.0, 17.0, 100.0, 88.46153846153845, 100.0, 100.0
849.0, 22104.0, 58.0, 100.0, 92.3076923076923, 100.0, 100.0
850.0, 12851.0, 27.0, 100.0, 92.3076923076923, 100.0, 100.0
851.0, 14907.0, 34.0, 100.0, 88.46153846153845, 100.0, 100.0
852.0, 8225.0, 12.0, 100.0, 84.61538461538461, 100.0, 100.0
853.0, 12338.0, 26.0, 100.0, 92.3076923076923, 100.0, 100.0
854.0, 12338.0, 25.0, 100.0, 88.46153846153845, 100.0, 100.0
855.0, 9767.0, 17.0, 100.0, 88.46153846153845, 100.0, 100.0
856.0, 7710.0, 11.0, 100.0, 88.46153846153845, 100.0, 100.0
857.0, 11309.0, 20.0, 100.0, 84.61538461538461, 100.0, 100.0
858.0, 26216.0, 66.0, 100.0, 88.46153846153845, 100.0, 100.0
859.0, 15422.0, 35.0, 100.0, 92.3076923076923, 100.0, 100.0
860.0, 8739.0, 15.0, 100.0, 84.61538461538461, 100.0, 100.0
861.0, 21591.0, 35.0, 100.0, 92.3076923076923, 100.0, 100.0
862.0, 17992.0, 25.0, 100.0, 88.46153846153845, 100.0, 100.0
863.0, 12337.0, 25.0, 100.0, 92.3076923076923, 100.0, 100.0
864.0, 12851.0, 27.0, 100.0, 88.46153846153845, 100.0, 100.0
865.0, 11823.0, 22.0, 100.0, 92.3076923076923, 100.0, 100.0
866.0, 9767.0, 16.0, 100.0, 88.46153846153845, 100.0, 100.0
867.0, 10281.0, 17.0, 100.0, 92.3076923076923, 100.0, 100.0
868.0, 12851.0, 27.0, 100.0, 92.3076923076923, 100.0, 100.0
869.0, 15422.0, 40.0, 100.0, 88.46153846153845, 100.0, 100.0
870.0, 15421.0, 39.0, 100.0, 88.46153846153845, 100.0, 100.0
871.0, 11309.0, 17.0, 100.0, 92.3076923076923, 100.0, 100.0
872.0, 15936.0, 20.0, 100.0, 92.3076923076923, 100.0, 100.0
873.0, 14393.0, 19.0, 100.0, 88.46153846153845, 100.0, 100.0
874.0, 21590.0, 57.0, 100.0, 96.15384615384616, 100.0, 100.0
875.0, 20563.0, 53.0, 100.0, 92.3076923076923, 100.0, 100.0
876.0, 14908.0, 19.0, 100.0, 92.3076923076923, 100.0, 100.0
877.0, 22618.0, 45.0, 100.0, 88.46153846153845, 100.0, 100.0
878.0, 13366.0, 27.0, 100.0, 92.3076923076923, 100.0, 100.0
879.0, 15935.0, 38.0, 100.0, 92.3076923076923, 100.0, 100.0
880.0, 8739.0, 15.0, 100.0, 84.61538461538461, 100.0, 100.0
881.0, 22104.0, 48.0, 100.0, 96.15384615384616, 100.0, 100.0
882.0, 15936.0, 39.0, 100.0, 92.3076923076923, 100.0, 100.0
883.0, 15422.0, 34.0, 100.0, 92.3076923076923, 100.0, 100.0
884.0, 18506.0, 46.0, 100.0, 92.3076923076923, 100.0, 100.0
885.0, 22618.0, 65.0, 100.0, 92.3076923076923, 100.0, 100.0
886.0, 9767.0, 18.0, 100.0, 88.46153846153845, 100.0, 100.0
887.0, 9253.0, 17.0, 100.0, 92.3076923076923, 100.0, 100.0
888.0, 13879.0, 33.0, 100.0, 92.3076923076923, 100.0, 100.0
889.0, 10281.0, 16.0, 100.0, 88.46153846153845, 100.0, 100.0
890.0, 12337.0, 24.0, 100.0, 88.46153846153845, 100.0, 100.0
891.0, 16450.0, 36.0, 100.0, 92.3076923076923, 100.0, 100.0
892.0, 88418.0, 77.0, 100.0, 96.15384615384616, 100.0, 100.0
893.0, 25703.0, 25.0, 100.0, 92.3076923076923, 100.0, 100.0
894.0, 10281.0, 17.0, 100.0, 88.46153846153845, 100.0, 100.0
895.0, 15935.0, 38.0, 100.0, 96.15384615384616, 100.0, 100.0
896.0, 13879.0, 29.0, 100.0, 92.3076923076923, 100.0, 100.0
897.0, 16964.0, 24.0, 100.0, 96.15384615384616, 100.0, 100.0
898.0, 47808.0, 89.0, 100.0, 92.3076923076923, 100.0, 100.0
899.0, 22104.0, 29.0, 100.0, 92.3076923076923, 100.0, 100.0
900.0, 31871.0, 52.0, 100.0, 92.3076923076923, 100.0, 100.0
901.0, 13880.0, 16.0, 100.0, 92.3076923076923, 100.0, 100.0
902.0, 27245.0, 28.0, 100.0, 88.46153846153845, 100.0, 100.0
903.0, 17992.0, 21.0, 100.0, 88.46153846153845, 100.0, 100.0
904.0, 11823.0, 18.0, 100.0, 92.3076923076923, 100.0, 100.0
905.0, 11823.0, 19.0, 100.0, 92.3076923076923, 100.0, 100.0
906.0, 17478.0, 34.0, 100.0, 88.46153846153845, 100.0, 100.0
907.0, 12851.0, 26.0, 100.0, 92.3076923076923, 100.0, 100.0
908.0, 13365.0, 25.0, 100.0, 88.46153846153845, 100.0, 100.0
909.0, 31358.0, 91.0, 100.0, 92.3076923076923, 100.0, 100.0
910.0, 8739.0, 13.0, 100.0, 92.3076923076923, 100.0, 100.0
911.0, 12338.0, 23.0, 100.0, 96.15384615384616, 100.0, 100.0
912.0, 23132.0, 62.0, 100.0, 92.3076923076923, 100.0, 100.0
913.0, 16450.0, 43.0, 100.0, 92.3076923076923, 100.0, 100.0
914.0, 12337.0, 26.0, 100.0, 92.3076923076923, 100.0, 100.0
915.0, 11823.0, 24.0, 100.0, 88.46153846153845, 100.0, 100.0
916.0, 13880.0, 29.0, 100.0, 92.3076923076923, 100.0, 100.0
917.0, 13879.0, 30.0, 100.0, 88.46153846153845, 100.0, 100.0
918.0, 18506.0, 44.0, 100.0, 96.15384615384616, 100.0, 100.0
919.0, 13366.0, 31.0, 100.0, 96.15384615384616, 100.0, 100.0
920.0, 16964.0, 43.0, 100.0, 92.3076923076923, 100.0, 100.0
921.0, 17478.0, 39.0, 100.0, 88.46153846153845, 100.0, 100.0
922.0, 20048.0, 44.0, 100.0, 96.15384615384616, 100.0, 100.0
923.0, 11823.0, 26.0, 100.0, 88.46153846153845, 100.0, 100.0
924.0, 24675.0, 60.0, 100.0, 96.15384615384616, 100.0, 100.0
925.0, 10281.0, 19.0, 100.0, 88.46153846153845, 100.0, 100.0
926.0, 19020.0, 24.0, 100.0, 92.3076923076923, 100.0, 100.0
927.0, 27759.0, 43.0, 100.0, 88.46153846153845, 100.0, 100.0
928.0, 19020.0, 25.0, 100.0, 88.46153846153845, 100.0, 100.0
929.0, 11309.0, 18.0, 100.0, 84.61538461538461, 100.0, 100.0
930.0, 11823.0, 20.0, 100.0, 88.46153846153845, 100.0, 100.0
931.0, 10281.0, 16.0, 100.0, 88.46153846153845, 100.0, 100.0
932.0, 20048.0, 55.0, 100.0, 96.15384615384616, 100.0, 100.0
933.0, 24675.0, 70.0, 100.0, 96.15384615384616, 100.0, 100.0
934.0, 14908.0, 32.0, 100.0, 88.46153846153845, 100.0, 100.0
935.0, 20562.0, 51.0, 100.0, 96.15384615384616, 100.0, 100.0
936.0, 9767.0, 19.0, 100.0, 92.3076923076923, 100.0, 100.0
937.0, 10282.0, 20.0, 100.0, 88.46153846153845, 100.0, 100.0
938.0, 13880.0, 32.0, 100.0, 92.3076923076923, 100.0, 100.0
939.0, 18506.0, 42.0, 100.0, 92.3076923076923, 100.0, 100.0
940.0, 31872.0, 40.0, 100.0, 96.15384615384616, 100.0, 100.0
941.0, 12851.0, 30.0, 100.0, 92.3076923076923, 100.0, 100.0
942.0, 19020.0, 52.0, 100.0, 92.3076923076923, 100.0, 100.0
943.0, 11309.0, 20.0, 100.0, 92.3076923076923, 100.0, 100.0
944.0, 10795.0, 20.0, 100.0, 92.3076923076923, 100.0, 100.0
945.0, 28274.0, 59.0, 100.0, 92.3076923076923, 100.0, 100.0
946.0, 15421.0, 33.0, 100.0, 96.15384615384616, 100.0, 100.0
947.0, 11309.0, 24.0, 100.0, 92.3076923076923, 100.0, 100.0
948.0, 12851.0, 27.0, 100.0, 92.3076923076923, 100.0, 100.0
949.0, 10281.0, 20.0, 100.0, 92.3076923076923, 100.0, 100.0
950.0, 10281.0, 19.0, 100.0, 84.61538461538461, 100.0, 100.0
951.0, 9767.0, 15.0, 100.0, 92.3076923076923, 100.0, 100.0
952.0, 11824.0, 23.0, 100.0, 92.3076923076923, 100.0, 100.0
953.0, 11309.0, 22.0, 100.0, 88.46153846153845, 100.0, 100.0
954.0, 14907.0, 35.0, 100.0, 92.3076923076923, 100.0, 100.0
955.0, 13879.0, 31.0, 100.0, 92.3076923076923, 100.0, 100.0
956.0, 12337.0, 23.0, 100.0, 96.15384615384616, 100.0, 100.0
957.0, 33927.0, 32.0, 100.0, 88.46153846153845, 100.0, 100.0
958.0, 10796.0, 20.0, 100.0, 88.46153846153845, 100.0, 100.0
959.0, 21591.0, 57.0, 100.0, 96.15384615384616, 100.0, 100.0
960.0, 14393.0, 31.0, 100.0, 92.3076923076923, 100.0, 100.0
961.0, 11309.0, 25.0, 100.0, 88.46153846153845, 100.0, 100.0
962.0, 9253.0, 15.0, 100.0, 92.3076923076923, 100.0, 100.0
963.0, 11309.0, 22.0, 100.0, 92.3076923076923, 100.0, 100.0
964.0, 14393.0, 31.0, 100.0, 88.46153846153845, 100.0, 100.0
965.0, 14393.0, 35.0, 100.0, 92.3076923076923, 100.0, 100.0
966.0, 9767.0, 15.0, 100.0, 84.61538461538461, 100.0, 100.0
967.0, 19020.0, 47.0, 100.0, 92.3076923076923, 100.0, 100.0
968.0, 13365.0, 29.0, 100.0, 96.15384615384616, 100.0, 100.0
969.0, 12338.0, 24.0, 100.0, 88.46153846153845, 100.0, 100.0
970.0, 10281.0, 21.0, 100.0, 88.46153846153845, 100.0, 100.0
971.0, 17478.0, 21.0, 100.0, 88.46153846153845, 100.0, 100.0
972.0, 11310.0, 20.0, 100.0, 92.3076923076923, 100.0, 100.0
973.0, 22619.0, 61.0, 100.0, 92.3076923076923, 100.0, 100.0
974.0, 12337.0, 24.0, 100.0, 92.3076923076923, 100.0, 100.0
975.0, 17992.0, 45.0, 100.0, 88.46153846153845, 100.0, 100.0
976.0, 24675.0, 74.0, 100.0, 88.46153846153845, 100.0, 100.0
977.0, 14907.0, 37.0, 100.0, 88.46153846153845, 100.0, 100.0
978.0, 17992.0, 50.0, 100.0, 96.15384615384616, 100.0, 100.0
979.0, 17992.0, 41.0, 100.0, 92.3076923076923, 100.0, 100.0
980.0, 12337.0, 24.0, 100.0, 92.3076923076923, 100.0, 100.0
981.0, 8739.0, 17.0, 100.0, 88.46153846153845, 100.0, 100.0
982.0, 11823.0, 27.0, 100.0, 84.61538461538461, 100.0, 100.0
983.0, 13880.0, 33.0, 100.0, 88.46153846153845, 100.0, 100.0
984.0, 11310.0, 22.0, 100.0, 88.46153846153845, 100.0, 100.0
985.0, 9253.0, 17.0, 100.0, 88.46153846153845, 100.0, 100.0
986.0, 13366.0, 28.0, 100.0, 96.15384615384616, 100.0, 100.0
987.0, 13366.0, 29.0, 100.0, 88.46153846153845, 100.0, 100.0
988.0, 10282.0, 21.0, 100.0, 88.46153846153845, 100.0, 100.0
989.0, 27759.0, 26.0, 100.0, 92.3076923076923, 100.0, 100.0
990.0, 10282.0, 19.0, 100.0, 88.46153846153845, 100.0, 100.0
991.0, 16450.0, 30.0, 100.0, 96.15384615384616, 100.0, 100.0
992.0, 12851.0, 25.0, 100.0, 96.15384615384616, 100.0, 100.0
993.0, 11310.0, 21.0, 100.0, 88.46153846153845, 100.0, 100.0
994.0, 20048.0, 27.0, 100.0, 92.3076923076923, 100.0, 100.0
995.0, 11823.0, 23.0, 100.0, 96.15384615384616, 100.0, 100.0
996.0, 14908.0, 35.0, 100.0, 92.3076923076923, 100.0, 100.0
997.0, 11823.0, 23.0, 100.0, 92.3076923076923, 100.0, 100.0
998.0, 22104.0, 21.0, 100.0, 88.46153846153845, 100.0, 100.0
999.0, 9767.0, 18.0, 100.0, 88.46153846153845, 100.0, 100.0
1000.0, 23133.0, 65.0, 100.0, 92.3076923076923, 100.0, 100.0
